<?xml version="1.0" encoding="utf-8"?>
<!-- Generator: Adobe Illustrator 19.0.0, SVG Export Plug-In . SVG Version: 6.00 Build 0)  -->
<svg version="1.1" id="Layer_1" xmlns="http://www.w3.org/2000/svg" xmlns:xlink="http://www.w3.org/1999/xlink" x="0px" y="0px"
	 viewBox="-288 412.5 18.4 17.4" style="enable-background:new -288 412.5 18.4 17.4;" xml:space="preserve">
<style type="text/css">
	.st0{fill-rule:evenodd;clip-rule:evenodd;fill:#FFFFFF;}
</style>
<path id="XMLID_419_" class="st0" d="M-278.8,427.5c-3.6,0-6.5-2.9-6.5-6.5c0-3.6,2.9-6.5,6.5-6.5s6.5,2.9,6.5,6.5
	C-272.3,424.6-275.2,427.5-278.8,427.5L-278.8,427.5z M-278.8,418.1c0.5,0,0.8-0.4,0.8-0.8c0-0.5-0.4-0.8-0.8-0.8s-0.8,0.4-0.8,0.8
	C-279.6,417.8-279.3,418.1-278.8,418.1L-278.8,418.1z M-278.8,425.5c0.4,0,0.8-0.4,0.8-0.8v-4.9c0-0.4-0.4-0.8-0.8-0.8c0,0,0,0,0,0
	h-1c-0.3,0-0.6,0.3-0.6,0.6c0,0.3,0.3,0.6,0.6,0.6h0.2v4.5C-279.6,425.1-279.3,425.5-278.8,425.5z"/>
</svg>
