<?xml version="1.0" encoding="utf-8"?>
<!-- Generator: Adobe Illustrator 19.0.0, SVG Export Plug-In . SVG Version: 6.00 Build 0)  -->
<svg version="1.1" id="Layer_1" xmlns="http://www.w3.org/2000/svg" xmlns:xlink="http://www.w3.org/1999/xlink" x="0px" y="0px"
	 viewBox="0 0 18.4 17.4" style="enable-background:new 0 0 18.4 17.4;" xml:space="preserve">
<style type="text/css">
	.st0{fill-rule:evenodd;clip-rule:evenodd;fill:#D51067;}
</style>
<path id="XMLID_127_" class="st0" d="M9.3,1.1c-4.1,0-7.5,3.4-7.5,7.5c0,4.1,3.4,7.5,7.5,7.5c4.1,0,7.5-3.4,7.5-7.5
	C16.8,4.4,13.4,1.1,9.3,1.1L9.3,1.1z M6.5,12.9c-0.6-0.4-1.9-1.6-1.9-2.4c0-0.3,0.2-0.5,0.5-0.5h4.2h4.2c0.3,0,0.5,0.2,0.5,0.5
	c0,0.8-1.2,2-1.9,2.4c-0.8,0.5-1.8,0.8-2.8,0.8S7.3,13.4,6.5,12.9L6.5,12.9z M12.1,4.8c0.6,0,1.2,0.5,1.2,1.2c0,0.6-0.5,1.2-1.2,1.2
	S10.9,6.6,10.9,6C10.9,5.3,11.5,4.8,12.1,4.8L12.1,4.8z M6.5,4.8c0.6,0,1.2,0.5,1.2,1.2c0,0.6-0.5,1.2-1.2,1.2S5.3,6.6,5.3,6
	C5.3,5.3,5.8,4.8,6.5,4.8z"/>
</svg>
