<?xml version="1.0" encoding="utf-8"?>
<!-- Generator: Adobe Illustrator 19.2.1, SVG Export Plug-In . SVG Version: 6.00 Build 0)  -->
<svg version="1.1" id="Layer_1" xmlns="http://www.w3.org/2000/svg" xmlns:xlink="http://www.w3.org/1999/xlink" x="0px" y="0px"
	 viewBox="0 0 642 627.3" style="enable-background:new 0 0 642 627.3;" xml:space="preserve">
<style type="text/css">
	.st0{fill:none;stroke:#FFFFFF;stroke-width:5;stroke-miterlimit:10;}
	.st1{fill:#FFFFFF;}
</style>
<g id="XMLID_7571_">
	<g id="XMLID_10152_">
		<g id="XMLID_10308_">
		</g>
		<g id="XMLID_10182_">
			<path class="st0" d="M501.1,77.5c-0.2,0-0.4-0.1-0.5-0.2"/>
			<path class="st0" d="M509.8,81.1c-1.3-0.6-2.7-1.2-4.1-1.8"/>
			<path class="st0" d="M522.9,88.8c-1.6-1.1-3.3-2.2-4.9-3.2"/>
			<path class="st0" d="M529,93.4c-0.7-0.6-1.4-1.2-2.1-1.6c-1.1-0.9-2.2-1.7-3.3-2.5"/>
			<path class="st0" d="M540.6,104.7c-1.2-1.4-2.4-2.7-3.7-4c-0.4-0.4-0.7-0.7-1-1c-1-1.1-2-2-3.1-3"/>
			<path class="st0" d="M548.3,114.7c-1-1.5-2-2.9-3.1-4.4"/>
			<path class="st0" d="M556.6,130.2c-0.6-1.3-1.2-2.6-1.8-4c-0.7-1.4-1.4-2.8-2.1-4.1c-0.6-1.1-1.2-2.1-1.8-3.2
				c-0.7-1.2-1.4-2.3-2.2-3.5"/>
			<path class="st0" d="M558.5,134.9c-0.5-1.3-1-2.6-1.5-3.9"/>
			<path class="st0" d="M563.8,157.5c-0.1-1.3-0.3-2.6-0.5-3.9"/>
			<path class="st0" d="M564.2,163c0-1.4-0.2-2.8-0.3-4.1"/>
			<path class="st0" d="M564.3,167.9c0-1.6,0-3.3-0.1-4.8"/>
			<path class="st0" d="M563.9,471.9c0.1-1.2,0.2-2.4,0.3-3.7"/>
			<path class="st0" d="M561.4,486.2c0.3-1.1,0.5-2.2,0.8-3.3"/>
			<path class="st0" d="M558.5,495.9c0,0,0-0.1,0-0.1c0.1-0.1,0.1-0.2,0.2-0.4"/>
			<path class="st0" d="M554.8,504.5c0.7-1.3,1.2-2.7,1.8-4.1"/>
			<path class="st0" d="M542.6,523.8c0.9-1.1,1.8-2.2,2.6-3.4c0.9-1.2,1.8-2.4,2.7-3.7"/>
			<path class="st0" d="M529.9,536.6c0.6-0.5,1.2-1,1.7-1.5c1-0.8,2-1.7,2.9-2.6"/>
			<path class="st0" d="M505.8,551.4c2.8-1.2,5.5-2.4,8.1-3.9c0.7-0.4,1.4-0.7,2-1.1c0.5-0.3,1.1-0.6,1.6-1"/>
			<path class="st0" d="M501.1,553.2c1.3-0.4,2.6-1,3.9-1.5"/>
			<path class="st0" d="M478.4,558.5c1.3-0.1,2.6-0.3,3.9-0.5"/>
			<path class="st0" d="M473,558.9c1.4,0,2.7-0.2,4.1-0.3"/>
			<path class="st0" d="M468.1,559.1c1.6,0,3.2,0,4.8-0.1"/>
			<path class="st0" d="M76.9,168.1c0,13.6,2.8,26.5,8,38.3c2.2,5.1,4.9,10,7.9,14.6c3.6,5.4,7.7,10.5,12.3,15l79.3,79.3l39.9,39.9
				l56.5,56.4l39.9,39.9l79.3,79.3c4.5,4.6,9.6,8.7,15,12.3c4.6,3.1,9.5,5.7,14.6,8c0.3,0.1,0.6,0.3,0.9,0.4
				c11.5,4.9,24.1,7.6,37.4,7.6"/>
			<path class="st0" d="M78.8,149.1c0,0.2-0.1,0.4-0.1,0.7"/>
			<path class="st0" d="M79.9,144.1c-0.3,1.2-0.6,2.4-0.8,3.7"/>
			<path class="st0" d="M80.4,142.4c0,0.2-0.1,0.3-0.1,0.5"/>
			<path class="st0" d="M173.2,71.6c-41.5,0.8-76.9,26.7-90.4,63.3c-0.5,1.5-1,2.9-1.5,4.5"/>
			<polyline class="st0" points="564.3,462.6 564.3,416.3 564.3,405 564.3,225.7 564.3,214.4 564.3,168.1 			"/>
			<path class="st0" d="M468.1,559.1c1.6,0,3.2,0,4.8-0.1c0,0,0.1,0,0.1,0c1.4-0.1,2.8-0.2,4.1-0.3c0.4,0,0.9-0.1,1.3-0.1
				c1.3-0.1,2.6-0.3,3.9-0.5c6.5-1,12.8-2.6,18.7-4.8c1.3-0.5,2.6-1,3.9-1.5c0.3-0.1,0.5-0.2,0.8-0.4c2.8-1.2,5.5-2.5,8.1-3.9
				c1.2-0.7,2.5-1.4,3.7-2.1c4.3-2.6,8.4-5.5,12.2-8.7c0.6-0.5,1.2-1,1.7-1.5c1-0.8,2-1.7,2.9-2.6c2.9-2.8,5.6-5.6,8.1-8.7
				c0.9-1.1,1.8-2.2,2.6-3.4c0.9-1.2,1.8-2.5,2.7-3.7c2.6-3.9,4.9-7.9,7-12.1c0.6-1.3,1.2-2.7,1.8-4.1c0.7-1.5,1.2-3,1.8-4.5
				c0-0.2,0.1-0.4,0.2-0.5c0.5-1.3,0.9-2.7,1.3-4.1c0.4-1.3,0.8-2.6,1.1-3.9"/>
			<path class="st0" d="M164,558.6c1.2,0.1,2.4,0.2,3.7,0.3"/>
			<path class="st0" d="M150.1,556.3c1,0.3,2,0.5,2.9,0.7"/>
			<path class="st0" d="M144.6,554.7C144.6,554.7,144.6,554.7,144.6,554.7"/>
			<path class="st0" d="M140.1,553.2c0,0,0.1,0,0.1,0c0.1,0.1,0.3,0.1,0.4,0.2"/>
			<path class="st0" d="M131.5,549.6c1.3,0.6,2.7,1.2,4.1,1.8"/>
			<path class="st0" d="M112.2,537.3c1.1,0.9,2.2,1.8,3.4,2.6c1.2,0.9,2.4,1.8,3.7,2.7"/>
			<path class="st0" d="M90,511.3c0.9,1.6,1.9,3.1,2.8,4.6c1.1,1.7,2.3,3.4,3.5,5c1,1.3,2,2.6,3.1,3.9c0.4,0.5,0.9,1.1,1.4,1.6
				c0.8,1,1.7,2,2.6,2.9"/>
			<path class="st0" d="M82.7,495.8c0.5,1.3,1,2.6,1.5,3.9"/>
			<path class="st0" d="M77.5,473.2c0.1,1.3,0.3,2.6,0.5,3.9"/>
			<path class="st0" d="M77,467.7c0,1.4,0.2,2.7,0.3,4.1"/>
			<path class="st0" d="M76.9,462.8c0,1.6,0,3.2,0.1,4.8"/>
			<path class="st0" d="M467.9,71.6c-13.6,0-26.5,2.8-38.3,8c-5.1,2.2-10,4.9-14.6,7.9c-5.4,3.6-10.5,7.7-15,12.3l-79.3,79.3
				L280.7,219l-56.4,56.5l-39.9,39.9l-79.3,79.3c-4.6,4.5-8.7,9.6-12.3,15c-3,4.6-5.7,9.5-7.9,14.6c-0.1,0.3-0.3,0.6-0.4,0.9
				c-4.9,11.5-7.6,24.1-7.6,37.4"/>
			<path class="st0" d="M477.2,72.1c-1.2-0.1-2.4-0.2-3.7-0.3"/>
			<path class="st0" d="M491.5,74.5c-1.1-0.3-2.2-0.5-3.3-0.8"/>
			<path class="st0" d="M564.3,167.9c-0.8-41.5-26.7-76.9-63.3-90.4c-1.5-0.5-2.9-1-4.5-1.5c-1.3-0.4-2.6-0.8-3.9-1.1"/>
			<path class="st0" d="M355.8,613.5c1.1-0.4,2.2-0.8,3.3-1.3c1.1-0.4,2.2-0.9,3.2-1.5"/>
			<path class="st0" d="M343.6,617.4c3-0.8,6-1.6,8.9-2.7"/>
			<path class="st0" d="M332.3,619.4c1.6-0.2,3.1-0.4,4.6-0.7"/>
			<path class="st0" d="M326.5,620c1.9-0.1,3.7-0.3,5.6-0.5"/>
			<path class="st0" d="M321.3,620.2c1.7,0,3.4-0.1,5.1-0.2"/>
			<path class="st0" d="M23.1,352.1c0.5,1.3,1.1,2.6,1.6,3.8c0.5,1,0.9,2,1.5,3"/>
			<path class="st0" d="M173.4,559.1h46.3H231h179.3h11.3h46.3c0,0,0.1,0,0.1,0s0,0,0.1,0c41.5-0.9,76.9-26.7,90.4-63.3
				c0.5-1.5,1-2.9,1.5-4.5c0.4-1.3,0.8-2.6,1.1-3.9c0.1-0.4,0.2-0.8,0.3-1.2c0.3-1.1,0.5-2.2,0.8-3.3c0.8-3.6,1.3-7.3,1.7-11
				c0.1-1.2,0.2-2.4,0.3-3.7c0.1-1.8,0.2-3.7,0.2-5.5c0,0,0-0.1,0-0.1c0-13.6-2.8-26.5-8-38.3c-2.2-5.1-4.9-10-7.9-14.6
				c-3.6-5.4-7.7-10.5-12.3-15l-79.3-79.3L417,275.4L360.5,219l-39.9-39.9l-79.3-79.3c-4.6-4.6-9.6-8.7-15-12.3
				c-4.6-3-9.5-5.7-14.6-7.9c-0.3-0.1-0.6-0.3-0.9-0.4c-11.5-4.9-24.1-7.6-37.4-7.6"/>
			<path class="st0" d="M154.3,557.2c0.2,0,0.4,0.1,0.7,0.1"/>
			<path class="st0" d="M76.9,462.8c0,1.6,0,3.2,0.1,4.8c0,0,0,0.1,0,0.1c0.1,1.4,0.2,2.8,0.3,4.1c0,0.4,0.1,0.9,0.1,1.3
				c0.1,1.3,0.3,2.6,0.5,3.9c1,6.5,2.6,12.8,4.8,18.7c0.5,1.3,1,2.6,1.5,3.9c1.6,4,3.6,7.9,5.8,11.6c0.9,1.6,1.8,3.1,2.8,4.6
				c1.1,1.7,2.3,3.4,3.5,5c1,1.3,2,2.6,3.1,3.9c0.4,0.5,0.9,1.1,1.4,1.6c0.8,1,1.7,2,2.6,2.9c2.8,2.9,5.6,5.6,8.7,8.1
				c1.1,0.9,2.2,1.8,3.4,2.6c1.2,0.9,2.5,1.8,3.7,2.7c3.9,2.6,7.9,4.9,12.1,7c1.3,0.6,2.7,1.2,4.1,1.8c1.5,0.7,3,1.2,4.5,1.8
				c0.2,0,0.4,0.1,0.5,0.2c1.3,0.5,2.6,0.9,4,1.3c1,0.3,2,0.6,3,0.8c0.2,0.1,0.4,0.1,0.5,0.1c0.4,0.1,0.7,0.2,1,0.3"/>
			<path class="st0" d="M77.4,158.8c-0.1,1.2-0.2,2.4-0.3,3.7"/>
			<path class="st0" d="M79.7,144.8c-0.3,1-0.5,2-0.7,2.9"/>
			<path class="st0" d="M80.2,142.8c-0.1,0.3-0.2,0.7-0.3,1"/>
			<path class="st0" d="M81.2,139.3C81.2,139.4,81.2,139.4,81.2,139.3c-0.3,1.1-0.6,2-0.8,3"/>
			<path class="st0" d="M82.7,134.8c0,0,0,0.1,0,0.1c-0.1,0.1-0.1,0.3-0.2,0.4"/>
			<path class="st0" d="M86.4,126.2c-0.6,1.3-1.2,2.7-1.8,4.1"/>
			<path class="st0" d="M94.1,113.1c-1.2,1.6-2.2,3.3-3.2,4.9"/>
			<path class="st0" d="M98.6,107c-0.6,0.7-1.1,1.4-1.6,2.1c-0.9,1.1-1.7,2.2-2.5,3.3"/>
			<path class="st0" d="M109.9,95.3c-1.4,1.2-2.7,2.4-4,3.7c-0.3,0.3-0.6,0.6-0.8,0.8c-1.1,1.1-2.1,2.2-3.2,3.3"/>
			<path class="st0" d="M125,84.6c-1.7,0.9-3.3,2-4.9,3c-1.7,1.1-3.4,2.3-5,3.5c-1.4,1-2.7,2.1-4.1,3.3"/>
			<path class="st0" d="M140.1,77.5c-1.3,0.5-2.6,1-3.9,1.5"/>
			<path class="st0" d="M162.8,72.2c-1.3,0.1-2.6,0.3-3.9,0.5"/>
			<path class="st0" d="M168.2,71.8c-1.4,0-2.7,0.2-4.1,0.3"/>
			<line class="st0" x1="173.2" y1="71.6" x2="168.4" y2="71.8"/>
			<path class="st0" d="M76.9,462.6c0,0,0,0.1,0,0.1s0,0,0,0.1c0.9,41.5,26.7,76.9,63.3,90.4c1.5,0.5,2.9,1,4.5,1.5
				c1,0.3,2,0.6,2.9,0.8c0.2,0,0.3,0.1,0.5,0.1c0.4,0.1,0.7,0.2,1,0.3c0.3,0,0.6,0.1,0.9,0.2c1,0.2,2,0.4,2.9,0.7
				c0.4,0.1,0.9,0.2,1.3,0.3c0.2,0,0.4,0.1,0.7,0.1c2.9,0.6,6,1,9,1.3c1.2,0.1,2.4,0.2,3.7,0.3c1.8,0.1,3.7,0.2,5.5,0.2
				c0,0,0.1,0,0.1,0c13.6,0,26.5-2.8,38.3-8c5.1-2.2,10-4.9,14.6-7.9c5.4-3.6,10.5-7.7,15-12.3l79.3-79.3l39.9-39.9l56.4-56.5
				l39.9-39.9l79.3-79.3c4.6-4.6,8.7-9.6,12.3-15c3.1-4.6,5.7-9.5,8-14.6c0.1-0.3,0.3-0.6,0.4-0.9c4.9-11.5,7.6-24.1,7.6-37.4
				c0,0,0-0.1,0-0.1v0c0-1.6,0-3.2-0.1-4.8V163c0-1.4-0.2-2.7-0.3-4.1l-0.1-1.3c-0.1-1.3-0.3-2.6-0.5-3.9l-4.8-18.7
				c-0.4-1.3-1-2.6-1.5-3.9l-0.4-0.8c-0.5-1.3-1.2-2.7-1.8-4c-0.7-1.4-1.4-2.8-2.1-4.1c-0.4-0.7-0.7-1.4-1.1-2
				c-0.2-0.4-0.4-0.8-0.7-1.2c-0.7-1.2-1.4-2.3-2.2-3.5c-0.1-0.2-0.3-0.4-0.4-0.7c-1-1.5-2-2.9-3.1-4.4c-1.5-2-3-3.8-4.6-5.7
				c-1.2-1.4-2.4-2.7-3.7-4c-0.4-0.4-0.7-0.7-1-1c-1-1-2-2-3.1-3c-1.2-1.1-2.5-2.2-3.8-3.3c-0.7-0.6-1.4-1.1-2.1-1.6
				c-1.1-0.9-2.2-1.7-3.3-2.5c-0.2-0.2-0.4-0.3-0.7-0.4c-1.6-1.2-3.3-2.2-4.9-3.2c-2.7-1.6-5.4-3.1-8.2-4.5
				c-1.3-0.7-2.7-1.2-4.1-1.8c-1.5-0.7-3-1.2-4.5-1.8c0,0-0.1,0-0.1,0c-0.1-0.1-0.2-0.1-0.4-0.2c-1.3-0.4-2.7-0.9-4-1.3
				c0,0,0,0-0.1,0c-1.3-0.4-2.6-0.8-3.9-1.1c-0.4-0.1-0.8-0.2-1.2-0.3c-1.1-0.3-2.2-0.5-3.3-0.8c-3.6-0.8-7.3-1.3-11-1.7
				c-1.2-0.1-2.4-0.2-3.7-0.3c-1.8-0.1-3.7-0.2-5.5-0.2c0,0-0.1,0-0.1,0h0h-46.3h-11.3H230.9h-11.3h-46.3h0c0,0,0,0,0,0
				c0,0,0,0-0.1,0c-1.6,0-3.3,0-4.8,0.1c0,0-0.1,0-0.1,0c-1.4,0-2.8,0.2-4.1,0.3c-0.4,0-0.9,0.1-1.3,0.1c-1.3,0.1-2.6,0.3-3.9,0.5
				c-6.5,1-12.8,2.6-18.7,4.8c-1.3,0.5-2.6,1-3.9,1.5c-3.9,1.6-7.7,3.5-11.3,5.6c-1.6,0.9-3.3,1.9-4.9,3c-1.7,1.1-3.3,2.3-5,3.5
				c-1.4,1-2.8,2.1-4.1,3.3c-0.4,0.3-0.8,0.6-1.1,0.9c-1.4,1.2-2.7,2.4-4,3.7c-0.3,0.3-0.6,0.6-0.8,0.8c-1.1,1.1-2.2,2.2-3.2,3.3
				c-1.1,1.2-2.2,2.5-3.3,3.8c-0.6,0.7-1.2,1.4-1.6,2.1c-0.9,1.1-1.7,2.2-2.5,3.3c-0.1,0.2-0.3,0.4-0.4,0.7
				c-1.1,1.6-2.2,3.3-3.2,4.9c-1.6,2.7-3.1,5.4-4.5,8.2c-0.6,1.3-1.2,2.7-1.8,4.1c-0.7,1.5-1.2,3-1.8,4.5c0,0.2-0.1,0.4-0.2,0.5
				c-0.5,1.3-0.9,2.6-1.3,4c-0.3,1-0.6,2-0.8,3c-0.1,0.2-0.1,0.4-0.1,0.5c-0.1,0.4-0.2,0.7-0.3,1c0,0.1,0,0.2,0,0.2
				c-0.1,0.2-0.1,0.5-0.2,0.7c-0.3,1-0.5,2-0.7,2.9c-0.1,0.4-0.2,0.9-0.3,1.3c0,0.2-0.1,0.4-0.1,0.7c-0.6,2.9-1,6-1.3,9
				c-0.1,1.2-0.2,2.4-0.3,3.7c-0.1,1.8-0.2,3.7-0.2,5.5v0.1v0v46.3v11.3V405v11.3V462.6z"/>
			<path class="st0" d="M31.8,368.5c0.1,0.2,0.2,0.4,0.4,0.6"/>
			<path class="st0" d="M23.1,352.1c0.5,1.3,1.1,2.6,1.6,3.8c0.4,1,0.9,2,1.5,3"/>
			<path class="st0" d="M18.6,338.3c0.8,3,1.6,6,2.7,8.9"/>
			<path class="st0" d="M16.5,327c0.2,1.6,0.4,3.3,0.7,4.9"/>
			<path class="st0" d="M16,321.2c0.1,1.9,0.3,3.7,0.5,5.6"/>
			<path class="st0" d="M15.8,315.4c0,1.9,0,3.9,0.2,5.8"/>
			<path class="st0" d="M260.7,31.5c-0.7,0.5-1.4,1.1-2.1,1.7"/>
			<path class="st0" d="M267.5,26.6c-0.3,0.2-0.6,0.4-0.8,0.5"/>
			<path class="st0" d="M271.7,23.9c-0.5,0.3-0.9,0.5-1.3,0.8"/>
			<path class="st0" d="M281.8,18.7c-0.9,0.4-1.8,0.8-2.7,1.2"/>
			<path class="st0" d="M297.7,13.3c-3,0.8-6,1.6-8.9,2.7c-1.1,0.4-2.2,0.8-3.3,1.2c-0.9,0.4-1.9,0.8-2.8,1.2"/>
			<path class="st0" d="M314.5,10.8c-1.8,0.1-3.7,0.3-5.4,0.5c-1.6,0.2-3.3,0.4-4.9,0.7c-0.5,0.1-1.1,0.2-1.6,0.3"/>
			<path class="st0" d="M319.9,10.6c-1.7,0-3.3,0.1-5,0.2"/>
			<path class="st0" d="M365.4,21.6c-5.6-2.9-11.4-5.3-17.3-7.1"/>
			<path class="st0" d="M385.1,35.4c-4.9-4.4-10.1-8.2-15.5-11.4"/>
			<path class="st0" d="M388.8,591.8c9.6-9.7,16.8-20.8,21.5-32.8c2-5.2,3.6-10.5,4.7-15.9c1.3-6.4,2-12.8,2-19.3V411.7v-56.5v-79.8
				V219V107v0c0-6.5-0.7-13-2-19.4c-1.1-5.4-2.6-10.7-4.7-15.9c-4.7-11.9-11.8-23.1-21.5-32.8"/>
			<path class="st0" d="M385.4,595.1c1.1-1,2.2-2,3.3-3.2"/>
			<path class="st0" d="M374.3,603.8c1.2-0.8,2.3-1.5,3.3-2.3"/>
			<path class="st0" d="M370.5,606.2c0.8-0.5,1.6-1,2.3-1.5"/>
			<path class="st0" d="M368.6,607.4c0.2-0.1,0.4-0.3,0.7-0.4"/>
			<path class="st0" d="M252.6,592c28.9,27.7,69.9,35,104.6,20.9c1.4-0.6,2.8-1.2,4.3-1.9c1.4-0.6,2.8-1.3,4.2-2"/>
			<polyline class="st0" points="252.4,38.9 219.7,71.6 211.7,79.6 84.9,206.4 76.9,214.4 44.1,247.2 			"/>
			<path class="st0" d="M255.9,35.6c-1.2,1-2.3,2.1-3.3,3.2"/>
			<path class="st0" d="M269.7,25.2c-0.7,0.4-1.3,0.8-2,1.2c-0.4,0.2-0.7,0.4-1.1,0.7c-1,0.7-2,1.4-2.9,2"/>
			<path class="st0" d="M388.8,38.9C388.8,38.8,388.8,38.8,388.8,38.9L388.8,38.9c-1.2-1.3-2.4-2.4-3.7-3.5
				c-4.9-4.4-10.1-8.2-15.5-11.4c-1.4-0.8-2.8-1.6-4.2-2.3c-5.6-3-11.4-5.3-17.3-7.1c-9.2-2.7-18.7-4-28.1-4c-1.7,0-3.3,0.1-5,0.2
				c-0.1,0-0.3,0-0.4,0c-1.8,0.1-3.7,0.3-5.4,0.5c-1.6,0.2-3.3,0.4-4.9,0.7c-0.5,0-1.1,0.2-1.6,0.3c-1.7,0.3-3.3,0.7-4.9,1.1
				c-4.1,1-8.2,2.3-12.2,3.9c-0.9,0.4-1.9,0.8-2.8,1.2c-0.3,0.1-0.6,0.2-0.8,0.4c-0.9,0.4-1.8,0.8-2.7,1.2c-1.1,0.5-2.2,1.1-3.3,1.6
				"/>
			<path class="st0" d="M603.8,254.6c-0.1-0.2-0.3-0.3-0.4-0.5"/>
			<path class="st0" d="M609.4,262.3c-0.8-1.3-1.7-2.6-2.7-3.8"/>
			<path class="st0" d="M611.7,265.8c-0.5-0.9-1.1-1.9-1.7-2.8"/>
			<path class="st0" d="M614.2,270.4c-0.5-1-1-2-1.6-2.9"/>
			<path class="st0" d="M622.4,291.5c-0.7-2.7-1.5-5.3-2.4-8c-0.5-1.5-1-2.9-1.6-4.4c-0.6-1.5-1.2-2.9-1.9-4.3
				c-0.6-1.4-1.3-2.8-2.1-4.2"/>
			<path class="st0" d="M624.7,303.6c-0.1-1.5-0.4-2.9-0.6-4.4c-0.1-0.7-0.2-1.4-0.4-2.1"/>
			<path class="st0" d="M625.2,309.3c-0.1-1.7-0.2-3.5-0.5-5.3"/>
			<path class="st0" d="M625.4,314.7c0-1.7-0.1-3.3-0.2-5"/>
			<path class="st0" d="M44.1,383.5c9.7,9.6,20.8,16.8,32.8,21.5c5.2,2,10.5,3.6,15.9,4.7c6.4,1.3,12.9,2,19.4,2h112.1h56.5h79.8
				H417H529h0c6.5,0,13-0.7,19.4-2c5.4-1.1,10.7-2.6,15.9-4.7c11.9-4.7,23.1-11.8,32.8-21.5c0,0,0,0,0.1-0.1"/>
			<path class="st0" d="M37.5,376.2c0.1,0.2,0.3,0.3,0.4,0.5"/>
			<path class="st0" d="M32.2,369c0.7,1.1,1.5,2.2,2.3,3.3"/>
			<path class="st0" d="M44,247.3C14.1,278.5,8,324,26.9,360.1c0,0.1,0.1,0.1,0.1,0.2"/>
			<path class="st0" d="M597.1,247.2l-32.8-32.8l-8-8L429.6,79.7l-8-8l-32.8-32.8c0,0,0,0-0.1-0.1C357.6,8.9,312,2.7,275.8,21.6
				c-1.4,0.8-2.8,1.5-4.1,2.3c-0.4,0.3-0.9,0.5-1.3,0.8c-0.3,0.1-0.5,0.3-0.7,0.4c-0.7,0.4-1.3,0.8-2,1.2c-0.1,0-0.2,0.1-0.2,0.2
				c-1.3,0.8-2.5,1.7-3.8,2.6c-1,0.8-2,1.6-3,2.4c-0.7,0.5-1.4,1.2-2.1,1.7c-0.9,0.8-1.8,1.5-2.7,2.4c-1.1,1-2.2,2-3.3,3.2
				c0,0,0,0-0.1,0.1c-9.7,9.7-16.8,20.8-21.5,32.8c-2,5.2-3.6,10.5-4.6,15.9c-1.3,6.4-2,12.9-2,19.4V219v56.5v79.8v56.4v112.1
				c0,6.5,0.7,13,2,19.4c1.1,5.4,2.6,10.7,4.7,15.9c0.1,0.3,0.2,0.7,0.4,1c4.7,11.5,11.8,22.4,21.1,31.8"/>
			<path class="st0" d="M600.4,250.6c-1-1.2-2.1-2.3-3.2-3.3"/>
			<path class="st0" d="M602.7,253.3c-0.5-0.6-1.1-1.2-1.6-1.9"/>
			<path class="st0" d="M597.2,383.5c19-19,28.4-43.9,28.2-68.8c0-1.7-0.1-3.3-0.2-5c0-0.1,0-0.3,0-0.4c-0.1-1.8-0.2-3.5-0.5-5.3
				c0-0.1,0-0.3,0-0.4c-0.1-1.5-0.4-2.9-0.6-4.4c-0.1-0.7-0.2-1.4-0.4-2.1c-0.4-1.9-0.8-3.8-1.3-5.7c-0.7-2.7-1.5-5.3-2.4-8
				c-0.5-1.5-1.1-2.9-1.6-4.4c-0.6-1.5-1.2-2.9-1.9-4.3c-0.7-1.4-1.3-2.8-2.1-4.2c0-0.1-0.1-0.2-0.1-0.2"/>
			<path class="st0" d="M381.4,598.5c0.2-0.1,0.3-0.3,0.5-0.4"/>
			<path class="st0" d="M355.8,613.5c0.4-0.2,0.9-0.4,1.4-0.6c0.6-0.2,1.2-0.5,1.9-0.8c0.8-0.4,1.6-0.7,2.4-1.1
				c0.3-0.1,0.5-0.2,0.8-0.4"/>
			<path class="st0" d="M343.6,617.4c3-0.8,6-1.6,8.9-2.7"/>
			<path class="st0" d="M332.3,619.4c1.6-0.2,3.1-0.4,4.6-0.7c0.6,0,1.2-0.2,1.8-0.3"/>
			<path class="st0" d="M321.3,620.2c1.7,0,3.4-0.1,5.1-0.2"/>
		</g>
	</g>
	<g id="XMLID_10326_">
		<g id="XMLID_10043_">
			<path class="st1" d="M564.4,462.6c0,0,0,0.1,0,0.1c0,1.9,0,3.7-0.2,5.5c0,1.2-0.1,2.4-0.3,3.7c-0.4,3.7-0.9,7.4-1.7,11
				c-0.2,1.1-0.5,2.2-0.8,3.3c-0.1,0.4-0.2,0.8-0.3,1.2c-0.4,1.3-0.7,2.6-1.1,3.9c-0.5,1.5-1,3-1.5,4.5
				c-13.5,36.6-48.8,62.4-90.4,63.3c0,0,0,0-0.1,0s-0.1,0-0.1,0c-13.3,0-25.9-2.7-37.4-7.6c-0.3-0.1-0.6-0.3-0.9-0.4l126.8-126.8
				C561.5,436.1,564.4,449,564.4,462.6z"/>
			<path class="st1" d="M561.2,487.4c-0.3,1.3-0.7,2.6-1.1,3.9C560.4,490,560.8,488.7,561.2,487.4z"/>
			<path class="st1" d="M560,491.3c-0.4,1.4-0.8,2.8-1.3,4.1c0,0.1-0.1,0.2-0.2,0.4C559.1,494.3,559.5,492.8,560,491.3z"/>
			<path class="st1" d="M558.5,495.7c0.1-0.1,0.1-0.2,0.2-0.4c-0.1,0.1-0.1,0.3-0.2,0.5C558.5,495.8,558.6,495.8,558.5,495.7z"/>
			<path class="st1" d="M429.6,79.6l126.8,126.8c-2.2,5.1-4.9,10-8,14.6c-6.4-1.3-12.8-2-19.3-2H417V106.9v0c0-6.5-0.7-13-2-19.4
				C419.6,84.5,424.5,81.8,429.6,79.6z"/>
			<path class="st1" d="M556.3,424.3L429.6,551.1c-5.1-2.2-10-4.9-14.6-8c1.3-6.4,2-12.8,2-19.3V411.7H529h0c6.5,0,13-0.7,19.4-2
				C551.5,414.3,554.2,419.2,556.3,424.3z"/>
			<path class="st1" d="M529.1,219c6.5,0,13,0.7,19.3,2c-3.6,5.4-7.7,10.5-12.3,15l-79.3,79.3L417,275.4V219H529.1z"/>
			<path class="st1" d="M468.1,559c1.6,0,3.2,0,4.8-0.1C471.3,559,469.7,559,468.1,559z"/>
			<path class="st1" d="M468,71.6c1.9,0,3.7,0,5.5,0.2c1.2,0,2.4,0.1,3.7,0.3c3.7,0.4,7.4,0.9,11,1.7c1.1,0.2,2.2,0.5,3.3,0.8
				c0.4,0.1,0.8,0.2,1.2,0.3c1.3,0.4,2.6,0.7,3.9,1.1c1.5,0.5,3,1,4.5,1.5c36.6,13.5,62.5,48.9,63.3,90.4v0c0,0,0,0.1,0,0.1
				c0,13.3-2.7,25.9-7.6,37.4c-0.1,0.3-0.3,0.6-0.4,0.9L429.6,79.6c11.8-5.2,24.7-8,38.3-8H468C468,71.6,468,71.6,468,71.6z"/>
			<polygon class="st1" points="456.9,315.3 417,355.2 417,275.4 			"/>
			<polygon class="st1" points="417,275.4 417,355.2 360.6,411.7 280.8,411.7 224.3,355.2 224.3,275.5 280.7,219 360.5,219 			"/>
			<polygon class="st1" points="417,219 417,275.4 360.5,219 			"/>
			<path class="st1" d="M417,106.9V219h-56.5l-39.9-39.9l79.3-79.3c4.6-4.6,9.6-8.7,15-12.3C416.3,93.9,417,100.4,417,106.9
				L417,106.9z"/>
			<polygon class="st1" points="360.6,411.7 320.7,451.6 280.8,411.7 			"/>
			<polygon class="st1" points="320.6,179.1 360.5,219 280.7,219 			"/>
			<path class="st1" d="M320.7,451.6l-79.3,79.3c-4.6,4.5-9.6,8.7-15,12.3c-1.3-6.4-2-12.9-2-19.4V411.7h56.5L320.7,451.6z"/>
			<polygon class="st1" points="280.8,411.7 224.3,411.7 224.3,355.2 			"/>
			<path class="st1" d="M226.3,87.5c-1.3,6.4-2,12.9-2,19.4V219H112.2c-6.5,0-13,0.7-19.4,2c-3-4.6-5.7-9.5-7.9-14.6L211.7,79.6
				C216.8,81.8,221.7,84.5,226.3,87.5z"/>
			<path class="st1" d="M224.3,523.7c0,6.5,0.7,13,2,19.4c-4.6,3-9.5,5.7-14.6,7.9L84.9,424.3c2.2-5.1,4.9-10,7.9-14.6
				c6.4,1.3,12.9,2,19.4,2h112.1V523.7z"/>
			<path class="st1" d="M224.3,355.2v56.4H112.2c-6.5,0-13-0.7-19.4-2c3.6-5.4,7.7-10.5,12.3-15l79.3-79.3L224.3,355.2z"/>
			<polygon class="st1" points="224.3,275.5 224.3,355.2 184.4,315.3 			"/>
			<path class="st1" d="M211.7,551c-11.8,5.2-24.7,8-38.3,8c0,0-0.1,0-0.1,0c-1.9,0-3.7,0-5.5-0.2c-1.2,0-2.4-0.1-3.7-0.3
				c-3.1-0.3-6.1-0.7-9-1.3c-0.2,0-0.4-0.1-0.7-0.1c-0.4-0.1-0.9-0.2-1.3-0.3c-1-0.2-2-0.4-2.9-0.7c-0.3-0.1-0.6-0.2-0.9-0.2
				c-0.4-0.1-0.7-0.2-1-0.3c-0.2,0-0.3-0.1-0.5-0.1c-1-0.3-2-0.5-2.9-0.8c-1.5-0.5-3-1-4.5-1.5c-36.6-13.5-62.4-48.9-63.3-90.4
				c0,0,0,0,0-0.1s0-0.1,0-0.1c0-13.3,2.7-25.9,7.6-37.4c0.1-0.3,0.3-0.6,0.4-0.9L211.7,551z"/>
			<path class="st1" d="M173.4,71.6c13.3,0,25.9,2.7,37.4,7.6c0.3,0.1,0.6,0.3,0.9,0.4L85,206.4c-5.2-11.8-8-24.7-8-38.3v0v-0.1
				c0-1.9,0-3.7,0.2-5.5c0-1.2,0.1-2.4,0.3-3.7c0.3-3.1,0.7-6.1,1.3-9c0-0.2,0.1-0.4,0.1-0.7c0.1-0.4,0.2-0.9,0.3-1.3
				c0.3-1.2,0.5-2.4,0.8-3.7c0,0,0-0.1,0-0.2c0.1-0.4,0.2-0.7,0.3-1c0-0.2,0.1-0.3,0.1-0.5c0.2-1,0.5-2,0.8-2.9c0.5-1.5,1-3,1.5-4.5
				c13.5-36.6,48.9-62.5,90.4-63.3C173.2,71.6,173.2,71.6,173.4,71.6C173.3,71.6,173.3,71.6,173.4,71.6L173.4,71.6z"/>
			<path class="st1" d="M164.1,558.6c1.2,0.1,2.4,0.2,3.7,0.3C166.5,558.8,165.3,558.7,164.1,558.6z"/>
			<path class="st1" d="M155,557.3c-0.2,0-0.4-0.1-0.7-0.1C154.6,557.2,154.8,557.3,155,557.3z"/>
			<path class="st1" d="M150.1,556.2c1,0.2,2,0.4,2.9,0.7C152.1,556.7,151.1,556.5,150.1,556.2z"/>
			<path class="st1" d="M148.1,555.7c0.4,0.1,0.7,0.2,1,0.3C148.8,555.9,148.5,555.8,148.1,555.7z"/>
			<path class="st1" d="M148.1,555.7c-0.1,0-0.3,0-0.5-0.1C147.8,555.6,148,555.7,148.1,555.7z"/>
			<path class="st1" d="M147.6,555.6c-1-0.2-2-0.5-3-0.8c0,0,0,0,0.1,0C145.7,555,146.7,555.3,147.6,555.6z"/>
			<path class="st1" d="M140.7,553.4c-0.2,0-0.4-0.1-0.5-0.2c0,0,0.1,0,0.1,0C140.4,553.3,140.5,553.3,140.7,553.4z"/>
			<path class="st1" d="M131.5,549.6c1.3,0.6,2.7,1.2,4.1,1.8C134.2,550.8,132.8,550.2,131.5,549.6z"/>
			<path class="st1" d="M82.8,134.9c-0.5,1.5-1,2.9-1.5,4.5c0,0,0,0,0-0.1c0.4-1.3,0.8-2.6,1.3-4C82.6,135.2,82.7,135.1,82.8,134.9z
				"/>
			<path class="st1" d="M80.4,142.3c0,0.2-0.1,0.3-0.1,0.5C80.3,142.7,80.3,142.5,80.4,142.3z"/>
			<path class="st1" d="M79.7,144.8c0-0.2,0.1-0.5,0.2-0.7c-0.3,1.2-0.6,2.4-0.8,3.7C79.3,146.7,79.5,145.8,79.7,144.8z"/>
			<path class="st1" d="M79.7,144.8c-0.3,1-0.5,2-0.7,2.9C79.3,146.7,79.5,145.8,79.7,144.8z"/>
			<path class="st1" d="M77.4,158.8c-0.1,1.2-0.2,2.4-0.3,3.7C77.2,161.2,77.3,160,77.4,158.8z"/>
			<path class="st1" d="M76.9,462.8c0,1.6,0,3.2,0.1,4.8C77,466,76.9,464.4,76.9,462.8z"/>
		</g>
		<g id="XMLID_10013_">
		</g>
	</g>
</g>
</svg>
