<?xml version="1.0" encoding="utf-8"?>
<!-- Generator: Adobe Illustrator 20.0.0, SVG Export Plug-In . SVG Version: 6.00 Build 0)  -->
<!DOCTYPE svg PUBLIC "-//W3C//DTD SVG 1.1//EN" "http://www.w3.org/Graphics/SVG/1.1/DTD/svg11.dtd">
<svg version="1.1" id="Layer_1" xmlns="http://www.w3.org/2000/svg" xmlns:xlink="http://www.w3.org/1999/xlink" x="0px" y="0px"
	 viewBox="0 0 48.2 48" enable-background="new 0 0 48.2 48" xml:space="preserve">
<g id="XMLID_9361_">
	<g id="XMLID_9626_">
		<polygon fill="#FFFFFF" points="31.6,27 31.6,31.3 27.3,31.3 		"/>
		<polygon fill="#FFFFFF" points="31.6,21.1 31.6,27 27.3,31.3 21.3,31.3 17.1,27.1 17.1,21.1 21.3,16.8 27.3,16.8 		"/>
		<polygon fill="#FFFFFF" points="31.6,16.8 31.6,21.1 27.3,16.8 		"/>
		<path fill="#FFFFFF" d="M31.6,8.4v8.4h-4.2l-3-3l6-6c0.3-0.3,0.7-0.7,1.1-0.9C31.5,7.4,31.6,7.9,31.6,8.4L31.6,8.4z"/>
		<polygon fill="#FFFFFF" points="24.3,13.8 27.3,16.8 21.3,16.8 		"/>
		<polygon fill="#FFFFFF" points="21.3,31.3 17.1,31.3 17.1,27.1 		"/>
		<path fill="#FFFFFF" d="M17.1,27.1v4.2H8.6c-0.5,0-1-0.1-1.5-0.2c0.3-0.4,0.6-0.8,0.9-1.1l6-6L17.1,27.1z"/>
		<polygon fill="#FFFFFF" points="17.1,21.1 17.1,27.1 14.1,24.1 		"/>
	</g>
	<g id="XMLID_9373_">
		<path fill="none" stroke="#FFFFFF" stroke-width="0.25" stroke-miterlimit="10" d="M37.1,5.9c-0.1,0-0.1,0-0.2-0.1"/>
		<path fill="none" stroke="#FFFFFF" stroke-width="0.25" stroke-miterlimit="10" d="M37.3,6C37.3,6,37.2,6,37.3,6"/>
		<path fill="none" stroke="#FFFFFF" stroke-width="0.25" stroke-miterlimit="10" d="M37.5,6.1c-0.1,0-0.2,0-0.2-0.1"/>
		<path fill="none" stroke="#FFFFFF" stroke-width="0.25" stroke-miterlimit="10" d="M37.9,6.2C37.9,6.2,37.9,6.2,37.9,6.2"/>
		<path fill="none" stroke="#FFFFFF" stroke-width="0.25" stroke-miterlimit="10" d="M38.5,6.4c-0.1,0-0.2-0.1-0.3-0.1"/>
		<path fill="none" stroke="#FFFFFF" stroke-width="0.25" stroke-miterlimit="10" d="M40,7.4c-0.1-0.1-0.2-0.1-0.3-0.2
			C39.6,7.1,39.5,7,39.4,7"/>
		<path fill="none" stroke="#FFFFFF" stroke-width="0.25" stroke-miterlimit="10" d="M41.6,9.3c-0.1-0.1-0.1-0.2-0.2-0.3
			c-0.1-0.1-0.2-0.3-0.3-0.4c-0.1-0.1-0.2-0.2-0.2-0.3c0,0-0.1-0.1-0.1-0.1C40.8,8.1,40.7,8,40.6,8"/>
		<path fill="none" stroke="#FFFFFF" stroke-width="0.25" stroke-miterlimit="10" d="M42.2,10.5c0-0.1-0.1-0.2-0.1-0.3"/>
		<path fill="none" stroke="#FFFFFF" stroke-width="0.25" stroke-miterlimit="10" d="M42.6,12.2c0-0.1,0-0.2,0-0.3"/>
		<path fill="none" stroke="#FFFFFF" stroke-width="0.25" stroke-miterlimit="10" d="M42.6,12.6c0-0.1,0-0.2,0-0.3"/>
		<path fill="none" stroke="#FFFFFF" stroke-width="0.25" stroke-miterlimit="10" d="M42.6,13c0-0.1,0-0.2,0-0.4"/>
		<path fill="none" stroke="#FFFFFF" stroke-width="0.25" stroke-miterlimit="10" d="M42.6,35.8c0-0.1,0-0.2,0-0.3"/>
		<path fill="none" stroke="#FFFFFF" stroke-width="0.25" stroke-miterlimit="10" d="M42.4,36.9c0-0.1,0-0.1,0.1-0.2"/>
		<line fill="none" stroke="#FFFFFF" stroke-width="0.25" stroke-miterlimit="10" x1="42.3" y1="37.3" x2="42.3" y2="37.3"/>
		<path fill="none" stroke="#FFFFFF" stroke-width="0.25" stroke-miterlimit="10" d="M42.2,37.6C42.2,37.6,42.2,37.6,42.2,37.6
			C42.2,37.6,42.2,37.6,42.2,37.6"/>
		<path fill="none" stroke="#FFFFFF" stroke-width="0.25" stroke-miterlimit="10" d="M41.9,38.3c0.1-0.1,0.1-0.2,0.1-0.3"/>
		<path fill="none" stroke="#FFFFFF" stroke-width="0.25" stroke-miterlimit="10" d="M41.3,39.3c0.1-0.1,0.2-0.2,0.2-0.4"/>
		<path fill="none" stroke="#FFFFFF" stroke-width="0.25" stroke-miterlimit="10" d="M41,39.7c0-0.1,0.1-0.1,0.1-0.2
			c0.1-0.1,0.1-0.2,0.2-0.2"/>
		<path fill="none" stroke="#FFFFFF" stroke-width="0.25" stroke-miterlimit="10" d="M40.1,40.6c0.1-0.1,0.2-0.2,0.3-0.3
			c0.1-0.1,0.2-0.2,0.3-0.3"/>
		<path fill="none" stroke="#FFFFFF" stroke-width="0.25" stroke-miterlimit="10" d="M39,41.4c0.3-0.1,0.5-0.3,0.7-0.5
			c0.1-0.1,0.2-0.2,0.3-0.2"/>
		<path fill="none" stroke="#FFFFFF" stroke-width="0.25" stroke-miterlimit="10" d="M37.9,41.9c0.1,0,0.2-0.1,0.3-0.1"/>
		<path fill="none" stroke="#FFFFFF" stroke-width="0.25" stroke-miterlimit="10" d="M36.2,42.3c0.1,0,0.2,0,0.3,0"/>
		<path fill="none" stroke="#FFFFFF" stroke-width="0.25" stroke-miterlimit="10" d="M35.8,42.4c0.1,0,0.2,0,0.3,0"/>
		<path fill="none" stroke="#FFFFFF" stroke-width="0.25" stroke-miterlimit="10" d="M35.4,42.4c0.1,0,0.2,0,0.4,0"/>
		<path fill="none" stroke="#FFFFFF" stroke-width="0.25" stroke-miterlimit="10" d="M6,13c0,1,0.2,2,0.6,2.9
			C6.8,16.2,7,16.6,7.2,17c0.3,0.4,0.6,0.8,0.9,1.1l6,6l3,3l4.2,4.2l3,3l6,6c0.3,0.3,0.7,0.7,1.1,0.9c0.3,0.2,0.7,0.4,1.1,0.6
			c0,0,0,0,0.1,0c0.9,0.4,1.8,0.6,2.8,0.6"/>
		<path fill="none" stroke="#FFFFFF" stroke-width="0.25" stroke-miterlimit="10" d="M13.2,5.7c-3.1,0.1-5.8,2-6.8,4.8
			c0,0.1-0.1,0.2-0.1,0.3c0,0.1-0.1,0.2-0.1,0.3"/>
		<polyline fill="none" stroke="#FFFFFF" stroke-width="0.25" stroke-miterlimit="10" points="42.6,35.1 42.6,31.6 42.6,30.8 
			42.6,17.3 42.6,16.5 42.6,13 		"/>
		<path fill="none" stroke="#FFFFFF" stroke-width="0.25" stroke-miterlimit="10" d="M42.5,36.6C42.5,36.5,42.5,36.5,42.5,36.6"/>
		<path fill="none" stroke="#FFFFFF" stroke-width="0.25" stroke-miterlimit="10" d="M35.4,42.4c0.1,0,0.2,0,0.4,0c0,0,0,0,0,0
			c0.1,0,0.2,0,0.3,0c0,0,0.1,0,0.1,0c0.1,0,0.2,0,0.3,0c0.5-0.1,1-0.2,1.4-0.4c0.1,0,0.2-0.1,0.3-0.1c0.3-0.1,0.6-0.3,0.8-0.4
			c0.3-0.1,0.5-0.3,0.7-0.5c0.1-0.1,0.2-0.2,0.3-0.2c0,0,0.1,0,0.1-0.1c0.1-0.1,0.2-0.2,0.3-0.3c0.1-0.1,0.2-0.2,0.3-0.3
			c0.1-0.1,0.2-0.2,0.2-0.3c0-0.1,0.1-0.1,0.1-0.2c0.1-0.1,0.1-0.2,0.2-0.2c0,0,0,0,0-0.1c0.1-0.1,0.2-0.2,0.2-0.4
			c0.1-0.2,0.2-0.4,0.3-0.6c0-0.1,0.1-0.2,0.1-0.3c0.1-0.1,0.1-0.2,0.1-0.3c0,0,0,0,0,0c0-0.1,0.1-0.2,0.1-0.3c0-0.1,0-0.2,0.1-0.2
			c0,0,0,0,0,0c0,0,0-0.1,0-0.1"/>
		<path fill="none" stroke="#FFFFFF" stroke-width="0.25" stroke-miterlimit="10" d="M12.5,42.3c0.1,0,0.2,0,0.3,0"/>
		<path fill="none" stroke="#FFFFFF" stroke-width="0.25" stroke-miterlimit="10" d="M11.5,42.2c0.1,0,0.2,0,0.2,0.1"/>
		<path fill="none" stroke="#FFFFFF" stroke-width="0.25" stroke-miterlimit="10" d="M10.7,41.9C10.7,41.9,10.7,41.9,10.7,41.9
			C10.8,41.9,10.8,41.9,10.7,41.9"/>
		<path fill="none" stroke="#FFFFFF" stroke-width="0.25" stroke-miterlimit="10" d="M10.1,41.7c0.1,0,0.2,0.1,0.3,0.1"/>
		<path fill="none" stroke="#FFFFFF" stroke-width="0.25" stroke-miterlimit="10" d="M9.1,41.1c0.1,0.1,0.2,0.2,0.4,0.2"/>
		<path fill="none" stroke="#FFFFFF" stroke-width="0.25" stroke-miterlimit="10" d="M8.7,40.7c0.1,0,0.1,0.1,0.2,0.1
			C8.9,40.9,9,41,9.1,41"/>
		<path fill="none" stroke="#FFFFFF" stroke-width="0.25" stroke-miterlimit="10" d="M7.8,39.9C7.9,40,8,40.1,8.1,40.2
			c0.1,0.1,0.2,0.2,0.3,0.3"/>
		<path fill="none" stroke="#FFFFFF" stroke-width="0.25" stroke-miterlimit="10" d="M7.2,39.1c0.1,0.1,0.2,0.2,0.2,0.3"/>
		<path fill="none" stroke="#FFFFFF" stroke-width="0.25" stroke-miterlimit="10" d="M6.6,38c0,0.1,0.1,0.2,0.1,0.3
			c0.1,0.1,0.1,0.2,0.2,0.3c0,0.1,0.1,0.1,0.1,0.2c0,0,0,0.1,0.1,0.1c0.1,0.1,0.1,0.2,0.2,0.3"/>
		<path fill="none" stroke="#FFFFFF" stroke-width="0.25" stroke-miterlimit="10" d="M6.4,37.6c0,0.1,0.1,0.2,0.1,0.3"/>
		<path fill="none" stroke="#FFFFFF" stroke-width="0.25" stroke-miterlimit="10" d="M6,35.9c0,0.1,0,0.2,0,0.3"/>
		<path fill="none" stroke="#FFFFFF" stroke-width="0.25" stroke-miterlimit="10" d="M6,35.5c0,0.1,0,0.2,0,0.3"/>
		<path fill="none" stroke="#FFFFFF" stroke-width="0.25" stroke-miterlimit="10" d="M6,35.1c0,0.1,0,0.2,0,0.4"/>
		<path fill="none" stroke="#FFFFFF" stroke-width="0.25" stroke-miterlimit="10" d="M35.4,5.7c-1,0-2,0.2-2.9,0.6
			c-0.4,0.2-0.8,0.4-1.1,0.6c-0.4,0.3-0.8,0.6-1.1,0.9l-6,6l-3,3l-4.2,4.2l-3,3l-6,6c-0.3,0.3-0.7,0.7-0.9,1.1
			c-0.2,0.3-0.4,0.7-0.6,1.1c0,0,0,0,0,0.1C6.2,33.2,6,34.1,6,35.1"/>
		<path fill="none" stroke="#FFFFFF" stroke-width="0.25" stroke-miterlimit="10" d="M36.1,5.8c-0.1,0-0.2,0-0.3,0"/>
		<path fill="none" stroke="#FFFFFF" stroke-width="0.25" stroke-miterlimit="10" d="M36.8,5.9C36.8,5.9,36.8,5.9,36.8,5.9"/>
		<path fill="none" stroke="#FFFFFF" stroke-width="0.25" stroke-miterlimit="10" d="M37.2,6c-0.1,0-0.2,0-0.3-0.1"/>
		<path fill="none" stroke="#FFFFFF" stroke-width="0.25" stroke-miterlimit="10" d="M37.3,6C37.3,6,37.3,6,37.3,6"/>
		<path fill="none" stroke="#FFFFFF" stroke-width="0.25" stroke-miterlimit="10" d="M42.6,13c-0.1-3.1-2-5.8-4.8-6.8
			c-0.1,0-0.2-0.1-0.3-0.1"/>
		<path fill="none" stroke="#FFFFFF" stroke-width="0.25" stroke-miterlimit="10" d="M27,46.5c0.1,0,0.2-0.1,0.2-0.1
			c0.1,0,0.2-0.1,0.2-0.1"/>
		<path fill="none" stroke="#FFFFFF" stroke-width="0.25" stroke-miterlimit="10" d="M26,46.8c0.2-0.1,0.4-0.1,0.7-0.2"/>
		<path fill="none" stroke="#FFFFFF" stroke-width="0.25" stroke-miterlimit="10" d="M25.2,46.9c0.1,0,0.2,0,0.3-0.1
			c0,0,0.1,0,0.1,0"/>
		<path fill="none" stroke="#FFFFFF" stroke-width="0.25" stroke-miterlimit="10" d="M24.8,46.9c0.1,0,0.3,0,0.4,0"/>
		<path fill="none" stroke="#FFFFFF" stroke-width="0.25" stroke-miterlimit="10" d="M24.3,47c0.1,0,0.3,0,0.4,0"/>
		<path fill="none" stroke="#FFFFFF" stroke-width="0.25" stroke-miterlimit="10" d="M3,28.6C3,28.6,3,28.6,3,28.6"/>
		<path fill="none" stroke="#FFFFFF" stroke-width="0.25" stroke-miterlimit="10" d="M2.4,27.7c0,0.1,0.1,0.1,0.1,0.2"/>
		<path fill="none" stroke="#FFFFFF" stroke-width="0.25" stroke-miterlimit="10" d="M2,26.8C2,26.9,2,27,2.1,27.1
			c0,0.1,0.1,0.2,0.1,0.2"/>
		<path fill="none" stroke="#FFFFFF" stroke-width="0.25" stroke-miterlimit="10" d="M1.6,25.8c0.1,0.2,0.1,0.4,0.2,0.7"/>
		<path fill="none" stroke="#FFFFFF" stroke-width="0.25" stroke-miterlimit="10" d="M1.4,24.5c0,0.1,0,0.3,0,0.4
			c0,0.1,0,0.3,0.1,0.4"/>
		<path fill="none" stroke="#FFFFFF" stroke-width="0.25" stroke-miterlimit="10" d="M1.4,24.1c0,0.1,0,0.3,0,0.4"/>
		<path fill="none" stroke="#FFFFFF" stroke-width="0.25" stroke-miterlimit="10" d="M45.1,18.9c-0.7-0.7-1.6-1.3-2.5-1.6
			c-0.4-0.2-0.8-0.3-1.2-0.3c-0.5-0.1-1-0.2-1.5-0.2h-8.4h-4.2h-6h-4.2H8.6c-0.5,0-1,0.1-1.5,0.2C6.8,17,6.4,17.2,6,17.3
			c0,0-0.1,0-0.1,0c-0.9,0.4-1.7,0.9-2.4,1.6"/>
		<path fill="none" stroke="#FFFFFF" stroke-width="0.25" stroke-miterlimit="10" d="M45.3,19.2c-0.1-0.1-0.2-0.2-0.2-0.3"/>
		<path fill="none" stroke="#FFFFFF" stroke-width="0.25" stroke-miterlimit="10" d="M46,20.1c-0.1-0.1-0.1-0.2-0.2-0.3"/>
		<path fill="none" stroke="#FFFFFF" stroke-width="0.25" stroke-miterlimit="10" d="M46.2,20.3C46.1,20.2,46.1,20.2,46.2,20.3"/>
		<path fill="none" stroke="#FFFFFF" stroke-width="0.25" stroke-miterlimit="10" d="M46.3,20.4C46.3,20.4,46.2,20.4,46.3,20.4"/>
		<path fill="none" stroke="#FFFFFF" stroke-width="0.25" stroke-miterlimit="10" d="M45.1,29.2c2.3-2.3,2.7-5.8,1.3-8.5"/>
		<path fill="none" stroke="#FFFFFF" stroke-width="0.25" stroke-miterlimit="10" d="M13.2,42.4h3.5h0.9h13.5h0.9h3.5c0,0,0,0,0,0
			s0,0,0,0c3.1-0.1,5.8-2,6.8-4.8c0-0.1,0.1-0.2,0.1-0.3c0-0.1,0-0.1,0.1-0.2c0,0,0,0,0,0c0,0,0-0.1,0-0.1c0,0,0,0,0-0.1
			c0-0.1,0-0.1,0.1-0.2c0,0,0-0.1,0-0.1c0,0,0,0,0-0.1c0-0.2,0.1-0.4,0.1-0.7c0-0.1,0-0.2,0-0.3c0-0.1,0-0.3,0-0.4c0,0,0,0,0,0
			c0-1-0.2-2-0.6-2.9c-0.2-0.4-0.4-0.8-0.6-1.1c-0.3-0.4-0.6-0.8-0.9-1.1l-6-6l-3-3l-4.2-4.2l-3-3l-6-6c-0.3-0.3-0.7-0.7-1.1-0.9
			c-0.3-0.2-0.7-0.4-1.1-0.6c0,0,0,0-0.1,0c-0.9-0.4-1.8-0.6-2.8-0.6"/>
		<path fill="none" stroke="#FFFFFF" stroke-width="0.25" stroke-miterlimit="10" d="M6,35.1c0,0.1,0,0.2,0,0.4c0,0,0,0,0,0
			c0,0.1,0,0.2,0,0.3c0,0,0,0.1,0,0.1c0,0.1,0,0.2,0,0.3c0.1,0.5,0.2,1,0.4,1.4c0,0.1,0.1,0.2,0.1,0.3c0,0,0,0,0,0.1
			c0,0.1,0.1,0.2,0.1,0.3c0.1,0.1,0.1,0.2,0.2,0.3c0,0.1,0.1,0.2,0.1,0.2c0.1,0.1,0.1,0.2,0.2,0.3c0,0,0,0,0,0.1
			c0.1,0.1,0.2,0.2,0.2,0.3c0.1,0.1,0.2,0.3,0.3,0.4C7.9,40,8,40.1,8.1,40.2c0.1,0.1,0.2,0.2,0.3,0.3c0.1,0.1,0.2,0.2,0.3,0.2
			c0.1,0,0.1,0.1,0.2,0.1C8.9,40.9,9,41,9.1,41c0,0,0,0,0.1,0c0.1,0.1,0.2,0.2,0.4,0.2c0.2,0.1,0.4,0.2,0.6,0.3
			c0.1,0,0.2,0.1,0.3,0.1c0.1,0.1,0.2,0.1,0.3,0.1c0,0,0,0,0,0c0.1,0,0.2,0.1,0.3,0.1c0.1,0,0.2,0.1,0.3,0.1"/>
		<path fill="none" stroke="#FFFFFF" stroke-width="0.25" stroke-miterlimit="10" d="M6,12.3c0,0.1,0,0.2,0,0.3"/>
		<path fill="none" stroke="#FFFFFF" stroke-width="0.25" stroke-miterlimit="10" d="M6.2,11.2c0,0.1,0,0.2-0.1,0.2"/>
		<path fill="none" stroke="#FFFFFF" stroke-width="0.25" stroke-miterlimit="10" d="M6.4,10.5C6.4,10.5,6.4,10.5,6.4,10.5
			C6.4,10.5,6.4,10.5,6.4,10.5"/>
		<path fill="none" stroke="#FFFFFF" stroke-width="0.25" stroke-miterlimit="10" d="M6.7,9.8c0,0.1-0.1,0.2-0.1,0.3"/>
		<path fill="none" stroke="#FFFFFF" stroke-width="0.25" stroke-miterlimit="10" d="M7.6,8.4C7.6,8.5,7.5,8.6,7.4,8.6
			C7.4,8.7,7.3,8.8,7.2,8.9"/>
		<path fill="none" stroke="#FFFFFF" stroke-width="0.25" stroke-miterlimit="10" d="M8.6,7.4c0,0-0.1,0.1-0.1,0.1
			C8.4,7.6,8.3,7.7,8.2,7.7"/>
		<path fill="none" stroke="#FFFFFF" stroke-width="0.25" stroke-miterlimit="10" d="M9.4,6.8C9.3,6.9,9.3,6.9,9.2,7"/>
		<path fill="none" stroke="#FFFFFF" stroke-width="0.25" stroke-miterlimit="10" d="M10.4,6.3C10.2,6.4,10,6.5,9.8,6.6
			c-0.1,0-0.1,0.1-0.2,0.1c0,0-0.1,0-0.1,0.1"/>
		<path fill="none" stroke="#FFFFFF" stroke-width="0.25" stroke-miterlimit="10" d="M10.7,6.2c-0.1,0-0.2,0.1-0.3,0.1"/>
		<path fill="none" stroke="#FFFFFF" stroke-width="0.25" stroke-miterlimit="10" d="M12.4,5.8c-0.1,0-0.2,0-0.3,0"/>
		<path fill="none" stroke="#FFFFFF" stroke-width="0.25" stroke-miterlimit="10" d="M12.9,5.7c-0.1,0-0.2,0-0.3,0"/>
		<path fill="none" stroke="#FFFFFF" stroke-width="0.25" stroke-miterlimit="10" d="M13.2,5.7c-0.1,0-0.2,0-0.4,0"/>
		<path fill="none" stroke="#FFFFFF" stroke-width="0.25" stroke-miterlimit="10" d="M6,35.1C6,35.1,6,35.1,6,35.1
			C6,35.1,6,35.1,6,35.1c0.1,3.1,2,5.8,4.8,6.8c0.1,0,0.2,0.1,0.3,0.1c0.1,0,0.2,0.1,0.3,0.1c0,0,0.1,0,0.1,0c0.1,0,0.2,0,0.2,0.1
			c0.3,0.1,0.5,0.1,0.8,0.1c0.1,0,0.2,0,0.3,0c0.1,0,0.3,0,0.4,0c0,0,0,0,0,0c1,0,2-0.2,2.9-0.6c0.4-0.2,0.8-0.4,1.1-0.6
			c0.4-0.3,0.8-0.6,1.1-0.9l6-6l3-3l4.2-4.2l3-3l6-6c0.3-0.3,0.7-0.7,0.9-1.1c0.2-0.3,0.4-0.7,0.6-1.1c0,0,0,0,0-0.1
			c0.4-0.9,0.6-1.8,0.6-2.8c0,0,0,0,0,0v0c0-0.1,0-0.2,0-0.4v0c0-0.1,0-0.2,0-0.3l0-0.1c0-0.1,0-0.2,0-0.3l-0.4-1.4
			c0-0.1-0.1-0.2-0.1-0.3l-0.4-0.8c0,0,0,0,0,0c-0.1-0.1-0.1-0.2-0.2-0.3c-0.1-0.1-0.2-0.3-0.3-0.4c-0.1-0.1-0.2-0.2-0.2-0.3
			c0,0-0.1-0.1-0.1-0.1C40.8,8.1,40.7,8,40.6,8c-0.2-0.2-0.4-0.4-0.7-0.6c-0.1-0.1-0.2-0.1-0.3-0.2C39.6,7.1,39.5,7,39.4,7
			c-0.1-0.1-0.2-0.1-0.3-0.2c-0.2-0.1-0.4-0.2-0.6-0.3c-0.1-0.1-0.2-0.1-0.3-0.1c-0.1-0.1-0.2-0.1-0.3-0.1c0,0,0,0,0,0c0,0,0,0,0,0
			c-0.1,0-0.2-0.1-0.3-0.1c0,0,0,0,0,0c-0.1,0-0.1,0-0.2-0.1c0,0,0,0,0,0c0,0-0.1,0-0.1,0c0,0,0,0,0,0c0,0,0,0-0.1,0
			c-0.1,0-0.1,0-0.2-0.1c0,0-0.1,0-0.1,0c0,0,0,0-0.1,0c-0.2,0-0.4-0.1-0.7-0.1c-0.1,0-0.2,0-0.3,0c-0.1,0-0.3,0-0.4,0c0,0,0,0,0,0
			h0h-3.5h-0.9H17.6h-0.9h-3.5h0c0,0,0,0,0,0c0,0,0,0,0,0c-0.1,0-0.2,0-0.4,0c0,0,0,0,0,0c-0.1,0-0.2,0-0.3,0c0,0-0.1,0-0.1,0
			c-0.1,0-0.2,0-0.3,0c-0.5,0.1-1,0.2-1.4,0.4c-0.1,0-0.2,0.1-0.3,0.1c0,0,0,0-0.1,0C10.2,6.4,10,6.5,9.8,6.6
			C9.7,6.7,9.6,6.7,9.5,6.8c0,0-0.1,0-0.1,0.1C9.3,6.9,9.3,6.9,9.2,7C9,7.1,8.8,7.3,8.6,7.4c0,0-0.1,0.1-0.1,0.1
			C8.4,7.6,8.3,7.7,8.2,7.7C8,7.9,7.8,8.2,7.6,8.4C7.6,8.5,7.5,8.6,7.4,8.6C7.4,8.7,7.3,8.8,7.2,8.9C7,9.2,6.9,9.5,6.7,9.8
			c0,0.1-0.1,0.2-0.1,0.3c-0.1,0.1-0.1,0.2-0.1,0.3c0,0,0,0,0,0c0,0.1-0.1,0.2-0.1,0.3c0,0.1-0.1,0.2-0.1,0.3c0,0,0,0.1,0,0.1
			c0,0.1,0,0.2-0.1,0.2C6.1,11.7,6.1,12,6,12.3c0,0.1,0,0.2,0,0.3c0,0.1,0,0.3,0,0.4v0v0v3.5v0.9v13.5v0.9V35.1z"/>
		<line fill="none" stroke="#FFFFFF" stroke-width="0.25" stroke-miterlimit="10" x1="19.2" y1="44.8" x2="19.2" y2="44.8"/>
		<polyline fill="none" stroke="#FFFFFF" stroke-width="0.25" stroke-miterlimit="10" points="3.5,29.2 6,31.6 6.6,32.2 16.1,41.8 
			16.7,42.4 19.2,44.8 		"/>
		<path fill="none" stroke="#FFFFFF" stroke-width="0.25" stroke-miterlimit="10" d="M3.3,28.9c0.1,0.1,0.2,0.2,0.2,0.3"/>
		<path fill="none" stroke="#FFFFFF" stroke-width="0.25" stroke-miterlimit="10" d="M2.6,28C2.6,28.1,2.6,28.1,2.6,28
			c0.1,0.1,0.1,0.2,0.2,0.3"/>
		<path fill="none" stroke="#FFFFFF" stroke-width="0.25" stroke-miterlimit="10" d="M3.5,18.9c-1.4,1.4-2.1,3.3-2.1,5.1
			c0,0.1,0,0.3,0,0.4c0,0,0,0,0,0c0,0.1,0,0.3,0,0.4c0,0.1,0,0.3,0.1,0.4c0,0.2,0.1,0.3,0.1,0.5c0.1,0.2,0.1,0.4,0.2,0.7
			c0,0.1,0.1,0.2,0.1,0.4C2,26.9,2,27,2.1,27.1c0,0.1,0.1,0.2,0.1,0.2c0,0,0,0.1,0,0.1c0,0,0,0,0,0"/>
		<path fill="none" stroke="#FFFFFF" stroke-width="0.25" stroke-miterlimit="10" d="M19.7,2.8C19.7,2.8,19.7,2.8,19.7,2.8"/>
		<path fill="none" stroke="#FFFFFF" stroke-width="0.25" stroke-miterlimit="10" d="M20.7,2.1c-0.1,0-0.1,0.1-0.2,0.1"/>
		<path fill="none" stroke="#FFFFFF" stroke-width="0.25" stroke-miterlimit="10" d="M22.6,1.3c-0.2,0.1-0.5,0.1-0.7,0.2
			c-0.1,0-0.2,0.1-0.3,0.1c-0.1,0-0.2,0.1-0.3,0.1c-0.1,0-0.2,0.1-0.2,0.1"/>
		<path fill="none" stroke="#FFFFFF" stroke-width="0.25" stroke-miterlimit="10" d="M23.4,1.2c-0.1,0-0.2,0-0.3,0.1
			c0,0-0.1,0-0.1,0"/>
		<path fill="none" stroke="#FFFFFF" stroke-width="0.25" stroke-miterlimit="10" d="M23.9,1.2c-0.1,0-0.3,0-0.4,0"/>
		<path fill="none" stroke="#FFFFFF" stroke-width="0.25" stroke-miterlimit="10" d="M24.3,1.1c-0.1,0-0.3,0-0.4,0"/>
		<path fill="none" stroke="#FFFFFF" stroke-width="0.25" stroke-miterlimit="10" d="M29.4,44.8c0.7-0.7,1.3-1.6,1.6-2.5
			c0.2-0.4,0.3-0.8,0.4-1.2c0.1-0.5,0.2-1,0.2-1.5v-8.4V27v-6v-4.2V8.4v0c0-0.5-0.1-1-0.2-1.5c-0.1-0.4-0.2-0.8-0.4-1.2
			c-0.4-0.9-0.9-1.7-1.6-2.5"/>
		<path fill="none" stroke="#FFFFFF" stroke-width="0.25" stroke-miterlimit="10" d="M29.2,45.1c0.1-0.1,0.2-0.2,0.3-0.2"/>
		<path fill="none" stroke="#FFFFFF" stroke-width="0.25" stroke-miterlimit="10" d="M28.9,45.3C28.9,45.3,28.9,45.3,28.9,45.3"/>
		<path fill="none" stroke="#FFFFFF" stroke-width="0.25" stroke-miterlimit="10" d="M28.3,45.7c0.1-0.1,0.2-0.1,0.3-0.2"/>
		<path fill="none" stroke="#FFFFFF" stroke-width="0.25" stroke-miterlimit="10" d="M28.1,45.9c0.1,0,0.1-0.1,0.2-0.1"/>
		<path fill="none" stroke="#FFFFFF" stroke-width="0.25" stroke-miterlimit="10" d="M27.9,46C27.9,46,27.9,46,27.9,46"/>
		<path fill="none" stroke="#FFFFFF" stroke-width="0.25" stroke-miterlimit="10" d="M19.2,44.8c2.2,2.1,5.3,2.6,7.9,1.6
			c0.1,0,0.2-0.1,0.3-0.1c0.1,0,0.2-0.1,0.3-0.2"/>
		<path fill="none" stroke="#FFFFFF" stroke-width="0.25" stroke-miterlimit="10" d="M19.2,3.3l-2.5,2.5l-0.6,0.6l-9.5,9.5L6,16.5
			l-2.5,2.5c0,0,0,0,0,0l0,0c-2.2,2.3-2.7,5.8-1.3,8.5c0,0,0,0,0,0c0,0.1,0.1,0.1,0.1,0.2c0,0.1,0.1,0.1,0.1,0.2
			c0,0.1,0.1,0.1,0.1,0.2c0,0,0,0,0,0c0.1,0.1,0.1,0.2,0.2,0.2C2.9,28.4,3,28.5,3,28.6c0,0,0,0,0,0c0.1,0.1,0.1,0.2,0.2,0.3
			c0.1,0.1,0.2,0.2,0.2,0.3c0,0,0,0,0,0c0.7,0.7,1.6,1.3,2.5,1.6c0.4,0.2,0.8,0.3,1.2,0.4c0.5,0.1,1,0.2,1.5,0.2h8.4h4.2h6h4.2H40h0
			c0.5,0,1-0.1,1.5-0.2c0.4-0.1,0.8-0.2,1.2-0.4c0.9-0.4,1.7-0.9,2.5-1.6c0,0,0,0,0,0"/>
		<path fill="none" stroke="#FFFFFF" stroke-width="0.25" stroke-miterlimit="10" d="M19.4,3c-0.1,0.1-0.2,0.2-0.3,0.2"/>
		<path fill="none" stroke="#FFFFFF" stroke-width="0.25" stroke-miterlimit="10" d="M19.6,2.8c0,0-0.1,0.1-0.1,0.1"/>
		<path fill="none" stroke="#FFFFFF" stroke-width="0.25" stroke-miterlimit="10" d="M20.3,2.3C20.3,2.3,20.3,2.4,20.3,2.3
			c-0.1,0.1-0.2,0.1-0.3,0.2"/>
		<path fill="none" stroke="#FFFFFF" stroke-width="0.25" stroke-miterlimit="10" d="M29.4,3.3C29.4,3.3,29.4,3.3,29.4,3.3L29.4,3.3
			c-1.4-1.4-3.3-2.1-5.1-2.1c-0.1,0-0.3,0-0.4,0c0,0,0,0,0,0c-0.1,0-0.3,0-0.4,0c0,0,0,0,0,0c-0.1,0-0.2,0-0.3,0.1c0,0-0.1,0-0.1,0
			c-0.1,0-0.3,0.1-0.4,0.1c-0.2,0.1-0.5,0.1-0.7,0.2c-0.1,0-0.2,0.1-0.3,0.1c-0.1,0-0.2,0.1-0.3,0.1c-0.1,0-0.2,0.1-0.2,0.1
			c0,0-0.1,0-0.1,0c0,0,0,0,0,0"/>
		<path fill="none" stroke="#FFFFFF" stroke-width="0.25" stroke-miterlimit="10" d="M45.6,19.5c0-0.1-0.1-0.1-0.1-0.2"/>
		<path fill="none" stroke="#FFFFFF" stroke-width="0.25" stroke-miterlimit="10" d="M46.1,20.2c0,0-0.1-0.1-0.1-0.1c0,0,0,0,0-0.1
			c-0.1-0.1-0.1-0.2-0.2-0.2s-0.1-0.1-0.2-0.2"/>
		<path fill="none" stroke="#FFFFFF" stroke-width="0.25" stroke-miterlimit="10" d="M46.6,21.1c0-0.1-0.1-0.1-0.1-0.2"/>
		<path fill="none" stroke="#FFFFFF" stroke-width="0.25" stroke-miterlimit="10" d="M47,22.3c-0.1-0.2-0.1-0.4-0.2-0.6
			c0-0.1-0.1-0.2-0.1-0.2c0-0.1-0.1-0.1-0.1-0.2"/>
		<path fill="none" stroke="#FFFFFF" stroke-width="0.25" stroke-miterlimit="10" d="M47.2,23.2c0-0.1,0-0.2,0-0.3
			c0-0.1,0-0.1,0-0.2"/>
		<path fill="none" stroke="#FFFFFF" stroke-width="0.25" stroke-miterlimit="10" d="M47.2,23.6c0-0.1,0-0.3,0-0.4"/>
		<path fill="none" stroke="#FFFFFF" stroke-width="0.25" stroke-miterlimit="10" d="M47.2,24c0-0.1,0-0.3,0-0.4"/>
		<path fill="none" stroke="#FFFFFF" stroke-width="0.25" stroke-miterlimit="10" d="M46.4,27.4c0.2-0.4,0.4-0.9,0.5-1.3"/>
		<path fill="none" stroke="#FFFFFF" stroke-width="0.25" stroke-miterlimit="10" d="M45.4,28.9c0.3-0.4,0.6-0.8,0.9-1.2"/>
		<path fill="none" stroke="#FFFFFF" stroke-width="0.25" stroke-miterlimit="10" d="M29.4,3.3C27.1,1,23.7,0.6,20.9,2c0,0,0,0,0,0
			c-0.1,0-0.1,0.1-0.2,0.1c-0.1,0-0.1,0.1-0.2,0.1c-0.1,0-0.1,0.1-0.2,0.1c0,0,0,0,0,0c-0.1,0.1-0.2,0.1-0.2,0.2
			c-0.1,0.1-0.2,0.1-0.3,0.2c0,0,0,0,0,0c0,0,0,0-0.1,0.1c0,0-0.1,0.1-0.1,0.1c0,0,0,0-0.1,0.1c-0.1,0.1-0.2,0.2-0.3,0.2
			c0,0,0,0,0,0c-0.7,0.7-1.3,1.6-1.6,2.5c-0.2,0.4-0.3,0.8-0.4,1.2c-0.1,0.5-0.2,1-0.2,1.5v8.4v4.2v6v4.2v8.4c0,0.5,0.1,1,0.2,1.5
			c0.1,0.4,0.2,0.8,0.4,1.2c0,0,0,0.1,0,0.1c0.4,0.9,0.9,1.7,1.6,2.4l0,0l0,0l0,0c1.4,1.4,3.3,2.1,5.1,2.1c0,0,0,0,0,0
			c0.1,0,0.3,0,0.4,0h0c0.1,0,0.3,0,0.4,0c0,0,0,0,0,0c0.1,0,0.2,0,0.3-0.1c0,0,0.1,0,0.1,0c0.1,0,0.2,0,0.4-0.1
			c0.2-0.1,0.4-0.1,0.7-0.2c0.1,0,0.2-0.1,0.2-0.1c0,0,0.1,0,0.1,0c0,0,0.1,0,0.1-0.1c0.1,0,0.1-0.1,0.2-0.1c0,0,0,0,0.1,0
			c0.1,0,0.2-0.1,0.2-0.1c0,0,0,0,0,0c0.1,0,0.1-0.1,0.2-0.1c0,0,0,0,0.1,0c0,0,0.1,0,0.1-0.1c0.1,0,0.1-0.1,0.2-0.1
			c0,0,0.1,0,0.1-0.1c0.1-0.1,0.2-0.1,0.3-0.2c0.1-0.1,0.2-0.1,0.3-0.2c0,0,0,0,0,0c0.1-0.1,0.2-0.1,0.3-0.2
			c0.1-0.1,0.2-0.2,0.3-0.2c0,0,0,0,0,0l2.5-2.5l0.6-0.6l9.5-9.5l0.6-0.6l2.5-2.5c0,0,0,0,0,0v0c0.1-0.1,0.2-0.2,0.3-0.3
			c0.3-0.4,0.6-0.8,0.9-1.2c0.1-0.1,0.1-0.2,0.2-0.3c0.2-0.4,0.4-0.9,0.5-1.3c0.2-0.7,0.3-1.4,0.3-2.1c0-0.1,0-0.3,0-0.4
			c0,0,0,0,0,0c0-0.1,0-0.3,0-0.4c0,0,0,0,0,0c0-0.1,0-0.2,0-0.3c0-0.1,0-0.1,0-0.2c0-0.1-0.1-0.3-0.1-0.4c-0.1-0.3-0.2-0.6-0.3-0.8
			c0-0.1-0.1-0.1-0.1-0.2c0,0,0,0,0-0.1c0-0.1-0.1-0.1-0.1-0.2c0-0.1-0.1-0.2-0.1-0.3c0-0.1-0.1-0.1-0.1-0.2c0,0,0,0,0-0.1
			c0,0-0.1-0.1-0.1-0.1c0,0,0-0.1,0-0.1c0-0.1-0.1-0.1-0.1-0.2c-0.1-0.2-0.2-0.3-0.3-0.4c0,0,0,0,0,0c0-0.1-0.1-0.1-0.1-0.2
			c-0.1-0.1-0.1-0.1-0.2-0.2c-0.1-0.1-0.2-0.2-0.2-0.3l0,0l0,0l-2.5-2.5L42,15.9l-9.5-9.5l-0.6-0.6L29.4,3.3
			C29.4,3.3,29.4,3.3,29.4,3.3z"/>
	</g>
</g>
<g id="XMLID_9665_" opacity="0.3">
	<g id="XMLID_9660_">
		<path fill="#FFFFFF" d="M42.7,30.8v0.9l-0.6,0.6c-0.2-0.4-0.4-0.8-0.6-1.1C41.9,31.1,42.3,31,42.7,30.8z"/>
		<path fill="#FFFFFF" d="M42.1,32.3l-9.5,9.5c-0.4-0.2-0.8-0.4-1.1-0.6c0.1-0.5,0.2-1,0.2-1.5v-8.4H40h0c0.5,0,1-0.1,1.5-0.2
			C41.7,31.5,41.9,31.9,42.1,32.3z"/>
		<path fill="#FFFFFF" d="M32.5,41.8l-0.6,0.6h-0.9c0.2-0.4,0.3-0.8,0.4-1.2C31.8,41.4,32.1,41.7,32.5,41.8z"/>
		<path fill="#FFFFFF" d="M31.6,31.3v8.4c0,0.5-0.1,1-0.2,1.5c-0.4-0.3-0.8-0.6-1.1-0.9l-6-6l3-3H31.6z"/>
		<path fill="#FFFFFF" d="M31.4,41.2c-0.1,0.4-0.2,0.8-0.4,1.2H17.6c-0.2-0.4-0.3-0.8-0.4-1.2c0.4-0.3,0.8-0.6,1.1-0.9l6-6l6,6
			C30.6,40.6,31,41,31.4,41.2z"/>
		<polygon fill="#FFFFFF" points="27.3,31.3 24.3,34.3 21.3,31.3 		"/>
		<path fill="#FFFFFF" d="M24.3,34.3l-6,6c-0.3,0.3-0.7,0.7-1.1,0.9c-0.1-0.5-0.2-1-0.2-1.5v-8.4h4.2L24.3,34.3z"/>
		<path fill="#FFFFFF" d="M17.6,42.4h-0.9l-0.6-0.6c0.4-0.2,0.8-0.4,1.1-0.6C17.3,41.6,17.4,42,17.6,42.4z"/>
		<path fill="#FFFFFF" d="M17.1,39.8c0,0.5,0.1,1,0.2,1.5c-0.3,0.2-0.7,0.4-1.1,0.6l-9.5-9.5c0.2-0.4,0.4-0.8,0.6-1.1
			c0.5,0.1,1,0.2,1.5,0.2h8.4V39.8z"/>
		<path fill="#FFFFFF" d="M7.2,31.2c-0.2,0.3-0.4,0.7-0.6,1.1L6,31.7v-0.9C6.4,31,6.8,31.1,7.2,31.2z"/>
	</g>
	<g id="XMLID_9677_">
		<path fill="none" stroke="#FFFFFF" stroke-width="0.25" stroke-miterlimit="10" d="M37.2,6c-0.1,0-0.1,0-0.2-0.1"/>
		<path fill="none" stroke="#FFFFFF" stroke-width="0.25" stroke-miterlimit="10" d="M37.3,6C37.3,6,37.3,6,37.3,6"/>
		<path fill="none" stroke="#FFFFFF" stroke-width="0.25" stroke-miterlimit="10" d="M37.6,6.1c-0.1,0-0.2,0-0.2-0.1"/>
		<path fill="none" stroke="#FFFFFF" stroke-width="0.25" stroke-miterlimit="10" d="M37.9,6.2C37.9,6.2,37.9,6.2,37.9,6.2"/>
		<path fill="none" stroke="#FFFFFF" stroke-width="0.25" stroke-miterlimit="10" d="M38.6,6.5c-0.1,0-0.2-0.1-0.3-0.1"/>
		<path fill="none" stroke="#FFFFFF" stroke-width="0.25" stroke-miterlimit="10" d="M40,7.4c-0.1-0.1-0.2-0.1-0.3-0.2
			c-0.1-0.1-0.2-0.1-0.3-0.2"/>
		<path fill="none" stroke="#FFFFFF" stroke-width="0.25" stroke-miterlimit="10" d="M41.7,9.4c-0.1-0.1-0.1-0.2-0.2-0.3
			c-0.1-0.1-0.2-0.3-0.3-0.4C41.1,8.5,41,8.5,41,8.4c0,0-0.1-0.1-0.1-0.1c-0.1-0.1-0.1-0.1-0.2-0.2"/>
		<path fill="none" stroke="#FFFFFF" stroke-width="0.25" stroke-miterlimit="10" d="M42.2,10.5c0-0.1-0.1-0.2-0.1-0.3"/>
		<path fill="none" stroke="#FFFFFF" stroke-width="0.25" stroke-miterlimit="10" d="M42.6,12.2c0-0.1,0-0.2,0-0.3"/>
		<path fill="none" stroke="#FFFFFF" stroke-width="0.25" stroke-miterlimit="10" d="M42.6,12.6c0-0.1,0-0.2,0-0.3"/>
		<path fill="none" stroke="#FFFFFF" stroke-width="0.25" stroke-miterlimit="10" d="M42.7,13c0-0.1,0-0.2,0-0.4"/>
		<path fill="none" stroke="#FFFFFF" stroke-width="0.25" stroke-miterlimit="10" d="M42.6,35.9c0-0.1,0-0.2,0-0.3"/>
		<path fill="none" stroke="#FFFFFF" stroke-width="0.25" stroke-miterlimit="10" d="M42.4,36.9c0-0.1,0-0.1,0.1-0.2"/>
		<line fill="none" stroke="#FFFFFF" stroke-width="0.25" stroke-miterlimit="10" x1="42.3" y1="37.3" x2="42.3" y2="37.3"/>
		<path fill="none" stroke="#FFFFFF" stroke-width="0.25" stroke-miterlimit="10" d="M42.2,37.7C42.2,37.7,42.2,37.7,42.2,37.7
			C42.2,37.6,42.2,37.6,42.2,37.7"/>
		<path fill="none" stroke="#FFFFFF" stroke-width="0.25" stroke-miterlimit="10" d="M41.9,38.3c0.1-0.1,0.1-0.2,0.1-0.3"/>
		<path fill="none" stroke="#FFFFFF" stroke-width="0.25" stroke-miterlimit="10" d="M41.4,39.3c0.1-0.1,0.2-0.2,0.2-0.4"/>
		<path fill="none" stroke="#FFFFFF" stroke-width="0.25" stroke-miterlimit="10" d="M41,39.8c0-0.1,0.1-0.1,0.1-0.2
			c0.1-0.1,0.1-0.2,0.2-0.2"/>
		<path fill="none" stroke="#FFFFFF" stroke-width="0.25" stroke-miterlimit="10" d="M40.2,40.6c0.1-0.1,0.2-0.2,0.3-0.3
			c0.1-0.1,0.2-0.2,0.3-0.3"/>
		<path fill="none" stroke="#FFFFFF" stroke-width="0.25" stroke-miterlimit="10" d="M39,41.4c0.3-0.1,0.5-0.3,0.7-0.5
			c0.1-0.1,0.2-0.2,0.3-0.2"/>
		<path fill="none" stroke="#FFFFFF" stroke-width="0.25" stroke-miterlimit="10" d="M37.9,42c0.1,0,0.2-0.1,0.3-0.1"/>
		<path fill="none" stroke="#FFFFFF" stroke-width="0.25" stroke-miterlimit="10" d="M36.2,42.4c0.1,0,0.2,0,0.3,0"/>
		<path fill="none" stroke="#FFFFFF" stroke-width="0.25" stroke-miterlimit="10" d="M35.8,42.4c0.1,0,0.2,0,0.3,0"/>
		<path fill="none" stroke="#FFFFFF" stroke-width="0.25" stroke-miterlimit="10" d="M35.4,42.4c0.1,0,0.2,0,0.4,0"/>
		<path fill="none" stroke="#FFFFFF" stroke-width="0.25" stroke-miterlimit="10" d="M6,13c0,1,0.2,2,0.6,2.9
			C6.8,16.3,7,16.7,7.2,17c0.3,0.4,0.6,0.8,0.9,1.1l6,6l3,3l4.2,4.2l3,3l6,6c0.3,0.3,0.7,0.7,1.1,0.9c0.3,0.2,0.7,0.4,1.1,0.6
			c0,0,0,0,0.1,0c0.9,0.4,1.8,0.6,2.8,0.6"/>
		<path fill="none" stroke="#FFFFFF" stroke-width="0.25" stroke-miterlimit="10" d="M13.3,5.8c-3.1,0.1-5.8,2-6.8,4.8
			c0,0.1-0.1,0.2-0.1,0.3c0,0.1-0.1,0.2-0.1,0.3"/>
		<polyline fill="none" stroke="#FFFFFF" stroke-width="0.25" stroke-miterlimit="10" points="42.7,35.2 42.7,31.7 42.7,30.8 
			42.7,17.4 42.7,16.5 42.7,13 		"/>
		<path fill="none" stroke="#FFFFFF" stroke-width="0.25" stroke-miterlimit="10" d="M42.5,36.6C42.5,36.6,42.5,36.6,42.5,36.6"/>
		<path fill="none" stroke="#FFFFFF" stroke-width="0.25" stroke-miterlimit="10" d="M35.4,42.4c0.1,0,0.2,0,0.4,0c0,0,0,0,0,0
			c0.1,0,0.2,0,0.3,0c0,0,0.1,0,0.1,0c0.1,0,0.2,0,0.3,0c0.5-0.1,1-0.2,1.4-0.4c0.1,0,0.2-0.1,0.3-0.1c0.3-0.1,0.6-0.3,0.8-0.4
			c0.3-0.1,0.5-0.3,0.7-0.5c0.1-0.1,0.2-0.2,0.3-0.2c0,0,0.1,0,0.1-0.1c0.1-0.1,0.2-0.2,0.3-0.3c0.1-0.1,0.2-0.2,0.3-0.3
			c0.1-0.1,0.2-0.2,0.2-0.3c0-0.1,0.1-0.1,0.1-0.2c0.1-0.1,0.1-0.2,0.2-0.2c0,0,0,0,0-0.1c0.1-0.1,0.2-0.2,0.2-0.4
			c0.1-0.2,0.2-0.4,0.3-0.6c0-0.1,0.1-0.2,0.1-0.3c0.1-0.1,0.1-0.2,0.1-0.3c0,0,0,0,0,0c0-0.1,0.1-0.2,0.1-0.3c0-0.1,0-0.2,0.1-0.2
			c0,0,0,0,0,0c0,0,0-0.1,0-0.1"/>
		<path fill="none" stroke="#FFFFFF" stroke-width="0.25" stroke-miterlimit="10" d="M12.6,42.4c0.1,0,0.2,0,0.3,0"/>
		<path fill="none" stroke="#FFFFFF" stroke-width="0.25" stroke-miterlimit="10" d="M11.5,42.2c0.1,0,0.2,0,0.2,0.1"/>
		<path fill="none" stroke="#FFFFFF" stroke-width="0.25" stroke-miterlimit="10" d="M10.8,42C10.8,42,10.8,42,10.8,42
			C10.8,42,10.8,42,10.8,42"/>
		<path fill="none" stroke="#FFFFFF" stroke-width="0.25" stroke-miterlimit="10" d="M10.1,41.7c0.1,0,0.2,0.1,0.3,0.1"/>
		<path fill="none" stroke="#FFFFFF" stroke-width="0.25" stroke-miterlimit="10" d="M9.1,41.1c0.1,0.1,0.2,0.2,0.4,0.2"/>
		<path fill="none" stroke="#FFFFFF" stroke-width="0.25" stroke-miterlimit="10" d="M8.7,40.8c0.1,0,0.1,0.1,0.2,0.1
			C8.9,41,9,41,9.1,41.1"/>
		<path fill="none" stroke="#FFFFFF" stroke-width="0.25" stroke-miterlimit="10" d="M7.8,39.9C7.9,40,8,40.1,8.1,40.2
			c0.1,0.1,0.2,0.2,0.3,0.3"/>
		<path fill="none" stroke="#FFFFFF" stroke-width="0.25" stroke-miterlimit="10" d="M7.2,39.2c0.1,0.1,0.2,0.2,0.2,0.3"/>
		<path fill="none" stroke="#FFFFFF" stroke-width="0.25" stroke-miterlimit="10" d="M6.6,38c0,0.1,0.1,0.2,0.1,0.3
			c0.1,0.1,0.1,0.2,0.2,0.3c0,0.1,0.1,0.1,0.1,0.2c0,0,0,0.1,0.1,0.1C7.1,39,7.1,39,7.2,39.1"/>
		<path fill="none" stroke="#FFFFFF" stroke-width="0.25" stroke-miterlimit="10" d="M6.5,37.7c0,0.1,0.1,0.2,0.1,0.3"/>
		<path fill="none" stroke="#FFFFFF" stroke-width="0.25" stroke-miterlimit="10" d="M6.1,36c0,0.1,0,0.2,0,0.3"/>
		<path fill="none" stroke="#FFFFFF" stroke-width="0.25" stroke-miterlimit="10" d="M6,35.6c0,0.1,0,0.2,0,0.3"/>
		<path fill="none" stroke="#FFFFFF" stroke-width="0.25" stroke-miterlimit="10" d="M6,35.2c0,0.1,0,0.2,0,0.4"/>
		<path fill="none" stroke="#FFFFFF" stroke-width="0.25" stroke-miterlimit="10" d="M35.4,5.8c-1,0-2,0.2-2.9,0.6
			c-0.4,0.2-0.8,0.4-1.1,0.6c-0.4,0.3-0.8,0.6-1.1,0.9l-6,6l-3,3l-4.2,4.2l-3,3l-6,6c-0.3,0.3-0.7,0.7-0.9,1.1
			c-0.2,0.3-0.4,0.7-0.6,1.1c0,0,0,0,0,0.1C6.2,33.2,6,34.2,6,35.2"/>
		<path fill="none" stroke="#FFFFFF" stroke-width="0.25" stroke-miterlimit="10" d="M36.1,5.8c-0.1,0-0.2,0-0.3,0"/>
		<path fill="none" stroke="#FFFFFF" stroke-width="0.25" stroke-miterlimit="10" d="M36.8,5.9C36.8,5.9,36.8,5.9,36.8,5.9"/>
		<path fill="none" stroke="#FFFFFF" stroke-width="0.25" stroke-miterlimit="10" d="M37.2,6c-0.1,0-0.2,0-0.3-0.1"/>
		<path fill="none" stroke="#FFFFFF" stroke-width="0.25" stroke-miterlimit="10" d="M37.3,6C37.3,6,37.3,6,37.3,6"/>
		<path fill="none" stroke="#FFFFFF" stroke-width="0.25" stroke-miterlimit="10" d="M42.7,13c-0.1-3.1-2-5.8-4.8-6.8
			c-0.1,0-0.2-0.1-0.3-0.1"/>
		<path fill="none" stroke="#FFFFFF" stroke-width="0.25" stroke-miterlimit="10" d="M27,46.5c0.1,0,0.2-0.1,0.2-0.1
			c0.1,0,0.2-0.1,0.2-0.1"/>
		<path fill="none" stroke="#FFFFFF" stroke-width="0.25" stroke-miterlimit="10" d="M26.1,46.8c0.2-0.1,0.4-0.1,0.7-0.2"/>
		<path fill="none" stroke="#FFFFFF" stroke-width="0.25" stroke-miterlimit="10" d="M25.2,47c0.1,0,0.2,0,0.3-0.1c0,0,0.1,0,0.1,0"
			/>
		<path fill="none" stroke="#FFFFFF" stroke-width="0.25" stroke-miterlimit="10" d="M24.8,47c0.1,0,0.3,0,0.4,0"/>
		<path fill="none" stroke="#FFFFFF" stroke-width="0.25" stroke-miterlimit="10" d="M24.3,47c0.1,0,0.3,0,0.4,0"/>
		<path fill="none" stroke="#FFFFFF" stroke-width="0.25" stroke-miterlimit="10" d="M3.1,28.7C3.1,28.7,3.1,28.7,3.1,28.7"/>
		<path fill="none" stroke="#FFFFFF" stroke-width="0.25" stroke-miterlimit="10" d="M2.4,27.7c0,0.1,0.1,0.1,0.1,0.2"/>
		<path fill="none" stroke="#FFFFFF" stroke-width="0.25" stroke-miterlimit="10" d="M2,26.9c0,0.1,0.1,0.2,0.1,0.3
			c0,0.1,0.1,0.2,0.1,0.2"/>
		<path fill="none" stroke="#FFFFFF" stroke-width="0.25" stroke-miterlimit="10" d="M1.6,25.8c0.1,0.2,0.1,0.4,0.2,0.7"/>
		<path fill="none" stroke="#FFFFFF" stroke-width="0.25" stroke-miterlimit="10" d="M1.4,24.5c0,0.1,0,0.3,0,0.4
			c0,0.1,0,0.3,0.1,0.4"/>
		<path fill="none" stroke="#FFFFFF" stroke-width="0.25" stroke-miterlimit="10" d="M1.4,24.1c0,0.1,0,0.3,0,0.4"/>
		<path fill="none" stroke="#FFFFFF" stroke-width="0.25" stroke-miterlimit="10" d="M45.1,19c-0.7-0.7-1.6-1.3-2.5-1.6
			c-0.4-0.2-0.8-0.3-1.2-0.3c-0.5-0.1-1-0.2-1.5-0.2h-8.4h-4.2h-6h-4.2H8.7c-0.5,0-1,0.1-1.5,0.2c-0.4,0.1-0.8,0.2-1.2,0.4
			c0,0-0.1,0-0.1,0c-0.9,0.4-1.7,0.9-2.4,1.6"/>
		<path fill="none" stroke="#FFFFFF" stroke-width="0.25" stroke-miterlimit="10" d="M45.4,19.2c-0.1-0.1-0.2-0.2-0.2-0.3"/>
		<path fill="none" stroke="#FFFFFF" stroke-width="0.25" stroke-miterlimit="10" d="M46,20.1c-0.1-0.1-0.1-0.2-0.2-0.3"/>
		<path fill="none" stroke="#FFFFFF" stroke-width="0.25" stroke-miterlimit="10" d="M46.2,20.3C46.2,20.3,46.1,20.3,46.2,20.3"/>
		<path fill="none" stroke="#FFFFFF" stroke-width="0.25" stroke-miterlimit="10" d="M46.3,20.5C46.3,20.5,46.3,20.5,46.3,20.5"/>
		<path fill="none" stroke="#FFFFFF" stroke-width="0.25" stroke-miterlimit="10" d="M45.1,29.2c2.3-2.3,2.7-5.8,1.3-8.5"/>
		<path fill="none" stroke="#FFFFFF" stroke-width="0.25" stroke-miterlimit="10" d="M13.3,42.4h3.5h0.9h13.5h0.9h3.5c0,0,0,0,0,0
			s0,0,0,0c3.1-0.1,5.8-2,6.8-4.8c0-0.1,0.1-0.2,0.1-0.3c0-0.1,0-0.1,0.1-0.2c0,0,0,0,0,0c0,0,0-0.1,0-0.1c0,0,0,0,0-0.1
			c0-0.1,0-0.1,0.1-0.2c0,0,0-0.1,0-0.1c0,0,0,0,0-0.1c0-0.2,0.1-0.4,0.1-0.7c0-0.1,0-0.2,0-0.3c0-0.1,0-0.3,0-0.4c0,0,0,0,0,0
			c0-1-0.2-2-0.6-2.9c-0.2-0.4-0.4-0.8-0.6-1.1c-0.3-0.4-0.6-0.8-0.9-1.1l-6-6l-3-3l-4.2-4.2l-3-3l-6-6C18,7.6,17.7,7.2,17.2,7
			c-0.3-0.2-0.7-0.4-1.1-0.6c0,0,0,0-0.1,0c-0.9-0.4-1.8-0.6-2.8-0.6"/>
		<path fill="none" stroke="#FFFFFF" stroke-width="0.25" stroke-miterlimit="10" d="M6,35.2c0,0.1,0,0.2,0,0.4c0,0,0,0,0,0
			c0,0.1,0,0.2,0,0.3c0,0,0,0.1,0,0.1c0,0.1,0,0.2,0,0.3c0.1,0.5,0.2,1,0.4,1.4c0,0.1,0.1,0.2,0.1,0.3c0,0,0,0,0,0.1
			c0,0.1,0.1,0.2,0.1,0.3c0.1,0.1,0.1,0.2,0.2,0.3c0,0.1,0.1,0.2,0.1,0.2C7.1,39,7.1,39,7.2,39.1c0,0,0,0,0,0.1
			c0.1,0.1,0.2,0.2,0.2,0.3c0.1,0.1,0.2,0.3,0.3,0.4C7.9,40,8,40.1,8.1,40.2c0.1,0.1,0.2,0.2,0.3,0.3c0.1,0.1,0.2,0.2,0.3,0.2
			c0.1,0,0.1,0.1,0.2,0.1C8.9,41,9,41,9.1,41.1c0,0,0,0,0.1,0c0.1,0.1,0.2,0.2,0.4,0.2c0.2,0.1,0.4,0.2,0.6,0.3
			c0.1,0,0.2,0.1,0.3,0.1c0.1,0.1,0.2,0.1,0.3,0.1c0,0,0,0,0,0c0.1,0,0.2,0.1,0.3,0.1c0.1,0,0.2,0.1,0.3,0.1"/>
		<path fill="none" stroke="#FFFFFF" stroke-width="0.25" stroke-miterlimit="10" d="M6,12.3c0,0.1,0,0.2,0,0.3"/>
		<path fill="none" stroke="#FFFFFF" stroke-width="0.25" stroke-miterlimit="10" d="M6.2,11.3c0,0.1,0,0.2-0.1,0.2"/>
		<path fill="none" stroke="#FFFFFF" stroke-width="0.25" stroke-miterlimit="10" d="M6.5,10.5C6.5,10.5,6.5,10.5,6.5,10.5
			C6.4,10.5,6.4,10.6,6.5,10.5"/>
		<path fill="none" stroke="#FFFFFF" stroke-width="0.25" stroke-miterlimit="10" d="M6.7,9.9c0,0.1-0.1,0.2-0.1,0.3"/>
		<path fill="none" stroke="#FFFFFF" stroke-width="0.25" stroke-miterlimit="10" d="M7.7,8.4C7.6,8.5,7.5,8.6,7.5,8.7
			C7.4,8.8,7.3,8.9,7.3,9"/>
		<path fill="none" stroke="#FFFFFF" stroke-width="0.25" stroke-miterlimit="10" d="M8.6,7.5c0,0-0.1,0.1-0.1,0.1
			C8.4,7.6,8.3,7.7,8.3,7.8"/>
		<path fill="none" stroke="#FFFFFF" stroke-width="0.25" stroke-miterlimit="10" d="M9.4,6.9C9.4,6.9,9.3,7,9.2,7"/>
		<path fill="none" stroke="#FFFFFF" stroke-width="0.25" stroke-miterlimit="10" d="M10.4,6.4C10.2,6.4,10,6.5,9.8,6.7
			c-0.1,0-0.1,0.1-0.2,0.1c0,0-0.1,0-0.1,0.1"/>
		<path fill="none" stroke="#FFFFFF" stroke-width="0.25" stroke-miterlimit="10" d="M10.8,6.2c-0.1,0-0.2,0.1-0.3,0.1"/>
		<path fill="none" stroke="#FFFFFF" stroke-width="0.25" stroke-miterlimit="10" d="M12.5,5.8c-0.1,0-0.2,0-0.3,0"/>
		<path fill="none" stroke="#FFFFFF" stroke-width="0.25" stroke-miterlimit="10" d="M12.9,5.8c-0.1,0-0.2,0-0.3,0"/>
		<path fill="none" stroke="#FFFFFF" stroke-width="0.25" stroke-miterlimit="10" d="M13.3,5.8c-0.1,0-0.2,0-0.4,0"/>
		<path fill="none" stroke="#FFFFFF" stroke-width="0.25" stroke-miterlimit="10" d="M6,35.2C6,35.2,6,35.2,6,35.2
			C6,35.2,6,35.2,6,35.2c0.1,3.1,2,5.8,4.8,6.8c0.1,0,0.2,0.1,0.3,0.1c0.1,0,0.2,0.1,0.3,0.1c0,0,0.1,0,0.1,0c0.1,0,0.2,0,0.2,0.1
			c0.3,0.1,0.5,0.1,0.8,0.1c0.1,0,0.2,0,0.3,0c0.1,0,0.3,0,0.4,0c0,0,0,0,0,0c1,0,2-0.2,2.9-0.6c0.4-0.2,0.8-0.4,1.1-0.6
			c0.4-0.3,0.8-0.6,1.1-0.9l6-6l3-3l4.2-4.2l3-3l6-6c0.3-0.3,0.7-0.7,0.9-1.1c0.2-0.3,0.4-0.7,0.6-1.1c0,0,0,0,0-0.1
			c0.4-0.9,0.6-1.8,0.6-2.8c0,0,0,0,0,0v0c0-0.1,0-0.2,0-0.4v0c0-0.1,0-0.2,0-0.3l0-0.1c0-0.1,0-0.2,0-0.3l-0.4-1.4
			c0-0.1-0.1-0.2-0.1-0.3l-0.4-0.8c0,0,0,0,0,0c-0.1-0.1-0.1-0.2-0.2-0.3c-0.1-0.1-0.2-0.3-0.3-0.4C41.1,8.5,41,8.5,41,8.4
			c0,0-0.1-0.1-0.1-0.1c-0.1-0.1-0.1-0.1-0.2-0.2c-0.2-0.2-0.4-0.4-0.7-0.6c-0.1-0.1-0.2-0.1-0.3-0.2c-0.1-0.1-0.2-0.1-0.3-0.2
			c-0.1-0.1-0.2-0.1-0.3-0.2c-0.2-0.1-0.4-0.2-0.6-0.3c-0.1-0.1-0.2-0.1-0.3-0.1c-0.1-0.1-0.2-0.1-0.3-0.1c0,0,0,0,0,0c0,0,0,0,0,0
			c-0.1,0-0.2-0.1-0.3-0.1c0,0,0,0,0,0c-0.1,0-0.1,0-0.2-0.1c0,0,0,0,0,0c0,0-0.1,0-0.1,0c0,0,0,0,0,0c0,0,0,0-0.1,0
			c-0.1,0-0.1,0-0.2-0.1c0,0-0.1,0-0.1,0c0,0,0,0-0.1,0c-0.2,0-0.4-0.1-0.7-0.1c-0.1,0-0.2,0-0.3,0c-0.1,0-0.3,0-0.4,0c0,0,0,0,0,0
			h0h-3.5h-0.9H17.6h-0.9h-3.5h0c0,0,0,0,0,0c0,0,0,0,0,0c-0.1,0-0.2,0-0.4,0c0,0,0,0,0,0c-0.1,0-0.2,0-0.3,0c0,0-0.1,0-0.1,0
			c-0.1,0-0.2,0-0.3,0c-0.5,0.1-1,0.2-1.4,0.4c-0.1,0-0.2,0.1-0.3,0.1c0,0,0,0-0.1,0C10.2,6.4,10,6.5,9.8,6.7
			C9.7,6.7,9.6,6.8,9.5,6.8c0,0-0.1,0-0.1,0.1C9.4,6.9,9.3,7,9.2,7C9,7.2,8.8,7.3,8.6,7.5c0,0-0.1,0.1-0.1,0.1
			C8.4,7.6,8.3,7.7,8.3,7.8C8,8,7.8,8.2,7.7,8.4C7.6,8.5,7.5,8.6,7.5,8.7C7.4,8.8,7.3,8.9,7.3,9C7.1,9.3,6.9,9.6,6.7,9.9
			c0,0.1-0.1,0.2-0.1,0.3c-0.1,0.1-0.1,0.2-0.1,0.3c0,0,0,0,0,0c0,0.1-0.1,0.2-0.1,0.3c0,0.1-0.1,0.2-0.1,0.3c0,0,0,0.1,0,0.1
			c0,0.1,0,0.2-0.1,0.2C6.1,11.8,6.1,12,6,12.3c0,0.1,0,0.2,0,0.3c0,0.1,0,0.3,0,0.4v0v0v3.5v0.9v13.5v0.9V35.2z"/>
		<line fill="none" stroke="#FFFFFF" stroke-width="0.25" stroke-miterlimit="10" x1="19.2" y1="44.9" x2="19.2" y2="44.9"/>
		<polyline fill="none" stroke="#FFFFFF" stroke-width="0.25" stroke-miterlimit="10" points="3.6,29.2 6,31.7 6.6,32.3 16.1,41.8 
			16.7,42.4 19.2,44.9 		"/>
		<path fill="none" stroke="#FFFFFF" stroke-width="0.25" stroke-miterlimit="10" d="M3.3,29c0.1,0.1,0.2,0.2,0.2,0.3"/>
		<path fill="none" stroke="#FFFFFF" stroke-width="0.25" stroke-miterlimit="10" d="M2.6,28.1C2.6,28.1,2.6,28.1,2.6,28.1
			c0.1,0.1,0.1,0.2,0.2,0.3"/>
		<path fill="none" stroke="#FFFFFF" stroke-width="0.25" stroke-miterlimit="10" d="M3.5,19c-1.4,1.4-2.1,3.3-2.1,5.1
			c0,0.1,0,0.3,0,0.4c0,0,0,0,0,0c0,0.1,0,0.3,0,0.4c0,0.1,0,0.3,0.1,0.4c0,0.2,0.1,0.3,0.1,0.5c0.1,0.2,0.1,0.4,0.2,0.7
			c0,0.1,0.1,0.2,0.1,0.4c0,0.1,0.1,0.2,0.1,0.3c0,0.1,0.1,0.2,0.1,0.2c0,0,0,0.1,0,0.1c0,0,0,0,0,0"/>
		<path fill="none" stroke="#FFFFFF" stroke-width="0.25" stroke-miterlimit="10" d="M19.8,2.8C19.8,2.8,19.7,2.8,19.8,2.8"/>
		<path fill="none" stroke="#FFFFFF" stroke-width="0.25" stroke-miterlimit="10" d="M20.7,2.1c-0.1,0-0.1,0.1-0.2,0.1"/>
		<path fill="none" stroke="#FFFFFF" stroke-width="0.25" stroke-miterlimit="10" d="M22.6,1.4c-0.2,0.1-0.5,0.1-0.7,0.2
			c-0.1,0-0.2,0.1-0.3,0.1c-0.1,0-0.2,0.1-0.3,0.1c-0.1,0-0.2,0.1-0.2,0.1"/>
		<path fill="none" stroke="#FFFFFF" stroke-width="0.25" stroke-miterlimit="10" d="M23.5,1.2c-0.1,0-0.2,0-0.3,0.1
			c0,0-0.1,0-0.1,0"/>
		<path fill="none" stroke="#FFFFFF" stroke-width="0.25" stroke-miterlimit="10" d="M23.9,1.2c-0.1,0-0.3,0-0.4,0"/>
		<path fill="none" stroke="#FFFFFF" stroke-width="0.25" stroke-miterlimit="10" d="M24.3,1.2c-0.1,0-0.3,0-0.4,0"/>
		<path fill="none" stroke="#FFFFFF" stroke-width="0.25" stroke-miterlimit="10" d="M29.5,44.9c0.7-0.7,1.3-1.6,1.6-2.5
			c0.2-0.4,0.3-0.8,0.4-1.2c0.1-0.5,0.2-1,0.2-1.5v-8.4v-4.2v-6v-4.2V8.4v0c0-0.5-0.1-1-0.2-1.5c-0.1-0.4-0.2-0.8-0.4-1.2
			c-0.4-0.9-0.9-1.7-1.6-2.5"/>
		<path fill="none" stroke="#FFFFFF" stroke-width="0.25" stroke-miterlimit="10" d="M29.2,45.1c0.1-0.1,0.2-0.2,0.3-0.2"/>
		<path fill="none" stroke="#FFFFFF" stroke-width="0.25" stroke-miterlimit="10" d="M28.9,45.4C28.9,45.4,28.9,45.4,28.9,45.4"/>
		<path fill="none" stroke="#FFFFFF" stroke-width="0.25" stroke-miterlimit="10" d="M28.4,45.8c0.1-0.1,0.2-0.1,0.3-0.2"/>
		<path fill="none" stroke="#FFFFFF" stroke-width="0.25" stroke-miterlimit="10" d="M28.1,46c0.1,0,0.1-0.1,0.2-0.1"/>
		<path fill="none" stroke="#FFFFFF" stroke-width="0.25" stroke-miterlimit="10" d="M27.9,46C28,46,28,46,27.9,46"/>
		<path fill="none" stroke="#FFFFFF" stroke-width="0.25" stroke-miterlimit="10" d="M19.2,44.9c2.2,2.1,5.3,2.6,7.9,1.6
			c0.1,0,0.2-0.1,0.3-0.1c0.1,0,0.2-0.1,0.3-0.2"/>
		<path fill="none" stroke="#FFFFFF" stroke-width="0.25" stroke-miterlimit="10" d="M19.2,3.3l-2.5,2.5l-0.6,0.6l-9.5,9.5L6,16.5
			L3.6,19c0,0,0,0,0,0l0,0c-2.2,2.3-2.7,5.8-1.3,8.5c0,0,0,0,0,0c0,0.1,0.1,0.1,0.1,0.2c0,0.1,0.1,0.1,0.1,0.2
			c0,0.1,0.1,0.1,0.1,0.2c0,0,0,0,0,0c0.1,0.1,0.1,0.2,0.2,0.2c0.1,0.1,0.1,0.2,0.2,0.3c0,0,0,0,0,0c0.1,0.1,0.1,0.2,0.2,0.3
			c0.1,0.1,0.2,0.2,0.2,0.3c0,0,0,0,0,0c0.7,0.7,1.6,1.3,2.5,1.6c0.4,0.2,0.8,0.3,1.2,0.4c0.5,0.1,1,0.2,1.5,0.2h8.4h4.2h6h4.2H40h0
			c0.5,0,1-0.1,1.5-0.2c0.4-0.1,0.8-0.2,1.2-0.4c0.9-0.4,1.7-0.9,2.5-1.6c0,0,0,0,0,0"/>
		<path fill="none" stroke="#FFFFFF" stroke-width="0.25" stroke-miterlimit="10" d="M19.5,3.1c-0.1,0.1-0.2,0.2-0.3,0.2"/>
		<path fill="none" stroke="#FFFFFF" stroke-width="0.25" stroke-miterlimit="10" d="M19.7,2.9c0,0-0.1,0.1-0.1,0.1"/>
		<path fill="none" stroke="#FFFFFF" stroke-width="0.25" stroke-miterlimit="10" d="M20.3,2.4C20.3,2.4,20.3,2.4,20.3,2.4
			c-0.1,0.1-0.2,0.1-0.3,0.2"/>
		<path fill="none" stroke="#FFFFFF" stroke-width="0.25" stroke-miterlimit="10" d="M29.5,3.3C29.5,3.3,29.5,3.3,29.5,3.3L29.5,3.3
			c-1.4-1.4-3.3-2.1-5.1-2.1c-0.1,0-0.3,0-0.4,0c0,0,0,0,0,0c-0.1,0-0.3,0-0.4,0c0,0,0,0,0,0c-0.1,0-0.2,0-0.3,0.1c0,0-0.1,0-0.1,0
			c-0.1,0-0.3,0.1-0.4,0.1c-0.2,0.1-0.5,0.1-0.7,0.2c-0.1,0-0.2,0.1-0.3,0.1c-0.1,0-0.2,0.1-0.3,0.1c-0.1,0-0.2,0.1-0.2,0.1
			C21,2,21,2,21,2c0,0,0,0,0,0"/>
		<path fill="none" stroke="#FFFFFF" stroke-width="0.25" stroke-miterlimit="10" d="M45.7,19.6c0-0.1-0.1-0.1-0.1-0.2"/>
		<path fill="none" stroke="#FFFFFF" stroke-width="0.25" stroke-miterlimit="10" d="M46.1,20.2c0,0-0.1-0.1-0.1-0.1c0,0,0,0,0-0.1
			c-0.1-0.1-0.1-0.2-0.2-0.2s-0.1-0.1-0.2-0.2"/>
		<path fill="none" stroke="#FFFFFF" stroke-width="0.25" stroke-miterlimit="10" d="M46.6,21.2c0-0.1-0.1-0.1-0.1-0.2"/>
		<path fill="none" stroke="#FFFFFF" stroke-width="0.25" stroke-miterlimit="10" d="M47,22.3c-0.1-0.2-0.1-0.4-0.2-0.6
			c0-0.1-0.1-0.2-0.1-0.2c0-0.1-0.1-0.1-0.1-0.2"/>
		<path fill="none" stroke="#FFFFFF" stroke-width="0.25" stroke-miterlimit="10" d="M47.2,23.2c0-0.1,0-0.2,0-0.3
			c0-0.1,0-0.1,0-0.2"/>
		<path fill="none" stroke="#FFFFFF" stroke-width="0.25" stroke-miterlimit="10" d="M47.2,23.6c0-0.1,0-0.3,0-0.4"/>
		<path fill="none" stroke="#FFFFFF" stroke-width="0.25" stroke-miterlimit="10" d="M47.2,24.1c0-0.1,0-0.3,0-0.4"/>
		<path fill="none" stroke="#FFFFFF" stroke-width="0.25" stroke-miterlimit="10" d="M46.4,27.5c0.2-0.4,0.4-0.9,0.5-1.3"/>
		<path fill="none" stroke="#FFFFFF" stroke-width="0.25" stroke-miterlimit="10" d="M45.4,28.9c0.3-0.4,0.6-0.8,0.9-1.2"/>
		<path fill="none" stroke="#FFFFFF" stroke-width="0.25" stroke-miterlimit="10" d="M29.5,3.3C27.1,1.1,23.7,0.6,21,2c0,0,0,0,0,0
			c-0.1,0-0.1,0.1-0.2,0.1c-0.1,0-0.1,0.1-0.2,0.1c-0.1,0-0.1,0.1-0.2,0.1c0,0,0,0,0,0c-0.1,0.1-0.2,0.1-0.2,0.2
			c-0.1,0.1-0.2,0.1-0.3,0.2c0,0,0,0,0,0c0,0,0,0-0.1,0.1c0,0-0.1,0.1-0.1,0.1c0,0,0,0-0.1,0.1c-0.1,0.1-0.2,0.2-0.3,0.2
			c0,0,0,0,0,0c-0.7,0.7-1.3,1.6-1.6,2.5c-0.2,0.4-0.3,0.8-0.4,1.2c-0.1,0.5-0.2,1-0.2,1.5v8.4v4.2v6v4.2v8.4c0,0.5,0.1,1,0.2,1.5
			c0.1,0.4,0.2,0.8,0.4,1.2c0,0,0,0.1,0,0.1c0.4,0.9,0.9,1.7,1.6,2.4l0,0l0,0l0,0c1.4,1.4,3.3,2.1,5.1,2.1c0,0,0,0,0,0
			c0.1,0,0.3,0,0.4,0h0c0.1,0,0.3,0,0.4,0c0,0,0,0,0,0c0.1,0,0.2,0,0.3-0.1c0,0,0.1,0,0.1,0c0.1,0,0.2,0,0.4-0.1
			c0.2-0.1,0.4-0.1,0.7-0.2c0.1,0,0.2-0.1,0.2-0.1c0,0,0.1,0,0.1,0c0,0,0.1,0,0.1-0.1c0.1,0,0.1-0.1,0.2-0.1c0,0,0,0,0.1,0
			c0.1,0,0.2-0.1,0.2-0.1c0,0,0,0,0,0c0.1,0,0.1-0.1,0.2-0.1c0,0,0,0,0.1,0c0,0,0.1,0,0.1-0.1c0.1,0,0.1-0.1,0.2-0.1
			c0,0,0.1,0,0.1-0.1c0.1-0.1,0.2-0.1,0.3-0.2c0.1-0.1,0.2-0.1,0.3-0.2c0,0,0,0,0,0c0.1-0.1,0.2-0.1,0.3-0.2
			c0.1-0.1,0.2-0.2,0.3-0.2c0,0,0,0,0,0l2.5-2.5l0.6-0.6l9.5-9.5l0.6-0.6l2.5-2.5c0,0,0,0,0,0v0c0.1-0.1,0.2-0.2,0.3-0.3
			c0.3-0.4,0.6-0.8,0.9-1.2c0.1-0.1,0.1-0.2,0.2-0.3c0.2-0.4,0.4-0.9,0.5-1.3c0.2-0.7,0.3-1.4,0.3-2.1c0-0.1,0-0.3,0-0.4
			c0,0,0,0,0,0c0-0.1,0-0.3,0-0.4c0,0,0,0,0,0c0-0.1,0-0.2,0-0.3c0-0.1,0-0.1,0-0.2c0-0.1-0.1-0.3-0.1-0.4c-0.1-0.3-0.2-0.6-0.3-0.8
			c0-0.1-0.1-0.1-0.1-0.2c0,0,0,0,0-0.1c0-0.1-0.1-0.1-0.1-0.2c0-0.1-0.1-0.2-0.1-0.3c0-0.1-0.1-0.1-0.1-0.2c0,0,0,0,0-0.1
			c0,0-0.1-0.1-0.1-0.1c0,0,0-0.1,0-0.1c0-0.1-0.1-0.1-0.1-0.2c-0.1-0.2-0.2-0.3-0.3-0.4c0,0,0,0,0,0c0-0.1-0.1-0.1-0.1-0.2
			c-0.1-0.1-0.1-0.1-0.2-0.2c-0.1-0.1-0.2-0.2-0.2-0.3l0,0l0,0l-2.5-2.5l-0.6-0.6l-9.5-9.5l-0.6-0.6L29.5,3.3
			C29.5,3.3,29.5,3.3,29.5,3.3z"/>
	</g>
</g>
<g id="XMLID_9637_" opacity="0.7">
	<g id="XMLID_9633_">
		<path fill="#FFFFFF" d="M40.5,30c0.3,0.3,0.7,0.7,0.9,1.1c-0.5,0.1-1,0.2-1.5,0.2h0h-8.4v-4.2l3-3L40.5,30z"/>
		<polygon fill="#FFFFFF" points="34.6,24.1 31.6,27.1 31.6,21.1 		"/>
	</g>
	<g id="XMLID_9634_">
	</g>
</g>
<g id="XMLID_9335_">
	<g id="XMLID_9359_">
		<path fill="#FFFFFF" d="M42.7,35.1C42.7,35.1,42.7,35.1,42.7,35.1c0,0.2,0,0.3,0,0.4c0,0.1,0,0.2,0,0.3c0,0.2-0.1,0.5-0.1,0.7
			c0,0,0,0,0,0.1c0,0,0,0.1,0,0.1c0,0.1,0,0.1-0.1,0.2c0,0,0,0,0,0.1c0,0,0,0.1,0,0.1c0,0,0,0,0,0c0,0.1,0,0.1-0.1,0.2
			c0,0.1-0.1,0.2-0.1,0.3c-1,2.8-3.7,4.7-6.8,4.8c0,0,0,0,0,0s0,0,0,0c-1,0-1.9-0.2-2.8-0.6c0,0,0,0-0.1,0l9.5-9.5
			C42.5,33.1,42.7,34.1,42.7,35.1z"/>
		<path fill="#FFFFFF" d="M42.7,31.6v3.5c0-1-0.2-2-0.6-2.9L42.7,31.6z"/>
		<path fill="#FFFFFF" d="M35.4,42.4h-3.5l0.6-0.6c0,0,0,0,0.1,0C33.5,42.2,34.4,42.4,35.4,42.4z"/>
		<path fill="#FFFFFF" d="M31.9,42.4l-2.5,2.5c0.7-0.7,1.3-1.6,1.6-2.5H31.9z"/>
		<path fill="#FFFFFF" d="M31.1,42.4c-0.4,0.9-0.9,1.7-1.6,2.5c0,0,0,0,0,0c-0.1,0.1-0.2,0.2-0.3,0.2c-0.1,0.1-0.2,0.2-0.3,0.2
			c0,0,0,0,0,0c-0.1,0.1-0.2,0.2-0.3,0.2c-0.1,0.1-0.2,0.1-0.3,0.2c0,0-0.1,0.1-0.1,0.1c-0.1,0-0.1,0.1-0.2,0.1c0,0-0.1,0-0.1,0.1
			c0,0,0,0-0.1,0c-0.1,0-0.1,0.1-0.2,0.1c-0.1,0.1-0.2,0.1-0.3,0.2c-0.1,0.1-0.2,0.1-0.3,0.1c-2.6,1.1-5.7,0.5-7.9-1.6l0,0l0,0l0,0
			c-0.7-0.7-1.2-1.5-1.6-2.4c0,0,0-0.1,0-0.1H31.1z"/>
		<path fill="#FFFFFF" d="M19.2,44.8l-2.5-2.5h0.9c0,0,0,0.1,0,0.1C18,43.3,18.5,44.1,19.2,44.8z"/>
		<path fill="#FFFFFF" d="M16.8,42.4h-3.5c1,0,2-0.2,2.9-0.6L16.8,42.4z"/>
		<path fill="#FFFFFF" d="M16.2,41.8c-0.9,0.4-1.9,0.6-2.9,0.6c0,0,0,0,0,0c-0.1,0-0.3,0-0.4,0c-0.1,0-0.2,0-0.3,0
			c-0.3,0-0.6-0.1-0.8-0.1c-0.1,0-0.2,0-0.2-0.1c0,0-0.1,0-0.1,0c-0.1,0-0.2-0.1-0.3-0.1c-0.1,0-0.2-0.1-0.3-0.1
			c-2.8-1-4.7-3.7-4.8-6.8c0,0,0,0,0,0s0,0,0,0c0-1,0.2-1.9,0.6-2.8c0,0,0,0,0-0.1L16.2,41.8z"/>
		<path fill="#FFFFFF" d="M6.6,32.2C6.6,32.3,6.6,32.3,6.6,32.2C6.2,33.2,6,34.1,6,35.1v-3.5L6.6,32.2z"/>
	</g>
	<g id="XMLID_9360_">
	</g>
</g>
</svg>
