<?xml version="1.0" encoding="utf-8"?>
<!-- Generator: Adobe Illustrator 20.0.0, SVG Export Plug-In . SVG Version: 6.00 Build 0)  -->
<!DOCTYPE svg PUBLIC "-//W3C//DTD SVG 1.1//EN" "http://www.w3.org/Graphics/SVG/1.1/DTD/svg11.dtd">
<svg version="1.1" id="Layer_1" xmlns="http://www.w3.org/2000/svg" xmlns:xlink="http://www.w3.org/1999/xlink" x="0px" y="0px"
	 viewBox="0 0 47.7 47.3" enable-background="new 0 0 47.7 47.3" xml:space="preserve">
<g id="XMLID_8452_" opacity="0.3">
	<g id="XMLID_8464_">
		<path fill="#FFFFFF" d="M46.3,20.6c1.4,2.7,1,6.1-1.3,8.5c0,0,0,0,0,0c-0.7,0.7-1.6,1.3-2.5,1.6V17.3c0.9,0.4,1.7,0.9,2.5,1.6l0,0
			l0,0c0.1,0.1,0.2,0.2,0.2,0.3c0,0,0,0,0.1,0.1c0,0,0.1,0.1,0.1,0.1c0,0,0,0,0.1,0.1c0,0,0,0,0,0c0.1,0.1,0.2,0.2,0.2,0.3
			c0.1,0.1,0.1,0.2,0.2,0.3c0,0,0,0,0,0.1c0,0.1,0.1,0.1,0.1,0.2c0,0,0.1,0.1,0.1,0.1C46.2,20.5,46.2,20.5,46.3,20.6
			C46.2,20.6,46.2,20.6,46.3,20.6z"/>
		<polygon fill="#FFFFFF" points="34.4,24 31.4,27 31.4,21 		"/>
		<polygon fill="#FFFFFF" points="31.4,27 31.4,31.2 27.2,31.2 		"/>
		<path fill="#FFFFFF" d="M30.9,42.3c-0.4,0.9-0.9,1.7-1.6,2.5c0,0,0,0,0,0c-0.1,0.1-0.2,0.2-0.3,0.2c-0.1,0.1-0.2,0.2-0.3,0.2
			c0,0,0,0,0,0c-0.1,0.1-0.2,0.2-0.3,0.2c-0.1,0.1-0.2,0.1-0.3,0.2c0,0-0.1,0.1-0.1,0.1c-0.1,0-0.1,0.1-0.2,0.1c0,0-0.1,0-0.1,0.1
			c0,0,0,0-0.1,0c-0.1,0-0.1,0.1-0.2,0.1c-0.1,0.1-0.2,0.1-0.3,0.2c-0.1,0.1-0.2,0.1-0.3,0.1c-2.6,1.1-5.7,0.5-7.9-1.6l0,0l0,0l0,0
			c-0.7-0.7-1.2-1.5-1.6-2.4c0,0,0-0.1,0-0.1H30.9z"/>
		<path fill="#FFFFFF" d="M29.3,3.2c0.7,0.7,1.3,1.6,1.6,2.5H17.4c0.4-0.9,0.9-1.7,1.6-2.5c0,0,0,0,0,0C19.1,3.1,19.2,3,19.3,3
			c0.1-0.1,0.1-0.1,0.2-0.2c0.1,0,0.1-0.1,0.2-0.1c0.1-0.1,0.2-0.1,0.2-0.2c0.1-0.1,0.2-0.1,0.3-0.2c0,0,0,0,0,0
			c0,0,0.1-0.1,0.1-0.1c0,0,0,0,0.1,0c0,0,0.1,0,0.1-0.1C20.6,2,20.7,2,20.8,1.9C23.5,0.5,26.9,1,29.3,3.2
			C29.3,3.2,29.3,3.2,29.3,3.2z"/>
		<polygon fill="#FFFFFF" points="21.2,16.7 16.9,21 16.9,16.7 		"/>
		<polygon fill="#FFFFFF" points="16.9,21 16.9,27 13.9,24 		"/>
		<path fill="#FFFFFF" d="M5.9,17.3v13.5c-0.9-0.4-1.7-0.9-2.5-1.6c0,0,0,0,0,0c-0.1-0.1-0.2-0.2-0.2-0.3c-0.1-0.1-0.2-0.2-0.2-0.3
			c0,0,0,0,0,0c-0.1-0.1-0.2-0.2-0.2-0.3c-0.1-0.1-0.1-0.2-0.2-0.2c0,0,0,0,0,0c0-0.1-0.1-0.1-0.1-0.2c0-0.1-0.1-0.1-0.1-0.2
			c0-0.1-0.1-0.1-0.1-0.2c0,0,0,0,0,0c-1.4-2.7-1-6.1,1.3-8.5l0,0c0,0,0,0,0,0C4.1,18.2,4.9,17.6,5.9,17.3
			C5.8,17.3,5.8,17.3,5.9,17.3z"/>
	</g>
	<g id="XMLID_8579_">
	</g>
</g>
<g id="XMLID_8946_">
	<g id="XMLID_8972_">
		<path fill="#FFFFFF" d="M42.5,35.1C42.5,35.1,42.5,35.1,42.5,35.1c0,0.2,0,0.3,0,0.4c0,0.1,0,0.2,0,0.3c0,0.2-0.1,0.5-0.1,0.7
			c0,0,0,0,0,0.1c0,0,0,0.1,0,0.1c0,0.1,0,0.1-0.1,0.2c0,0,0,0,0,0.1c0,0,0,0.1,0,0.1c0,0,0,0,0,0c0,0.1,0,0.1-0.1,0.2
			c0,0.1-0.1,0.2-0.1,0.3c-1,2.8-3.7,4.7-6.8,4.8c0,0,0,0,0,0c0,0,0,0,0,0h0c-1,0-1.9-0.2-2.8-0.6c0,0,0,0-0.1,0l9.5-9.5
			C42.3,33.1,42.5,34,42.5,35.1z"/>
		<path fill="#FFFFFF" d="M42.5,12.9C42.5,12.9,42.5,12.9,42.5,12.9c0,1-0.2,2-0.6,2.8c0,0,0,0,0,0.1l-9.5-9.5
			c0.9-0.4,1.9-0.6,2.9-0.6h0c0,0,0,0,0,0c0.1,0,0.3,0,0.4,0c0.1,0,0.2,0,0.3,0c0.2,0,0.5,0.1,0.7,0.1c0,0,0,0,0.1,0
			c0,0,0.1,0,0.1,0c0.1,0,0.2,0,0.3,0.1c0,0,0,0,0,0c0,0,0.1,0,0.1,0c0,0,0,0,0,0c0.1,0,0.1,0,0.2,0.1c0.1,0,0.2,0.1,0.3,0.1
			C40.5,7.1,42.4,9.8,42.5,12.9L42.5,12.9z"/>
		<path fill="#FFFFFF" d="M42.5,35.8c0-0.1,0-0.2,0-0.3C42.5,35.6,42.5,35.7,42.5,35.8z"/>
		<path fill="#FFFFFF" d="M42.4,36.4C42.4,36.5,42.4,36.5,42.4,36.4C42.4,36.5,42.4,36.5,42.4,36.4z"/>
		<path fill="#FFFFFF" d="M42.3,36.8c0-0.1,0-0.1,0.1-0.2C42.3,36.7,42.3,36.7,42.3,36.8z"/>
		<path fill="#FFFFFF" d="M42.3,36.9C42.3,36.9,42.2,36.9,42.3,36.9C42.2,36.9,42.2,36.9,42.3,36.9z"/>
		<path fill="#FFFFFF" d="M42.2,37C42.2,37,42.2,37,42.2,37C42.2,37,42.2,37,42.2,37z"/>
		<path fill="#FFFFFF" d="M42.2,37.2c0-0.1,0-0.1,0.1-0.2C42.2,37.1,42.2,37.1,42.2,37.2C42.2,37.2,42.2,37.2,42.2,37.2z"/>
		<path fill="#FFFFFF" d="M42.1,37.5C42.1,37.5,42.1,37.5,42.1,37.5C42,37.6,42.1,37.6,42.1,37.5C42.1,37.5,42.1,37.5,42.1,37.5z"/>
		<path fill="#FFFFFF" d="M16,6.3l-9.5,9.5c-0.4-0.9-0.6-1.9-0.6-2.9v0v0c0-0.1,0-0.3,0-0.4c0-0.1,0-0.2,0-0.3
			c0-0.3,0.1-0.6,0.1-0.8c0-0.1,0-0.2,0.1-0.2c0,0,0-0.1,0-0.1c0-0.1,0.1-0.2,0.1-0.3c0-0.1,0.1-0.2,0.1-0.3c1-2.8,3.7-4.7,6.8-4.8
			c0,0,0,0,0,0c0,0,0,0,0,0h0C14.1,5.7,15,5.9,16,6.3C15.9,6.2,16,6.3,16,6.3z"/>
		<path fill="#FFFFFF" d="M16,41.7c-0.9,0.4-1.9,0.6-2.9,0.6c0,0,0,0,0,0c-0.1,0-0.3,0-0.4,0c-0.1,0-0.2,0-0.3,0
			c-0.3,0-0.6-0.1-0.8-0.1c-0.1,0-0.2,0-0.2-0.1c0,0-0.1,0-0.1,0C11.1,42,11,42,10.9,42c-0.1,0-0.2-0.1-0.3-0.1
			c-2.8-1-4.7-3.7-4.8-6.8c0,0,0,0,0,0c0,0,0,0,0,0c0-1,0.2-1.9,0.6-2.8c0,0,0,0,0-0.1L16,41.7z"/>
	</g>
	<g id="XMLID_8971_">
	</g>
</g>
<g id="XMLID_8926_" opacity="0.1">
	<g id="XMLID_7894_">
		<path fill="#FFFFFF" d="M40.4,29.9c0.3,0.3,0.7,0.7,0.9,1.1c-0.5,0.1-1,0.2-1.5,0.2h0h-8.4V27l3-3L40.4,29.9z"/>
		<path fill="#FFFFFF" d="M41.3,16.9c-0.3,0.4-0.6,0.8-0.9,1.1l-6,6l-3-3v-4.2h8.4C40.3,16.7,40.8,16.8,41.3,16.9z"/>
		<path fill="#FFFFFF" d="M31.4,31.2v8.4c0,0.5-0.1,1-0.2,1.5c-0.4-0.3-0.8-0.6-1.1-0.9l-6-6l3-3H31.4z"/>
		<path fill="#FFFFFF" d="M18.2,7.8l6,6l-3,3h-4.2V8.3c0-0.5,0.1-1,0.2-1.5C17.5,7.1,17.9,7.4,18.2,7.8z"/>
		<path fill="#FFFFFF" d="M16.9,27v4.2H8.5c-0.5,0-1-0.1-1.5-0.2c0.3-0.4,0.6-0.8,0.9-1.1l6-6L16.9,27z"/>
		<path fill="#FFFFFF" d="M16.9,16.7V21l-3,3l-6-6c-0.3-0.3-0.7-0.7-0.9-1.1c0.5-0.1,1-0.2,1.5-0.2H16.9z"/>
	</g>
	<g id="XMLID_7895_">
	</g>
</g>
<g id="XMLID_8562_" opacity="0.85">
	<g id="XMLID_8920_">
		<polygon fill="#FFFFFF" points="31.4,21 31.4,27 27.2,31.2 21.2,31.2 16.9,27 16.9,21 21.2,16.7 27.2,16.7 		"/>
		<polygon fill="#FFFFFF" points="31.4,16.7 31.4,21 27.2,16.7 		"/>
		<polygon fill="#FFFFFF" points="27.2,31.2 24.2,34.2 21.2,31.2 		"/>
		<polygon fill="#FFFFFF" points="24.2,13.8 27.2,16.7 21.2,16.7 		"/>
		<polygon fill="#FFFFFF" points="21.2,31.2 16.9,31.2 16.9,27 		"/>
	</g>
	<g id="XMLID_8574_">
		<path fill="none" stroke="#FFFFFF" stroke-width="0.25" stroke-miterlimit="10" d="M37,5.9c-0.1,0-0.1,0-0.2-0.1"/>
		<path fill="none" stroke="#FFFFFF" stroke-width="0.25" stroke-miterlimit="10" d="M37.1,5.9C37.1,5.9,37.1,5.9,37.1,5.9"/>
		<path fill="none" stroke="#FFFFFF" stroke-width="0.25" stroke-miterlimit="10" d="M37.4,6c-0.1,0-0.2,0-0.2-0.1"/>
		<path fill="none" stroke="#FFFFFF" stroke-width="0.25" stroke-miterlimit="10" d="M37.7,6.1C37.7,6.1,37.7,6.1,37.7,6.1"/>
		<path fill="none" stroke="#FFFFFF" stroke-width="0.25" stroke-miterlimit="10" d="M38.4,6.4c-0.1,0-0.2-0.1-0.3-0.1"/>
		<path fill="none" stroke="#FFFFFF" stroke-width="0.25" stroke-miterlimit="10" d="M39.4,7c-0.1-0.1-0.2-0.2-0.4-0.2"/>
		<path fill="none" stroke="#FFFFFF" stroke-width="0.25" stroke-miterlimit="10" d="M39.8,7.3c-0.1,0-0.1-0.1-0.2-0.1
			c-0.1-0.1-0.2-0.1-0.2-0.2"/>
		<path fill="none" stroke="#FFFFFF" stroke-width="0.25" stroke-miterlimit="10" d="M40.7,8.2c-0.1-0.1-0.2-0.2-0.3-0.3
			c-0.1-0.1-0.2-0.2-0.3-0.3"/>
		<path fill="none" stroke="#FFFFFF" stroke-width="0.25" stroke-miterlimit="10" d="M41.5,9.3c-0.1-0.1-0.1-0.2-0.2-0.4
			c-0.1-0.1-0.2-0.3-0.3-0.4c-0.1-0.1-0.2-0.2-0.2-0.3"/>
		<path fill="none" stroke="#FFFFFF" stroke-width="0.25" stroke-miterlimit="10" d="M42.1,10.4c0-0.1-0.1-0.2-0.1-0.3"/>
		<path fill="none" stroke="#FFFFFF" stroke-width="0.25" stroke-miterlimit="10" d="M42.4,12.1c0-0.1,0-0.2,0-0.3"/>
		<path fill="none" stroke="#FFFFFF" stroke-width="0.25" stroke-miterlimit="10" d="M42.5,12.5c0-0.1,0-0.2,0-0.3"/>
		<path fill="none" stroke="#FFFFFF" stroke-width="0.25" stroke-miterlimit="10" d="M42.5,12.9c0-0.1,0-0.2,0-0.4"/>
		<path fill="none" stroke="#FFFFFF" stroke-width="0.25" stroke-miterlimit="10" d="M42.5,35.8c0-0.1,0-0.2,0-0.3"/>
		<path fill="none" stroke="#FFFFFF" stroke-width="0.25" stroke-miterlimit="10" d="M42.3,36.8c0-0.1,0-0.2,0.1-0.2"/>
		<path fill="none" stroke="#FFFFFF" stroke-width="0.25" stroke-miterlimit="10" d="M42.1,37.6C42.1,37.6,42.1,37.6,42.1,37.6
			C42.1,37.5,42.1,37.5,42.1,37.6"/>
		<path fill="none" stroke="#FFFFFF" stroke-width="0.25" stroke-miterlimit="10" d="M41.8,38.2c0.1-0.1,0.1-0.2,0.1-0.3"/>
		<path fill="none" stroke="#FFFFFF" stroke-width="0.25" stroke-miterlimit="10" d="M41.2,39.2c0.1-0.1,0.2-0.2,0.2-0.4"/>
		<path fill="none" stroke="#FFFFFF" stroke-width="0.25" stroke-miterlimit="10" d="M40.9,39.7c0-0.1,0.1-0.1,0.1-0.2
			c0.1-0.1,0.1-0.2,0.2-0.2"/>
		<path fill="none" stroke="#FFFFFF" stroke-width="0.25" stroke-miterlimit="10" d="M40,40.5c0.1-0.1,0.2-0.2,0.3-0.3
			c0.1-0.1,0.2-0.2,0.3-0.3"/>
		<path fill="none" stroke="#FFFFFF" stroke-width="0.25" stroke-miterlimit="10" d="M39.3,41.1c0.1-0.1,0.2-0.2,0.3-0.2"/>
		<path fill="none" stroke="#FFFFFF" stroke-width="0.25" stroke-miterlimit="10" d="M38.1,41.7c0.1,0,0.2-0.1,0.3-0.1
			c0.1-0.1,0.2-0.1,0.3-0.2c0.1,0,0.1-0.1,0.2-0.1c0,0,0.1,0,0.1-0.1c0.1-0.1,0.2-0.1,0.3-0.2"/>
		<path fill="none" stroke="#FFFFFF" stroke-width="0.25" stroke-miterlimit="10" d="M37.7,41.9c0.1,0,0.2-0.1,0.3-0.1"/>
		<path fill="none" stroke="#FFFFFF" stroke-width="0.25" stroke-miterlimit="10" d="M36,42.3c0.1,0,0.2,0,0.3,0"/>
		<path fill="none" stroke="#FFFFFF" stroke-width="0.25" stroke-miterlimit="10" d="M35.6,42.3c0.1,0,0.2,0,0.3,0"/>
		<path fill="none" stroke="#FFFFFF" stroke-width="0.25" stroke-miterlimit="10" d="M35.3,42.3c0.1,0,0.2,0,0.4,0"/>
		<path fill="none" stroke="#FFFFFF" stroke-width="0.25" stroke-miterlimit="10" d="M5.9,12.9c0,1,0.2,2,0.6,2.9
			c0.2,0.4,0.4,0.8,0.6,1.1C7.3,17.3,7.6,17.7,8,18l6,6l3,3l4.2,4.2l3,3l6,6c0.3,0.3,0.7,0.7,1.1,0.9c0.3,0.2,0.7,0.4,1.1,0.6
			c0,0,0,0,0.1,0c0.9,0.4,1.8,0.6,2.8,0.6"/>
		<path fill="none" stroke="#FFFFFF" stroke-width="0.25" stroke-miterlimit="10" d="M6,11.5C6,11.5,6,11.5,6,11.5"/>
		<path fill="none" stroke="#FFFFFF" stroke-width="0.25" stroke-miterlimit="10" d="M6.1,11.1c0,0.1,0,0.2-0.1,0.3"/>
		<path fill="none" stroke="#FFFFFF" stroke-width="0.25" stroke-miterlimit="10" d="M6.1,11C6.1,11,6.1,11,6.1,11"/>
		<path fill="none" stroke="#FFFFFF" stroke-width="0.25" stroke-miterlimit="10" d="M13.1,5.7c-3.1,0.1-5.8,2-6.8,4.8
			c0,0.1-0.1,0.2-0.1,0.3"/>
		<polyline fill="none" stroke="#FFFFFF" stroke-width="0.25" stroke-miterlimit="10" points="42.5,35.1 42.5,31.6 42.5,30.7 
			42.5,17.2 42.5,16.4 42.5,12.9 		"/>
		<path fill="none" stroke="#FFFFFF" stroke-width="0.25" stroke-miterlimit="10" d="M35.3,42.3c0.1,0,0.2,0,0.4,0c0,0,0,0,0,0
			c0.1,0,0.2,0,0.3,0c0,0,0.1,0,0.1,0c0.1,0,0.2,0,0.3,0c0.5-0.1,1-0.2,1.4-0.4c0.1,0,0.2-0.1,0.3-0.1c0,0,0,0,0.1,0
			c0.1,0,0.2-0.1,0.3-0.1c0.1-0.1,0.2-0.1,0.3-0.2c0.1,0,0.2-0.1,0.2-0.1c0.1-0.1,0.2-0.1,0.3-0.2c0,0,0,0,0.1,0
			c0.1-0.1,0.2-0.2,0.3-0.2c0.1-0.1,0.3-0.2,0.4-0.3c0.1-0.1,0.2-0.2,0.3-0.3c0.1-0.1,0.2-0.2,0.3-0.3c0.1-0.1,0.2-0.2,0.2-0.3
			c0-0.1,0.1-0.1,0.1-0.2c0.1-0.1,0.1-0.2,0.2-0.2c0,0,0,0,0-0.1c0.1-0.1,0.2-0.2,0.2-0.4c0.1-0.2,0.2-0.4,0.3-0.6
			c0-0.1,0.1-0.2,0.1-0.3c0.1-0.1,0.1-0.2,0.1-0.3c0,0,0,0,0,0c0-0.1,0.1-0.2,0.1-0.3c0-0.1,0.1-0.2,0.1-0.3"/>
		<path fill="none" stroke="#FFFFFF" stroke-width="0.25" stroke-miterlimit="10" d="M12.4,42.3c0.1,0,0.2,0,0.3,0"/>
		<path fill="none" stroke="#FFFFFF" stroke-width="0.25" stroke-miterlimit="10" d="M11.3,42.1c0.1,0,0.2,0,0.2,0.1"/>
		<path fill="none" stroke="#FFFFFF" stroke-width="0.25" stroke-miterlimit="10" d="M10.6,41.9C10.6,41.9,10.6,41.9,10.6,41.9
			C10.6,41.9,10.6,41.9,10.6,41.9"/>
		<path fill="none" stroke="#FFFFFF" stroke-width="0.25" stroke-miterlimit="10" d="M10,41.6c0.1,0,0.2,0.1,0.3,0.1"/>
		<path fill="none" stroke="#FFFFFF" stroke-width="0.25" stroke-miterlimit="10" d="M8.5,40.7c0.1,0.1,0.2,0.1,0.3,0.2
			C8.9,40.9,8.9,41,9,41.1"/>
		<path fill="none" stroke="#FFFFFF" stroke-width="0.25" stroke-miterlimit="10" d="M7.5,39.7c0,0,0.1,0.1,0.1,0.1
			c0.1,0.1,0.1,0.1,0.2,0.2"/>
		<path fill="none" stroke="#FFFFFF" stroke-width="0.25" stroke-miterlimit="10" d="M6.4,37.9c0.1,0.2,0.2,0.4,0.3,0.6
			c0,0.1,0.1,0.1,0.1,0.2c0,0,0,0.1,0.1,0.1"/>
		<path fill="none" stroke="#FFFFFF" stroke-width="0.25" stroke-miterlimit="10" d="M6.3,37.6c0,0.1,0.1,0.2,0.1,0.3"/>
		<path fill="none" stroke="#FFFFFF" stroke-width="0.25" stroke-miterlimit="10" d="M5.9,35.9c0,0.1,0,0.2,0,0.3"/>
		<path fill="none" stroke="#FFFFFF" stroke-width="0.25" stroke-miterlimit="10" d="M5.9,35.4c0,0.1,0,0.2,0,0.3"/>
		<path fill="none" stroke="#FFFFFF" stroke-width="0.25" stroke-miterlimit="10" d="M5.9,35.1c0,0.1,0,0.2,0,0.4"/>
		<path fill="none" stroke="#FFFFFF" stroke-width="0.25" stroke-miterlimit="10" d="M35.2,5.7c-1,0-2,0.2-2.9,0.6
			c-0.4,0.2-0.8,0.4-1.1,0.6c-0.4,0.3-0.8,0.6-1.1,0.9l-6,6l-3,3L16.9,21l-3,3l-6,6c-0.3,0.3-0.7,0.7-0.9,1.1
			c-0.2,0.3-0.4,0.7-0.6,1.1c0,0,0,0,0,0.1c-0.4,0.9-0.6,1.8-0.6,2.8"/>
		<path fill="none" stroke="#FFFFFF" stroke-width="0.25" stroke-miterlimit="10" d="M35.9,5.7c-0.1,0-0.2,0-0.3,0"/>
		<path fill="none" stroke="#FFFFFF" stroke-width="0.25" stroke-miterlimit="10" d="M36.7,5.8C36.7,5.8,36.6,5.8,36.7,5.8"/>
		<path fill="none" stroke="#FFFFFF" stroke-width="0.25" stroke-miterlimit="10" d="M37,5.9c-0.1,0-0.2,0-0.3-0.1"/>
		<path fill="none" stroke="#FFFFFF" stroke-width="0.25" stroke-miterlimit="10" d="M37.2,5.9C37.2,5.9,37.2,5.9,37.2,5.9"/>
		<path fill="none" stroke="#FFFFFF" stroke-width="0.25" stroke-miterlimit="10" d="M42.5,12.9c-0.1-3.1-2-5.8-4.8-6.8
			c-0.1,0-0.2-0.1-0.3-0.1"/>
		<path fill="none" stroke="#FFFFFF" stroke-width="0.25" stroke-miterlimit="10" d="M26.8,46.4c0.1,0,0.2-0.1,0.2-0.1
			c0.1,0,0.2-0.1,0.2-0.1"/>
		<path fill="none" stroke="#FFFFFF" stroke-width="0.25" stroke-miterlimit="10" d="M25.9,46.7c0.2-0.1,0.4-0.1,0.7-0.2"/>
		<path fill="none" stroke="#FFFFFF" stroke-width="0.25" stroke-miterlimit="10" d="M25,46.8c0.1,0,0.2,0,0.3-0.1c0,0,0.1,0,0.1,0"
			/>
		<path fill="none" stroke="#FFFFFF" stroke-width="0.25" stroke-miterlimit="10" d="M24.6,46.9c0.1,0,0.3,0,0.4,0"/>
		<path fill="none" stroke="#FFFFFF" stroke-width="0.25" stroke-miterlimit="10" d="M24.2,46.9c0.1,0,0.3,0,0.4,0"/>
		<path fill="none" stroke="#FFFFFF" stroke-width="0.25" stroke-miterlimit="10" d="M2.9,28.6C2.9,28.6,2.9,28.6,2.9,28.6"/>
		<path fill="none" stroke="#FFFFFF" stroke-width="0.25" stroke-miterlimit="10" d="M2.2,27.6c0,0.1,0.1,0.1,0.1,0.2"/>
		<path fill="none" stroke="#FFFFFF" stroke-width="0.25" stroke-miterlimit="10" d="M1.8,26.7c0,0.1,0.1,0.2,0.1,0.3
			C2,27.1,2,27.2,2,27.3"/>
		<path fill="none" stroke="#FFFFFF" stroke-width="0.25" stroke-miterlimit="10" d="M1.5,25.7c0.1,0.2,0.1,0.4,0.2,0.7"/>
		<path fill="none" stroke="#FFFFFF" stroke-width="0.25" stroke-miterlimit="10" d="M1.3,24.9c0,0.1,0,0.2,0.1,0.4"/>
		<path fill="none" stroke="#FFFFFF" stroke-width="0.25" stroke-miterlimit="10" d="M1.3,24.4c0,0.1,0,0.3,0,0.4"/>
		<path fill="none" stroke="#FFFFFF" stroke-width="0.25" stroke-miterlimit="10" d="M1.3,24c0,0.1,0,0.3,0,0.4"/>
		<path fill="none" stroke="#FFFFFF" stroke-width="0.25" stroke-miterlimit="10" d="M45,18.9c-0.7-0.7-1.6-1.3-2.5-1.6
			c-0.4-0.2-0.8-0.3-1.2-0.3c-0.5-0.1-1-0.2-1.5-0.2h-8.4h-4.2h-6h-4.2H8.5c-0.5,0-1,0.1-1.5,0.2c-0.4,0.1-0.8,0.2-1.2,0.4
			c0,0-0.1,0-0.1,0c-0.9,0.4-1.7,0.9-2.4,1.6"/>
		<path fill="none" stroke="#FFFFFF" stroke-width="0.25" stroke-miterlimit="10" d="M45.2,19.1C45.1,19,45,19,45,18.9"/>
		<path fill="none" stroke="#FFFFFF" stroke-width="0.25" stroke-miterlimit="10" d="M45.8,19.9c-0.1-0.1-0.1-0.2-0.2-0.2"/>
		<path fill="none" stroke="#FFFFFF" stroke-width="0.25" stroke-miterlimit="10" d="M45,29.1c2.2-2.3,2.7-5.8,1.3-8.5c0,0,0,0,0,0"
			/>
		<path fill="none" stroke="#FFFFFF" stroke-width="0.25" stroke-miterlimit="10" d="M13.1,42.3h3.5h0.9h13.5h0.9h3.5c0,0,0,0,0,0
			c0,0,0,0,0,0c3.1-0.1,5.8-2,6.8-4.8c0-0.1,0.1-0.2,0.1-0.3c0-0.1,0.1-0.2,0.1-0.3c0,0,0-0.1,0-0.1c0-0.1,0-0.2,0.1-0.2
			c0.1-0.3,0.1-0.5,0.1-0.8c0-0.1,0-0.2,0-0.3c0-0.1,0-0.3,0-0.4c0,0,0,0,0,0c0-1-0.2-2-0.6-2.9c-0.2-0.4-0.4-0.8-0.6-1.1
			c-0.3-0.4-0.6-0.8-0.9-1.1l-6-6l-3-3l-4.2-4.2l-3-3l-6-6c-0.3-0.3-0.7-0.7-1.1-0.9c-0.3-0.2-0.7-0.4-1.1-0.6c0,0,0,0-0.1,0
			c-0.9-0.4-1.8-0.6-2.8-0.6"/>
		<path fill="none" stroke="#FFFFFF" stroke-width="0.25" stroke-miterlimit="10" d="M5.9,35.1c0,0.1,0,0.2,0,0.4c0,0,0,0,0,0
			c0,0.1,0,0.2,0,0.3c0,0,0,0.1,0,0.1c0,0.1,0,0.2,0,0.3c0.1,0.5,0.2,1,0.4,1.4c0,0.1,0.1,0.2,0.1,0.3c0,0,0,0,0,0.1
			c0.1,0.2,0.2,0.4,0.3,0.6c0.1,0.1,0.1,0.2,0.2,0.3c0.2,0.3,0.4,0.6,0.7,0.9c0,0,0.1,0.1,0.1,0.1c0.1,0.1,0.1,0.1,0.2,0.2
			c0.2,0.2,0.4,0.4,0.7,0.6c0.1,0.1,0.2,0.1,0.3,0.2C8.9,40.9,8.9,41,9,41.1c0.3,0.2,0.6,0.4,0.9,0.5c0.1,0,0.2,0.1,0.3,0.1
			c0.1,0.1,0.2,0.1,0.3,0.1c0,0,0,0,0,0c0.1,0,0.2,0.1,0.3,0.1c0.1,0,0.2,0.1,0.3,0.1"/>
		<path fill="none" stroke="#FFFFFF" stroke-width="0.25" stroke-miterlimit="10" d="M5.9,12.2c0,0.1,0,0.2,0,0.3"/>
		<path fill="none" stroke="#FFFFFF" stroke-width="0.25" stroke-miterlimit="10" d="M6.1,11.2c0,0.1,0,0.1-0.1,0.2"/>
		<path fill="none" stroke="#FFFFFF" stroke-width="0.25" stroke-miterlimit="10" d="M6.1,11C6.1,11,6.1,11.1,6.1,11"/>
		<path fill="none" stroke="#FFFFFF" stroke-width="0.25" stroke-miterlimit="10" d="M6.2,10.8C6.2,10.8,6.2,10.8,6.2,10.8
			c0,0.1,0,0.2-0.1,0.2"/>
		<path fill="none" stroke="#FFFFFF" stroke-width="0.25" stroke-miterlimit="10" d="M6.3,10.4C6.3,10.4,6.3,10.4,6.3,10.4
			C6.3,10.4,6.3,10.5,6.3,10.4"/>
		<path fill="none" stroke="#FFFFFF" stroke-width="0.25" stroke-miterlimit="10" d="M6.6,9.8c0,0.1-0.1,0.2-0.1,0.3"/>
		<path fill="none" stroke="#FFFFFF" stroke-width="0.25" stroke-miterlimit="10" d="M7.5,8.3C7.4,8.4,7.4,8.5,7.3,8.6
			C7.2,8.7,7.2,8.8,7.1,8.9"/>
		<path fill="none" stroke="#FFFFFF" stroke-width="0.25" stroke-miterlimit="10" d="M9.4,6.7C9.3,6.7,9.2,6.8,9.1,6.9
			C9,7,8.8,7,8.7,7.1C8.6,7.2,8.5,7.3,8.4,7.4c0,0-0.1,0.1-0.1,0.1C8.2,7.5,8.2,7.6,8.1,7.7"/>
		<path fill="none" stroke="#FFFFFF" stroke-width="0.25" stroke-miterlimit="10" d="M10.6,6.1c-0.1,0-0.2,0.1-0.3,0.1"/>
		<path fill="none" stroke="#FFFFFF" stroke-width="0.25" stroke-miterlimit="10" d="M12.3,5.7c-0.1,0-0.2,0-0.3,0"/>
		<path fill="none" stroke="#FFFFFF" stroke-width="0.25" stroke-miterlimit="10" d="M12.7,5.7c-0.1,0-0.2,0-0.3,0"/>
		<path fill="none" stroke="#FFFFFF" stroke-width="0.25" stroke-miterlimit="10" d="M13.1,5.7c-0.1,0-0.2,0-0.4,0"/>
		<path fill="none" stroke="#FFFFFF" stroke-width="0.25" stroke-miterlimit="10" d="M5.9,35.1C5.9,35.1,5.9,35.1,5.9,35.1
			C5.9,35.1,5.9,35.1,5.9,35.1c0.1,3.1,2,5.8,4.8,6.8c0.1,0,0.2,0.1,0.3,0.1c0.1,0,0.2,0.1,0.3,0.1c0,0,0.1,0,0.1,0
			c0.1,0,0.2,0,0.2,0.1c0.3,0.1,0.5,0.1,0.8,0.1c0.1,0,0.2,0,0.3,0c0.1,0,0.3,0,0.4,0c0,0,0,0,0,0c1,0,2-0.2,2.9-0.6
			c0.4-0.2,0.8-0.4,1.1-0.6c0.4-0.3,0.8-0.6,1.1-0.9l6-6l3-3l4.2-4.2l3-3l6-6c0.3-0.3,0.7-0.7,0.9-1.1c0.2-0.3,0.4-0.7,0.6-1.1
			c0,0,0,0,0-0.1c0.4-0.9,0.6-1.8,0.6-2.8c0,0,0,0,0,0v0c0-0.1,0-0.2,0-0.4v0c0-0.1,0-0.2,0-0.3l0-0.1c0-0.1,0-0.2,0-0.3l-0.4-1.4
			c0-0.1-0.1-0.2-0.1-0.3l-0.4-0.8c0,0,0,0,0,0c-0.1-0.1-0.1-0.2-0.2-0.4c-0.1-0.1-0.2-0.3-0.3-0.4c-0.1-0.1-0.2-0.2-0.2-0.3
			c0,0,0-0.1-0.1-0.1c-0.1-0.1-0.2-0.2-0.3-0.3c-0.1-0.1-0.2-0.2-0.3-0.3c-0.1-0.1-0.2-0.2-0.3-0.2c-0.1,0-0.1-0.1-0.2-0.1
			c-0.1-0.1-0.2-0.1-0.2-0.2c0,0,0,0-0.1,0c-0.1-0.1-0.2-0.2-0.4-0.2c-0.2-0.1-0.4-0.2-0.6-0.3c-0.1-0.1-0.2-0.1-0.3-0.1
			c-0.1-0.1-0.2-0.1-0.3-0.1c0,0,0,0,0,0c0,0,0,0,0,0c-0.1,0-0.2-0.1-0.3-0.1c0,0,0,0,0,0c-0.1,0-0.1,0-0.2-0.1c0,0,0,0,0,0
			c0,0-0.1,0-0.1,0c0,0,0,0,0,0c0,0,0,0-0.1,0c-0.1,0-0.1,0-0.2-0.1c0,0-0.1,0-0.1,0c0,0,0,0-0.1,0c-0.2,0-0.4-0.1-0.7-0.1
			c-0.1,0-0.2,0-0.3,0c-0.1,0-0.3,0-0.4,0c0,0,0,0,0,0h0h-3.5h-0.9H17.4h-0.8h-3.5h0c0,0,0,0,0,0c0,0,0,0,0,0c-0.1,0-0.2,0-0.4,0
			c0,0,0,0,0,0c-0.1,0-0.2,0-0.3,0c0,0-0.1,0-0.1,0c-0.1,0-0.2,0-0.3,0c-0.5,0.1-1,0.2-1.4,0.4c-0.1,0-0.2,0.1-0.3,0.1
			C10,6.3,9.7,6.5,9.4,6.7C9.3,6.7,9.2,6.8,9.1,6.9C9,7,8.8,7,8.7,7.1C8.6,7.2,8.5,7.3,8.4,7.4c0,0-0.1,0.1-0.1,0.1
			C8.2,7.5,8.2,7.6,8.1,7.7C7.9,7.9,7.7,8.1,7.5,8.3C7.4,8.4,7.4,8.5,7.3,8.6C7.2,8.7,7.2,8.8,7.1,8.9C6.9,9.2,6.7,9.5,6.6,9.8
			c0,0.1-0.1,0.2-0.1,0.3c-0.1,0.1-0.1,0.2-0.1,0.3c0,0,0,0,0,0c0,0.1-0.1,0.2-0.1,0.3c0,0.1,0,0.2-0.1,0.2c0,0,0,0,0,0
			c0,0,0,0.1,0,0.1c0,0,0,0,0,0c0,0,0,0,0,0.1c0,0.1,0,0.1-0.1,0.2c0,0,0,0.1,0,0.1c0,0,0,0,0,0.1c0,0.2-0.1,0.4-0.1,0.7
			c0,0.1,0,0.2,0,0.3c0,0.1,0,0.3,0,0.4v0v0v3.5v0.9v13.5v0.9V35.1z"/>
		<line fill="none" stroke="#FFFFFF" stroke-width="0.25" stroke-miterlimit="10" x1="19" y1="44.8" x2="19.1" y2="44.8"/>
		<polyline fill="none" stroke="#FFFFFF" stroke-width="0.25" stroke-miterlimit="10" points="3.4,29.1 5.9,31.6 6.5,32.2 16,41.7 
			16.6,42.3 19,44.8 		"/>
		<path fill="none" stroke="#FFFFFF" stroke-width="0.25" stroke-miterlimit="10" d="M3.1,28.9c0.1,0.1,0.2,0.2,0.2,0.3"/>
		<path fill="none" stroke="#FFFFFF" stroke-width="0.25" stroke-miterlimit="10" d="M2.5,28C2.5,28,2.5,28,2.5,28
			c0.1,0.1,0.1,0.2,0.2,0.3"/>
		<path fill="none" stroke="#FFFFFF" stroke-width="0.25" stroke-miterlimit="10" d="M3.4,18.9C2,20.3,1.3,22.1,1.3,24
			c0,0.1,0,0.3,0,0.4c0,0,0,0,0,0c0,0.1,0,0.3,0,0.4c0,0,0,0,0,0c0,0.1,0,0.2,0.1,0.4c0,0.2,0.1,0.3,0.1,0.5
			c0.1,0.2,0.1,0.4,0.2,0.7c0,0.1,0.1,0.2,0.1,0.4c0,0.1,0.1,0.2,0.1,0.3C2,27.1,2,27.2,2,27.3c0,0,0,0.1,0,0.1c0,0,0,0,0,0"/>
		<path fill="none" stroke="#FFFFFF" stroke-width="0.25" stroke-miterlimit="10" d="M19.7,2.7c-0.1,0-0.1,0.1-0.2,0.1"/>
		<path fill="none" stroke="#FFFFFF" stroke-width="0.25" stroke-miterlimit="10" d="M20.2,2.3C20.2,2.3,20.1,2.3,20.2,2.3
			C20,2.4,20,2.4,19.9,2.5"/>
		<path fill="none" stroke="#FFFFFF" stroke-width="0.25" stroke-miterlimit="10" d="M20.6,2c-0.1,0-0.1,0.1-0.2,0.1"/>
		<path fill="none" stroke="#FFFFFF" stroke-width="0.25" stroke-miterlimit="10" d="M21.3,1.7c-0.1,0-0.1,0.1-0.2,0.1"/>
		<path fill="none" stroke="#FFFFFF" stroke-width="0.25" stroke-miterlimit="10" d="M22.4,1.3c-0.2,0.1-0.5,0.1-0.7,0.2
			c-0.1,0-0.2,0.1-0.2,0.1c-0.1,0-0.1,0.1-0.2,0.1"/>
		<path fill="none" stroke="#FFFFFF" stroke-width="0.25" stroke-miterlimit="10" d="M23.3,1.1c-0.1,0-0.2,0-0.3,0.1
			c0,0-0.1,0-0.1,0"/>
		<path fill="none" stroke="#FFFFFF" stroke-width="0.25" stroke-miterlimit="10" d="M23.7,1.1c-0.1,0-0.3,0-0.4,0"/>
		<path fill="none" stroke="#FFFFFF" stroke-width="0.25" stroke-miterlimit="10" d="M24.2,1.1c-0.1,0-0.3,0-0.4,0"/>
		<path fill="none" stroke="#FFFFFF" stroke-width="0.25" stroke-miterlimit="10" d="M27.5,1.9c-0.4-0.2-0.9-0.4-1.3-0.5"/>
		<path fill="none" stroke="#FFFFFF" stroke-width="0.25" stroke-miterlimit="10" d="M29,2.9c-0.4-0.3-0.8-0.6-1.2-0.9"/>
		<path fill="none" stroke="#FFFFFF" stroke-width="0.25" stroke-miterlimit="10" d="M29.3,44.8c0.7-0.7,1.3-1.6,1.6-2.5
			c0.2-0.4,0.3-0.8,0.4-1.2c0.1-0.5,0.2-1,0.2-1.5v-8.4V27v-6v-4.2V8.3v0c0-0.5-0.1-1-0.2-1.5c-0.1-0.4-0.2-0.8-0.4-1.2
			c-0.4-0.9-0.9-1.7-1.6-2.5"/>
		<path fill="none" stroke="#FFFFFF" stroke-width="0.25" stroke-miterlimit="10" d="M29,45c0.1-0.1,0.2-0.2,0.3-0.2"/>
		<path fill="none" stroke="#FFFFFF" stroke-width="0.25" stroke-miterlimit="10" d="M28.7,45.3C28.8,45.3,28.8,45.3,28.7,45.3"/>
		<path fill="none" stroke="#FFFFFF" stroke-width="0.25" stroke-miterlimit="10" d="M28.2,45.7c0.1-0.1,0.2-0.1,0.3-0.2"/>
		<path fill="none" stroke="#FFFFFF" stroke-width="0.25" stroke-miterlimit="10" d="M27.9,45.9c0.1,0,0.1-0.1,0.2-0.1"/>
		<path fill="none" stroke="#FFFFFF" stroke-width="0.25" stroke-miterlimit="10" d="M27.8,45.9C27.8,45.9,27.8,45.9,27.8,45.9"/>
		<path fill="none" stroke="#FFFFFF" stroke-width="0.25" stroke-miterlimit="10" d="M19.1,44.8c2.2,2.1,5.3,2.6,7.9,1.6
			c0.1,0,0.2-0.1,0.3-0.1c0.1,0,0.2-0.1,0.3-0.2"/>
		<path fill="none" stroke="#FFFFFF" stroke-width="0.25" stroke-miterlimit="10" d="M19,3.2l-2.5,2.5L16,6.3l-9.5,9.5l-0.6,0.6
			l-2.5,2.5c0,0,0,0,0,0l0,0c-2.2,2.3-2.7,5.8-1.3,8.5c0,0,0,0,0,0c0,0.1,0.1,0.1,0.1,0.2c0,0.1,0.1,0.1,0.1,0.2
			c0,0.1,0.1,0.1,0.1,0.2c0,0,0,0,0,0c0.1,0.1,0.1,0.2,0.2,0.2c0.1,0.1,0.1,0.2,0.2,0.3c0,0,0,0,0,0c0.1,0.1,0.1,0.2,0.2,0.3
			c0.1,0.1,0.2,0.2,0.2,0.3c0,0,0,0,0,0c0.7,0.7,1.6,1.3,2.5,1.6C6.2,30.9,6.6,31,7,31.1c0.5,0.1,1,0.2,1.5,0.2h8.4h4.2h6h4.2h8.4h0
			c0.5,0,1-0.1,1.5-0.2c0.4-0.1,0.8-0.2,1.2-0.4c0.9-0.4,1.7-0.9,2.5-1.6c0,0,0,0,0,0"/>
		<path fill="none" stroke="#FFFFFF" stroke-width="0.25" stroke-miterlimit="10" d="M19.3,3c-0.1,0.1-0.2,0.2-0.3,0.2"/>
		<path fill="none" stroke="#FFFFFF" stroke-width="0.25" stroke-miterlimit="10" d="M20.3,2.2c-0.1,0-0.2,0.1-0.2,0.1
			c-0.2,0.1-0.3,0.2-0.4,0.3"/>
		<path fill="none" stroke="#FFFFFF" stroke-width="0.25" stroke-miterlimit="10" d="M29.3,3.2C29.3,3.2,29.3,3.2,29.3,3.2L29.3,3.2
			C29.2,3.1,29.1,3,29,2.9c-0.4-0.3-0.8-0.6-1.2-0.9C27.7,2,27.6,2,27.5,1.9c-0.4-0.2-0.9-0.4-1.3-0.5c-0.7-0.2-1.4-0.3-2.1-0.3
			c-0.1,0-0.3,0-0.4,0c0,0,0,0,0,0c-0.1,0-0.3,0-0.4,0c0,0,0,0,0,0c-0.1,0-0.2,0-0.3,0.1c0,0-0.1,0-0.1,0c-0.1,0-0.3,0.1-0.4,0.1
			c-0.3,0.1-0.6,0.2-0.9,0.3c-0.1,0-0.1,0.1-0.2,0.1c0,0,0,0-0.1,0c-0.1,0-0.1,0.1-0.2,0.1c-0.1,0-0.2,0.1-0.2,0.1c0,0,0,0,0,0"/>
		<path fill="none" stroke="#FFFFFF" stroke-width="0.25" stroke-miterlimit="10" d="M45.5,19.5c0-0.1-0.1-0.1-0.1-0.2"/>
		<path fill="none" stroke="#FFFFFF" stroke-width="0.25" stroke-miterlimit="10" d="M46,20.2c0,0-0.1-0.1-0.1-0.1
			c0-0.1-0.1-0.1-0.1-0.1"/>
		<path fill="none" stroke="#FFFFFF" stroke-width="0.25" stroke-miterlimit="10" d="M46.2,20.6c0-0.1-0.1-0.1-0.1-0.2"/>
		<path fill="none" stroke="#FFFFFF" stroke-width="0.25" stroke-miterlimit="10" d="M46.5,21.1c0-0.1-0.1-0.1-0.1-0.2"/>
		<path fill="none" stroke="#FFFFFF" stroke-width="0.25" stroke-miterlimit="10" d="M46.9,22.2c-0.1-0.2-0.1-0.4-0.2-0.6
			c0-0.1-0.1-0.2-0.1-0.2c0-0.1-0.1-0.1-0.1-0.2"/>
		<path fill="none" stroke="#FFFFFF" stroke-width="0.25" stroke-miterlimit="10" d="M47,23.1c0-0.1,0-0.2,0-0.3c0-0.1,0-0.1,0-0.2"
			/>
		<path fill="none" stroke="#FFFFFF" stroke-width="0.25" stroke-miterlimit="10" d="M47.1,23.5c0-0.1,0-0.3,0-0.4"/>
		<path fill="none" stroke="#FFFFFF" stroke-width="0.25" stroke-miterlimit="10" d="M47.1,24c0-0.1,0-0.3,0-0.4"/>
		<path fill="none" stroke="#FFFFFF" stroke-width="0.25" stroke-miterlimit="10" d="M46.3,27.4c0.2-0.4,0.4-0.9,0.5-1.3"/>
		<path fill="none" stroke="#FFFFFF" stroke-width="0.25" stroke-miterlimit="10" d="M45.2,28.8c0.3-0.4,0.6-0.8,0.9-1.2"/>
		<path fill="none" stroke="#FFFFFF" stroke-width="0.25" stroke-miterlimit="10" d="M29.3,3.2c-2.3-2.2-5.8-2.7-8.5-1.3
			c0,0,0,0,0,0C20.7,2,20.6,2,20.6,2c-0.1,0-0.1,0.1-0.2,0.1c0,0,0,0-0.1,0c-0.1,0-0.1,0.1-0.2,0.1c-0.1,0.1-0.2,0.1-0.3,0.2
			c-0.1,0.1-0.1,0.1-0.2,0.2c0,0,0,0,0,0c-0.1,0-0.1,0.1-0.2,0.1c-0.1,0.1-0.1,0.1-0.2,0.2c-0.1,0.1-0.2,0.2-0.3,0.2c0,0,0,0,0,0
			c-0.7,0.7-1.3,1.6-1.6,2.5c-0.2,0.4-0.3,0.8-0.3,1.2c-0.1,0.5-0.2,1-0.2,1.5v8.4V21v6v4.2v8.4c0,0.5,0.1,1,0.2,1.5
			c0.1,0.4,0.2,0.8,0.4,1.2c0,0,0,0.1,0,0.1c0.4,0.9,0.9,1.7,1.6,2.4l0,0l0,0l0,0c1.4,1.4,3.3,2.1,5.1,2.1c0,0,0,0,0,0
			c0.1,0,0.3,0,0.4,0h0c0.1,0,0.3,0,0.4,0c0,0,0,0,0,0c0.1,0,0.2,0,0.3-0.1c0,0,0.1,0,0.1,0c0.1,0,0.2,0,0.4-0.1
			c0.2-0.1,0.4-0.1,0.7-0.2c0.1,0,0.2-0.1,0.2-0.1c0,0,0.1,0,0.1,0c0,0,0.1,0,0.1-0.1c0.1,0,0.1-0.1,0.2-0.1c0,0,0,0,0.1,0
			c0.1,0,0.2-0.1,0.2-0.1c0,0,0,0,0,0c0.1,0,0.1-0.1,0.2-0.1c0,0,0,0,0.1,0c0,0,0.1,0,0.1-0.1c0.1,0,0.1-0.1,0.2-0.1
			c0,0,0.1,0,0.1-0.1c0.1-0.1,0.2-0.1,0.3-0.2c0.1-0.1,0.2-0.1,0.3-0.2c0,0,0,0,0,0c0.1-0.1,0.2-0.1,0.3-0.2
			c0.1-0.1,0.2-0.2,0.3-0.2c0,0,0,0,0,0l2.5-2.5l0.6-0.6l9.5-9.5l0.6-0.6l2.5-2.5c0,0,0,0,0,0v0c0.1-0.1,0.2-0.2,0.3-0.3
			c0.3-0.4,0.6-0.8,0.9-1.2c0.1-0.1,0.1-0.2,0.2-0.3c0.2-0.4,0.4-0.9,0.5-1.3c0.2-0.7,0.3-1.4,0.3-2.1c0-0.1,0-0.3,0-0.4
			c0,0,0,0,0,0c0-0.1,0-0.3,0-0.4c0,0,0,0,0,0c0-0.1,0-0.2,0-0.3c0-0.1,0-0.1,0-0.2c0-0.1-0.1-0.3-0.1-0.4c-0.1-0.3-0.2-0.6-0.3-0.8
			c0-0.1-0.1-0.1-0.1-0.2c0,0,0,0,0-0.1c0-0.1-0.1-0.1-0.1-0.2c0-0.1-0.1-0.2-0.1-0.2c0,0,0,0,0,0c0-0.1-0.1-0.2-0.1-0.2
			c0-0.1-0.1-0.1-0.1-0.2c0,0-0.1-0.1-0.1-0.1c0-0.1-0.1-0.1-0.1-0.1c-0.1-0.1-0.1-0.2-0.2-0.2c-0.1-0.1-0.1-0.2-0.2-0.2
			c0-0.1-0.1-0.1-0.1-0.2c-0.1-0.1-0.1-0.1-0.2-0.2C45.1,19,45,19,45,18.9l0,0l0,0l-2.5-2.5l-0.6-0.6l-9.5-9.5l-0.6-0.6L29.3,3.2
			C29.3,3.2,29.3,3.2,29.3,3.2z"/>
	</g>
</g>
<g id="XMLID_8546_">
	<g id="XMLID_9022_">
		<path fill="#FFFFFF" d="M31.4,8.3v8.4h-4.2h0l-3-3l6-6c0.3-0.3,0.7-0.7,1.1-0.9C31.4,7.3,31.4,7.8,31.4,8.3L31.4,8.3z"/>
		<path fill="#FFFFFF" d="M21.2,31.2l3,3l-6,6c-0.3,0.3-0.7,0.7-1.1,0.9c-0.1-0.5-0.2-1-0.2-1.5v-8.4H21.2z"/>
	</g>
	<g id="XMLID_9021_">
	</g>
</g>
</svg>
