<?xml version="1.0" encoding="utf-8"?>
<!-- Generator: Adobe Illustrator 19.2.1, SVG Export Plug-In . SVG Version: 6.00 Build 0)  -->
<svg version="1.1" id="Layer_1" xmlns="http://www.w3.org/2000/svg" xmlns:xlink="http://www.w3.org/1999/xlink" x="0px" y="0px"
	 viewBox="0 0 642 627.3" style="enable-background:new 0 0 642 627.3;" xml:space="preserve">
<style type="text/css">
	.st0{fill:#FFFFFF;}
	.st1{opacity:0.2;}
	.st2{opacity:0.8;}
	.st3{fill:none;stroke:#FFFFFF;stroke-width:5;stroke-miterlimit:10;}
</style>
<g id="XMLID_7554_">
	<g id="XMLID_2528_">
		<g id="XMLID_2459_">
			<path class="st0" d="M563,402.9c11.9-4.7,23-11.8,32.6-21.4L563,414.2V402.9z"/>
			<path class="st0" d="M563,460.3c0,0,0,0.1,0,0.1c0,1.9,0,3.7-0.2,5.5c0,1.2-0.1,2.4-0.3,3.6c-0.3,3.1-0.7,6.1-1.3,9
				c0,0.2-0.1,0.4-0.1,0.7c-0.1,0.4-0.2,0.9-0.3,1.3c-0.2,1-0.4,2-0.7,2.9c-0.1,0.3-0.2,0.6-0.2,0.9c-0.1,0.4-0.2,0.7-0.3,1
				c0,0.2-0.1,0.3-0.1,0.5c-0.3,1-0.5,2-0.8,2.9c-0.5,1.5-1,3-1.5,4.4c-13.4,36.4-48.6,62.2-90,63c0,0,0,0-0.1,0c0,0-0.1,0-0.1,0
				c-13.2,0-25.8-2.7-37.2-7.5c-0.3-0.1-0.6-0.3-0.9-0.4L555,422.2C560.1,433.9,563,446.7,563,460.3z"/>
			<path class="st0" d="M563,414.2v46.1c0-13.6-2.8-26.4-8-38.1L563,414.2z"/>
			<path class="st0" d="M563,402.9v11.3l-8,8c-2.2-5.1-4.8-10-7.8-14.6C552.5,406.5,557.8,405,563,402.9z"/>
			<path class="st0" d="M555,422.2L428.8,548.4c-5.1-2.2-10-4.9-14.5-7.9c1.3-6.3,2-12.8,2-19.3V409.6h111.6h0
				c6.5,0,12.9-0.7,19.3-2C550.2,412.2,552.8,417.1,555,422.2z"/>
			<path class="st0" d="M467,556.3h-46.1l7.9-7.9c0.3,0.1,0.6,0.3,0.9,0.4C441.2,553.6,453.7,556.3,467,556.3z"/>
			<path class="st0" d="M428.8,548.4l-7.9,7.9h-11.3c2-5.1,3.6-10.4,4.7-15.8C418.8,543.5,423.7,546.1,428.8,548.4z"/>
			<path class="st0" d="M416.2,409.6v111.6c0,6.5-0.7,12.9-2,19.3c-5.4-3.6-10.4-7.7-15-12.3l-78.9-78.9l39.7-39.7H416.2z"/>
			<path class="st0" d="M414.2,540.5c-1.1,5.4-2.6,10.7-4.7,15.8H231.1c-2-5.1-3.6-10.5-4.7-15.8c5.4-3.5,10.4-7.7,15-12.2l79-79
				l78.9,78.9C403.8,532.8,408.8,536.9,414.2,540.5z"/>
			<path class="st0" d="M356.7,609.9c-34.5,14-75.4,6.7-104.1-20.8l0,0l0,0l0,0c-9.4-9.4-16.3-20.2-21-31.7c-0.1-0.3-0.3-0.7-0.4-1
				h178.5c-4.7,11.9-11.8,23-21.4,32.6c0,0,0,0-0.1,0.1c-1.1,1.1-2.2,2.1-3.3,3.1c-1.2,1.1-2.3,2-3.5,3c-0.2,0.1-0.3,0.3-0.5,0.4
				c-1.2,1-2.5,2-3.8,3c-1.1,0.8-2.2,1.6-3.3,2.3c-0.4,0.4-0.9,0.7-1.4,0.9c-0.8,0.5-1.5,1-2.3,1.5c-0.4,0.3-0.8,0.5-1.3,0.8
				c-0.2,0.1-0.4,0.3-0.7,0.4c-1,0.6-2,1.1-2.9,1.6c-1.4,0.7-2.8,1.4-4.2,2C359.5,608.7,358.1,609.3,356.7,609.9z"/>
			<path class="st0" d="M320.4,449.3l-79,79c-4.6,4.6-9.6,8.7-15,12.2c-1.3-6.4-2-12.9-2-19.3V409.6h56.2L320.4,449.3z"/>
			<path class="st0" d="M231.4,557.3c4.7,11.5,11.7,22.3,21,31.7l-32.6-32.6h11.3C231.2,556.6,231.3,557,231.4,557.3z"/>
			<path class="st0" d="M231.1,556.3h-11.3l-8-8c5.1-2.2,10-4.8,14.6-7.8C227.5,545.8,229,551.2,231.1,556.3z"/>
			<path class="st0" d="M224.4,521.1c0,6.5,0.7,12.9,2,19.3c-4.6,3-9.5,5.7-14.6,7.8L85.6,422.1c2.2-5.1,4.9-10,7.9-14.5
				c6.3,1.3,12.8,2,19.2,2h111.6V521.1z"/>
			<path class="st0" d="M219.8,556.3h-46.1c13.6,0,26.4-2.8,38.1-8L219.8,556.3z"/>
			<path class="st0" d="M211.8,548.3c-11.7,5.1-24.6,8-38.1,8c0,0-0.1,0-0.1,0c-1.9,0-3.7,0-5.5-0.2c-1.2,0-2.4-0.1-3.6-0.3
				c-3.7-0.4-7.4-0.9-10.9-1.7c-1.1-0.2-2.2-0.5-3.3-0.8c-0.4-0.1-0.8-0.2-1.2-0.3c-1.3-0.4-2.6-0.7-3.9-1.1c-1.5-0.5-3-1-4.4-1.5
				c-36.4-13.4-62.2-48.7-63-90c0,0,0,0,0-0.1c0,0,0-0.1,0-0.1c0-13.2,2.7-25.8,7.5-37.2c0.1-0.3,0.3-0.6,0.4-0.9L211.8,548.3z"/>
			<path class="st0" d="M93.6,407.6c-3.1,4.6-5.7,9.4-7.9,14.5l-7.9-7.9v-11.3C82.8,405,88.1,406.5,93.6,407.6z"/>
			<path class="st0" d="M85.6,422.1c-0.1,0.3-0.3,0.6-0.4,0.9c-4.9,11.4-7.5,24-7.5,37.2v-46.1L85.6,422.1z"/>
			<path class="st0" d="M77.7,414.2l-32.6-32.6c9.6,9.6,20.7,16.7,32.6,21.4V414.2z"/>
		</g>
		<g id="XMLID_2460_">
		</g>
	</g>
	<g id="XMLID_2505_" class="st1">
		<g id="XMLID_2519_">
			<path class="st0" d="M612.8,269.1c18.8,36,12.6,81.3-17.1,112.4c0,0,0,0-0.1,0.1c-9.6,9.6-20.7,16.7-32.6,21.4V224.4
				c11.9,4.7,23.1,11.8,32.6,21.4l0,0l0,0c1.1,1.1,2.1,2.2,3.1,3.3c0.3,0.3,0.5,0.5,0.7,0.8c0.6,0.6,1.1,1.2,1.6,1.9
				c0.2,0.3,0.4,0.5,0.7,0.8c0.1,0.2,0.3,0.3,0.4,0.5c1.1,1.3,2,2.5,3,3.9c0.9,1.2,1.8,2.5,2.7,3.8c0.2,0.2,0.4,0.5,0.5,0.8
				c0.6,0.9,1.2,1.8,1.7,2.7c0.4,0.5,0.7,1.1,1,1.6c0.6,0.9,1.1,1.9,1.6,2.9C612.7,269,612.8,269,612.8,269.1z"/>
			<path class="st0" d="M563,224.4v178.5c-5.1,2-10.5,3.6-15.8,4.7c-3.6-5.4-7.7-10.4-12.2-15l-79-79l78.9-78.9
				c4.6-4.6,8.7-9.6,12.2-15C552.5,220.8,557.9,222.4,563,224.4z"/>
			<path class="st0" d="M534.9,392.6c4.5,4.6,8.6,9.6,12.2,15c-6.4,1.3-12.9,2-19.3,2h0H416.3v-56.2l39.7-39.7L534.9,392.6z"/>
			<polygon class="st0" points="416.3,353.4 416.3,409.6 360.1,409.6 			"/>
			<polygon class="st0" points="280.7,409.6 224.4,409.6 224.4,353.4 			"/>
			<path class="st0" d="M224.4,353.4v56.2H112.8c-6.5,0-12.9-0.7-19.3-2c3.6-5.4,7.7-10.5,12.3-15l78.9-78.9L224.4,353.4z"/>
			<path class="st0" d="M105.8,234.7l79,79l-78.9,78.9c-4.6,4.5-8.7,9.6-12.3,15c-5.4-1.1-10.7-2.6-15.8-4.7V224.4
				c5.1-2,10.5-3.6,15.8-4.7C97.1,225.2,101.2,230.2,105.8,234.7z"/>
			<path class="st0" d="M77.7,224.4v178.5c-11.9-4.7-23-11.8-32.6-21.4c0,0,0,0-0.1-0.1c-1.1-1.1-2.1-2.2-3.1-3.3
				c-1.1-1.2-2-2.3-3-3.5c-0.1-0.2-0.3-0.3-0.4-0.5c-1-1.2-2-2.5-3-3.8c-0.8-1.1-1.6-2.2-2.3-3.3c-0.1-0.2-0.3-0.4-0.4-0.6
				c-0.6-0.9-1.2-1.9-1.8-2.8c-0.5-0.8-1-1.6-1.4-2.3c-0.5-1-1.1-2-1.6-2.9c0-0.1-0.1-0.1-0.1-0.2c-18.8-36-12.7-81.3,17.1-112.3
				l0,0c0,0,0.1-0.1,0.1-0.1c9.4-9.3,20.2-16.3,31.7-21C77,224.6,77.4,224.5,77.7,224.4z"/>
		</g>
		<g id="XMLID_2518_">
		</g>
	</g>
	<g id="XMLID_2326_" class="st2">
		<g id="XMLID_2136_">
			<path class="st0" d="M601.2,251.8c-0.5-0.6-1.1-1.2-1.6-1.9C600.1,250.6,600.7,251.2,601.2,251.8z"/>
			<path class="st0" d="M428.8,79L555,205.2c-2.2,5.1-4.9,10-7.9,14.5c-6.3-1.3-12.8-2-19.2-2H416.2V106.1v0c0-6.5-0.7-12.9-2-19.3
				C418.9,83.8,423.7,81.1,428.8,79z"/>
			<path class="st0" d="M527.9,217.7c6.5,0,12.9,0.7,19.2,2c-3.5,5.4-7.7,10.4-12.2,15L456,313.6l-39.7-39.7v-56.2H527.9z"/>
			<path class="st0" d="M467.1,71c1.9,0,3.7,0,5.5,0.2c1.2,0,2.4,0.1,3.6,0.3c3.7,0.4,7.4,0.9,10.9,1.7c1.1,0.2,2.2,0.5,3.3,0.8
				c0.4,0.1,0.8,0.2,1.2,0.3c1.3,0.4,2.6,0.7,3.9,1.1c1.5,0.5,3,1,4.4,1.5c36.5,13.4,62.2,48.7,63,90v0c0,0,0,0.1,0,0.1
				c0,13.2-2.7,25.8-7.5,37.2c-0.1,0.3-0.3,0.6-0.4,0.9L428.8,79c11.7-5.1,24.6-8,38.1-8H467.1C467,71,467,71,467.1,71z"/>
			<polygon class="st0" points="456,313.6 416.2,353.3 416.2,273.9 			"/>
			<polygon class="st0" points="416.2,273.9 416.2,353.3 360.1,409.5 280.6,409.5 224.4,353.4 224.4,273.9 280.6,217.7 360,217.7 
							"/>
			<polygon class="st0" points="416.2,217.7 416.2,273.9 360,217.7 			"/>
			<path class="st0" d="M416.2,106.1v111.6H360L320.3,178l79-79c4.6-4.6,9.6-8.7,15-12.2C415.6,93.2,416.2,99.6,416.2,106.1
				L416.2,106.1z"/>
			<polygon class="st0" points="360.1,409.5 320.3,449.3 280.6,409.5 			"/>
			<polygon class="st0" points="320.3,178 360,217.7 280.6,217.7 			"/>
			<path class="st0" d="M241.4,99.1l78.9,78.9l-39.7,39.7h-56.2V106.1c0-6.5,0.7-12.9,2-19.3C231.8,90.4,236.8,94.5,241.4,99.1z"/>
			<polygon class="st0" points="280.6,217.7 224.4,273.9 224.4,217.7 			"/>
			<path class="st0" d="M226.4,86.8c-1.3,6.3-2,12.8-2,19.3v111.6H112.8c-6.5,0-12.9,0.7-19.3,2c-3-4.6-5.7-9.5-7.8-14.6L211.9,78.9
				C217,81.1,221.8,83.8,226.4,86.8z"/>
			<polygon class="st0" points="224.4,273.9 224.4,353.4 184.7,313.7 			"/>
			<path class="st0" d="M224.4,217.7v56.2l-39.7,39.7l-79-79c-4.6-4.6-8.7-9.6-12.2-15c6.4-1.3,12.9-2,19.3-2H224.4z"/>
			<path class="st0" d="M173.5,71C173.6,71,173.6,71,173.5,71c0.1,0,0.1,0,0.1,0h0c13.2,0,25.8,2.7,37.2,7.5
				c0.3,0.1,0.6,0.3,0.9,0.4L85.7,205.1c-5.1-11.7-8-24.6-8-38.1v0v-0.1c0-1.9,0-3.7,0.2-5.5c0-1.2,0.1-2.4,0.3-3.6
				c0.3-3.1,0.7-6.1,1.3-9c0-0.2,0.1-0.4,0.1-0.7c0.1-0.4,0.2-0.9,0.3-1.3c0.3-1.2,0.5-2.4,0.8-3.6c0,0,0-0.1,0-0.2
				c0.1-0.4,0.2-0.7,0.3-1c0-0.2,0.1-0.3,0.1-0.5c0.2-1,0.5-2,0.8-2.9c0.5-1.5,1-3,1.5-4.4C97,97.5,132.2,71.8,173.5,71z"/>
		</g>
		<g id="XMLID_2137_">
			<path class="st3" d="M500.1,76.8c-0.2,0-0.4-0.1-0.5-0.2"/>
			<path class="st3" d="M508.7,80.4c-1.3-0.6-2.7-1.2-4.1-1.8"/>
			<path class="st3" d="M521.7,88.1c-1.6-1.1-3.2-2.2-4.9-3.2"/>
			<path class="st3" d="M527.8,92.6c-0.7-0.6-1.4-1.2-2.1-1.6c-1.1-0.9-2.2-1.7-3.3-2.5"/>
			<path class="st3" d="M539.4,103.9c-1.2-1.4-2.4-2.7-3.7-4c-0.4-0.4-0.7-0.7-1-1c-1-1.1-2-2-3.1-3"/>
			<path class="st3" d="M547,113.9c-1-1.5-2-2.9-3.1-4.3"/>
			<path class="st3" d="M555.3,129.2c-0.6-1.3-1.2-2.6-1.8-3.9c-0.7-1.4-1.4-2.7-2.1-4.1c-0.6-1.1-1.2-2.1-1.8-3.2
				c-0.7-1.2-1.4-2.3-2.2-3.5"/>
			<path class="st3" d="M557.2,133.9c-0.5-1.3-1-2.6-1.5-3.9"/>
			<path class="st3" d="M562.4,156.5c-0.1-1.3-0.3-2.6-0.5-3.9"/>
			<path class="st3" d="M562.8,161.9c0-1.4-0.2-2.7-0.3-4.1"/>
			<path class="st3" d="M563,166.8c0-1.6,0-3.2-0.1-4.8"/>
			<path class="st3" d="M562.5,469.5c0.1-1.2,0.2-2.4,0.3-3.6"/>
			<path class="st3" d="M560.1,483.8c0.3-1.1,0.5-2.2,0.8-3.3"/>
			<path class="st3" d="M557.2,493.4c0,0,0-0.1,0-0.1c0.1-0.1,0.1-0.2,0.2-0.4"/>
			<path class="st3" d="M553.5,502c0.7-1.3,1.2-2.7,1.8-4.1"/>
			<path class="st3" d="M541.3,521.1c0.9-1.1,1.8-2.2,2.6-3.4c0.9-1.2,1.8-2.4,2.7-3.7"/>
			<path class="st3" d="M528.7,533.9c0.6-0.5,1.2-1,1.7-1.5c1-0.8,2-1.7,2.9-2.6"/>
			<path class="st3" d="M504.7,548.6c2.8-1.2,5.5-2.4,8.1-3.9c0.7-0.4,1.4-0.7,2-1.1c0.5-0.3,1.1-0.6,1.6-1"/>
			<path class="st3" d="M500,550.5c1.3-0.4,2.6-1,3.9-1.5"/>
			<path class="st3" d="M477.5,555.7c1.3-0.1,2.6-0.3,3.9-0.5"/>
			<path class="st3" d="M472,556.1c1.4,0,2.7-0.2,4.1-0.3"/>
			<path class="st3" d="M467.2,556.3c1.6,0,3.2,0,4.7-0.1"/>
			<path class="st3" d="M77.7,167c0,13.6,2.8,26.4,8,38.1c2.2,5.1,4.8,10,7.8,14.6c3.5,5.4,7.7,10.4,12.2,15l79,79l39.7,39.7
				l56.2,56.2l39.7,39.7l78.9,78.9c4.5,4.6,9.6,8.7,15,12.2c4.6,3.1,9.4,5.7,14.5,7.9c0.3,0.1,0.6,0.3,0.9,0.4
				c11.4,4.9,24,7.5,37.2,7.5"/>
			<path class="st3" d="M79.5,148.1c0,0.2-0.1,0.4-0.1,0.7"/>
			<path class="st3" d="M80.6,143.1c-0.3,1.2-0.6,2.4-0.8,3.6"/>
			<path class="st3" d="M81.1,141.4c0,0.2-0.1,0.3-0.1,0.5"/>
			<path class="st3" d="M173.5,71c-41.3,0.8-76.6,26.6-90,63c-0.5,1.5-1,2.9-1.5,4.4"/>
			<polyline class="st3" points="563,460.3 563,414.2 563,402.9 563,224.4 563,213.1 563,167 			"/>
			<path class="st3" d="M467.2,556.3c1.6,0,3.2,0,4.7-0.1c0,0,0.1,0,0.1,0c1.4-0.1,2.7-0.2,4.1-0.3c0.4,0,0.9-0.1,1.3-0.1
				c1.3-0.1,2.6-0.3,3.9-0.5c6.5-1,12.7-2.6,18.7-4.7c1.3-0.5,2.6-1,3.9-1.5c0.3-0.1,0.5-0.2,0.8-0.4c2.7-1.2,5.5-2.5,8.1-3.9
				c1.2-0.7,2.5-1.4,3.7-2.1c4.3-2.6,8.4-5.5,12.2-8.7c0.6-0.5,1.2-1,1.7-1.5c1-0.8,2-1.7,2.9-2.6c2.9-2.7,5.5-5.6,8-8.6
				c0.9-1.1,1.8-2.2,2.6-3.4c0.9-1.2,1.8-2.5,2.7-3.7c2.6-3.9,4.9-7.9,7-12.1c0.6-1.3,1.2-2.7,1.8-4.1c0.7-1.5,1.2-3,1.8-4.5
				c0-0.2,0.1-0.4,0.2-0.5c0.5-1.3,0.9-2.7,1.3-4.1c0.4-1.3,0.8-2.6,1.1-3.9"/>
			<path class="st3" d="M164.4,555.8c1.2,0.1,2.4,0.2,3.6,0.3"/>
			<path class="st3" d="M150.5,553.5c1,0.3,2,0.5,2.9,0.7"/>
			<path class="st3" d="M145.1,552C145.1,552,145.1,552,145.1,552"/>
			<path class="st3" d="M140.6,550.5c0,0,0.1,0,0.1,0c0.1,0.1,0.3,0.1,0.4,0.2"/>
			<path class="st3" d="M132,546.8c1.3,0.6,2.7,1.2,4.1,1.8"/>
			<path class="st3" d="M112.8,534.6c1.1,0.9,2.2,1.8,3.4,2.6c1.2,0.9,2.4,1.8,3.7,2.7"/>
			<path class="st3" d="M90.8,508.7c0.9,1.6,1.9,3.1,2.8,4.6c1.1,1.7,2.3,3.4,3.5,5c1,1.3,2,2.6,3.1,3.9c0.4,0.5,0.9,1.1,1.4,1.6
				c0.8,1,1.7,2,2.6,2.9"/>
			<path class="st3" d="M83.5,493.3c0.5,1.3,1,2.6,1.5,3.9"/>
			<path class="st3" d="M78.3,470.8c0.1,1.3,0.3,2.6,0.5,3.9"/>
			<path class="st3" d="M77.8,465.4c0,1.4,0.2,2.7,0.3,4.1"/>
			<path class="st3" d="M77.7,460.5c0,1.6,0,3.2,0.1,4.7"/>
			<path class="st3" d="M467,71c-13.6,0-26.4,2.8-38.1,8c-5.1,2.2-10,4.8-14.6,7.8c-5.4,3.5-10.4,7.7-15,12.2l-79,79l-39.7,39.7
				l-56.2,56.2l-39.7,39.7l-78.9,78.9c-4.6,4.5-8.7,9.6-12.3,15c-3,4.6-5.7,9.4-7.9,14.5c-0.1,0.3-0.3,0.6-0.4,0.9
				c-4.8,11.4-7.5,24-7.5,37.2"/>
			<path class="st3" d="M476.2,71.4c-1.2-0.1-2.4-0.2-3.6-0.3"/>
			<path class="st3" d="M490.4,73.9c-1.1-0.3-2.2-0.5-3.3-0.8"/>
			<path class="st3" d="M563,166.8c-0.8-41.4-26.6-76.6-63-90c-1.5-0.5-2.9-1-4.4-1.5c-1.3-0.4-2.6-0.8-3.9-1.1"/>
			<path class="st3" d="M355.3,610.5c1.1-0.4,2.2-0.8,3.2-1.3c1.1-0.4,2.2-0.9,3.2-1.5"/>
			<path class="st3" d="M343.2,614.4c3-0.8,5.9-1.6,8.9-2.7"/>
			<path class="st3" d="M331.9,616.4c1.6-0.2,3.1-0.4,4.6-0.7c0.6,0,1.2-0.2,1.8-0.3"/>
			<path class="st3" d="M326.2,616.9c1.9-0.1,3.7-0.3,5.6-0.5"/>
			<path class="st3" d="M321,617.1c1.7,0,3.4-0.1,5.1-0.2"/>
			<path class="st3" d="M38.4,374.2c0.1,0.2,0.3,0.3,0.4,0.5"/>
			<path class="st3" d="M29.6,361.4c0.4,0.8,0.9,1.6,1.4,2.3"/>
			<path class="st3" d="M24.1,350.2c0.5,1.3,1.1,2.6,1.6,3.8c0.5,1,0.9,2,1.5,3"/>
			<path class="st3" d="M19.6,336.5c0.8,3,1.6,5.9,2.7,8.9"/>
			<path class="st3" d="M17.6,325.2c0.2,1.6,0.4,3.2,0.7,4.8"/>
			<path class="st3" d="M17,319.5c0.1,1.9,0.3,3.7,0.5,5.6"/>
			<path class="st3" d="M16.9,313.7c0,1.9,0,3.8,0.2,5.8"/>
			<path class="st3" d="M595.6,245.7c-9.6-9.6-20.7-16.7-32.6-21.4c-5.1-2-10.5-3.6-15.9-4.7c-6.3-1.3-12.8-2-19.2-2H416.2H360
				h-79.4h-56.2H112.8c-6.5,0-12.9,0.7-19.3,2c-5.4,1.1-10.7,2.6-15.8,4.7c-0.3,0.1-0.7,0.2-1,0.4c-11.5,4.7-22.3,11.7-31.7,21"/>
			<path class="st3" d="M598.8,249.2c-1-1.1-2-2.2-3.1-3.3"/>
			<path class="st3" d="M595.7,381.4c29.7-31,35.9-76.4,17.1-112.4c0-0.1-0.1-0.1-0.1-0.2"/>
			<path class="st3" d="M173.7,556.3h46.1h11.3h178.5h11.3H467c0,0,0.1,0,0.1,0s0,0,0.1,0c41.4-0.9,76.6-26.6,90-63
				c0.5-1.5,1-2.9,1.5-4.4c0.4-1.3,0.8-2.6,1.1-3.9c0.1-0.4,0.2-0.8,0.3-1.2c0.3-1.1,0.5-2.2,0.8-3.3c0.8-3.5,1.3-7.2,1.7-10.9
				c0.1-1.2,0.2-2.4,0.3-3.6c0.1-1.8,0.2-3.6,0.2-5.5c0,0,0-0.1,0-0.1c0-13.6-2.8-26.4-8-38.1c-2.2-5.1-4.8-10-7.8-14.6
				c-3.6-5.4-7.7-10.4-12.2-15l-79-79l-39.7-39.7L360,217.7L320.3,178l-78.9-78.9c-4.6-4.6-9.6-8.7-15-12.3c-4.6-3-9.4-5.7-14.5-7.9
				c-0.3-0.1-0.6-0.3-0.9-0.4c-11.4-4.8-24-7.5-37.2-7.5"/>
			<path class="st3" d="M154.8,554.4c0.2,0,0.4,0.1,0.7,0.1"/>
			<path class="st3" d="M77.7,460.5c0,1.6,0,3.2,0.1,4.7c0,0,0,0.1,0,0.1c0.1,1.4,0.2,2.7,0.3,4.1c0,0.4,0.1,0.9,0.1,1.3
				c0.1,1.3,0.3,2.6,0.5,3.9c1,6.5,2.6,12.7,4.7,18.7c0.5,1.3,1,2.6,1.5,3.9c1.6,4,3.6,7.8,5.8,11.5c0.9,1.6,1.8,3.1,2.8,4.6
				c1.1,1.7,2.3,3.4,3.5,5c1,1.3,2,2.6,3.1,3.9c0.4,0.5,0.9,1.1,1.4,1.6c0.8,1,1.7,2,2.6,2.9c2.7,2.9,5.6,5.5,8.6,8
				c1.1,0.9,2.2,1.8,3.4,2.6c1.2,0.9,2.5,1.8,3.7,2.7c3.9,2.6,7.9,4.9,12.1,7c1.3,0.6,2.7,1.2,4.1,1.8c1.5,0.7,3,1.2,4.5,1.8
				c0.2,0,0.4,0.1,0.5,0.2c1.3,0.5,2.6,0.9,3.9,1.3c1,0.3,2,0.6,3,0.8c0.2,0.1,0.4,0.1,0.5,0.1c0.4,0.1,0.7,0.2,1,0.3"/>
			<path class="st3" d="M78.1,157.7c-0.1,1.2-0.2,2.4-0.3,3.6"/>
			<path class="st3" d="M80.5,143.8c-0.3,1-0.5,2-0.7,2.9"/>
			<path class="st3" d="M81,141.9c-0.1,0.3-0.2,0.7-0.3,1"/>
			<path class="st3" d="M82,138.4C82,138.4,82,138.4,82,138.4c-0.3,1.1-0.6,2-0.8,3"/>
			<path class="st3" d="M83.5,133.9c0,0,0,0.1,0,0.1c-0.1,0.1-0.1,0.3-0.2,0.4"/>
			<path class="st3" d="M87.1,125.3c-0.6,1.3-1.2,2.7-1.8,4.1"/>
			<path class="st3" d="M94.7,112.3c-1.2,1.6-2.2,3.2-3.2,4.9"/>
			<path class="st3" d="M99.3,106.2c-0.6,0.7-1.1,1.4-1.6,2.1c-0.9,1.1-1.7,2.2-2.5,3.3"/>
			<path class="st3" d="M110.6,94.6c-1.4,1.2-2.7,2.4-4,3.7c-0.3,0.3-0.6,0.6-0.8,0.8c-1.1,1.1-2.1,2.2-3.2,3.3"/>
			<path class="st3" d="M125.6,83.9c-1.7,0.9-3.3,2-4.9,3c-1.7,1.1-3.4,2.3-5,3.5c-1.4,1-2.7,2.1-4,3.2"/>
			<path class="st3" d="M140.6,76.8c-1.3,0.5-2.6,1-3.9,1.5"/>
			<path class="st3" d="M163.2,71.6c-1.3,0.1-2.6,0.3-3.9,0.5"/>
			<path class="st3" d="M168.6,71.1c-1.4,0-2.7,0.2-4.1,0.3"/>
			<line class="st3" x1="173.5" y1="71" x2="168.7" y2="71.1"/>
			<path class="st3" d="M77.7,460.3c0,0,0,0.1,0,0.1c0,0,0,0,0,0.1c0.9,41.3,26.6,76.6,63,90c1.5,0.5,2.9,1,4.4,1.5
				c1,0.3,2,0.6,2.9,0.8c0.2,0,0.3,0.1,0.5,0.1c0.4,0.1,0.7,0.2,1,0.3c0.3,0,0.6,0.1,0.9,0.2c1,0.2,2,0.4,2.9,0.7
				c0.4,0.1,0.9,0.2,1.3,0.3c0.2,0,0.4,0.1,0.7,0.1c2.9,0.6,5.9,1,9,1.3c1.2,0.1,2.4,0.2,3.6,0.3c1.8,0.1,3.6,0.2,5.5,0.2
				c0,0,0.1,0,0.1,0c13.6,0,26.4-2.8,38.1-8c5.1-2.2,10-4.8,14.6-7.8c5.4-3.6,10.4-7.7,15-12.2l79-79l39.7-39.7l56.2-56.2l39.7-39.7
				l78.9-78.9c4.6-4.6,8.7-9.6,12.2-15c3.1-4.6,5.7-9.4,7.9-14.5c0.1-0.3,0.3-0.6,0.4-0.9c4.9-11.4,7.5-24,7.5-37.2c0,0,0-0.1,0-0.1
				v0c0-1.6,0-3.2-0.1-4.8v-0.1c0-1.4-0.2-2.7-0.3-4.1l-0.1-1.3c-0.1-1.3-0.3-2.6-0.5-3.9l-4.7-18.7c-0.4-1.3-1-2.6-1.5-3.9
				l-0.4-0.8c-0.5-1.3-1.2-2.7-1.8-3.9c-0.7-1.4-1.4-2.8-2.1-4.1c-0.4-0.7-0.7-1.4-1.1-2c-0.2-0.4-0.4-0.8-0.7-1.2
				c-0.7-1.2-1.4-2.3-2.2-3.5c-0.1-0.2-0.3-0.4-0.4-0.7c-1-1.5-2-2.9-3.1-4.3c-1.5-2-3-3.8-4.6-5.6c-1.2-1.4-2.4-2.7-3.7-4
				c-0.4-0.4-0.7-0.7-1-1c-1-1-2-2-3.1-3c-1.2-1.1-2.5-2.2-3.8-3.2c-0.7-0.6-1.4-1.1-2.1-1.6c-1.1-0.9-2.2-1.7-3.3-2.5
				c-0.2-0.2-0.4-0.3-0.7-0.4c-1.6-1.2-3.2-2.2-4.9-3.2c-2.7-1.6-5.4-3.1-8.2-4.4c-1.3-0.7-2.7-1.2-4.1-1.8c-1.5-0.7-3-1.2-4.5-1.8
				c0,0-0.1,0-0.1,0c-0.1-0.1-0.2-0.1-0.4-0.2c-1.3-0.4-2.7-0.9-4-1.3c0,0,0,0-0.1,0c-1.3-0.4-2.6-0.8-3.9-1.1
				c-0.4-0.1-0.8-0.2-1.2-0.3c-1.1-0.3-2.2-0.5-3.3-0.8c-3.6-0.8-7.2-1.3-10.9-1.7c-1.2-0.1-2.4-0.2-3.6-0.3
				c-1.8-0.1-3.6-0.2-5.5-0.2c0,0-0.1,0-0.1,0h0h-46.1h-11.3H231h-11.2h-46.1h0c0,0,0,0,0,0c0,0,0,0-0.1,0c-1.6,0-3.2,0-4.8,0.1
				c0,0-0.1,0-0.1,0c-1.4,0-2.7,0.2-4.1,0.3c-0.4,0-0.9,0.1-1.3,0.1c-1.3,0.1-2.6,0.3-3.9,0.5c-6.5,1-12.7,2.6-18.7,4.7
				c-1.3,0.5-2.6,1-3.9,1.5c-3.9,1.6-7.6,3.5-11.2,5.6c-1.6,0.9-3.3,1.9-4.9,3c-1.7,1.1-3.3,2.3-5,3.5c-1.4,1-2.7,2.1-4,3.2
				c-0.4,0.3-0.8,0.6-1.1,0.9c-1.4,1.2-2.7,2.4-4,3.7c-0.3,0.3-0.6,0.6-0.8,0.8c-1.1,1.1-2.2,2.2-3.2,3.3c-1.1,1.2-2.2,2.5-3.2,3.8
				c-0.6,0.7-1.2,1.4-1.6,2.1c-0.9,1.1-1.7,2.2-2.5,3.3c-0.1,0.2-0.3,0.4-0.4,0.7c-1.1,1.6-2.2,3.2-3.2,4.9
				c-1.6,2.7-3.1,5.4-4.4,8.2c-0.6,1.3-1.2,2.7-1.8,4.1c-0.7,1.5-1.2,3-1.8,4.5c0,0.2-0.1,0.4-0.2,0.5c-0.5,1.3-0.9,2.6-1.3,3.9
				c-0.3,1-0.6,2-0.8,3c-0.1,0.2-0.1,0.4-0.1,0.5c-0.1,0.4-0.2,0.7-0.3,1c0,0.1,0,0.2,0,0.2c-0.1,0.2-0.1,0.5-0.2,0.7
				c-0.3,1-0.5,2-0.7,2.9c-0.1,0.4-0.2,0.9-0.3,1.3c0,0.2-0.1,0.4-0.1,0.7c-0.6,2.9-1,5.9-1.3,9c-0.1,1.2-0.2,2.4-0.3,3.6
				c-0.1,1.8-0.2,3.6-0.2,5.5v0.1v0v46.1v11.3v178.5v11.3V460.3z"/>
			<path class="st3" d="M252.5,589C252.5,589,252.5,589,252.5,589"/>
			<polyline class="st3" points="45.1,381.5 77.7,414.2 85.6,422.1 211.8,548.3 219.8,556.3 252.4,588.9 			"/>
			<path class="st3" d="M41.8,378.1c1,1.2,2.1,2.3,3.1,3.3"/>
			<path class="st3" d="M32.8,366.5c0.1,0.2,0.2,0.4,0.4,0.6c0.7,1.1,1.5,2.2,2.3,3.3"/>
			<path class="st3" d="M44.9,245.9c-18.7,18.8-28.1,43.3-28.1,67.8c0,1.9,0,3.9,0.2,5.8c0,0,0,0,0,0c0.1,1.9,0.3,3.7,0.5,5.6
				c0,0.1,0,0.1,0,0.2c0.2,1.6,0.4,3.2,0.7,4.8c0.4,2.2,0.8,4.3,1.3,6.4c0.8,3,1.6,5.9,2.7,8.9c0.5,1.6,1.2,3.2,1.9,4.8
				c0.5,1.3,1.1,2.6,1.6,3.8c0.4,1,0.9,2,1.5,3c0.2,0.4,0.4,0.8,0.6,1.2c0,0,0,0.1,0.1,0.2"/>
			<path class="st3" d="M260.6,31c-0.7,0.5-1.4,1.1-2.1,1.7"/>
			<path class="st3" d="M267.4,26.1c-0.3,0.2-0.6,0.4-0.8,0.5"/>
			<path class="st3" d="M271.6,23.5c-0.5,0.3-0.9,0.5-1.3,0.8"/>
			<path class="st3" d="M281.7,18.3c-0.9,0.4-1.8,0.8-2.7,1.2"/>
			<path class="st3" d="M297.5,12.9c-3,0.8-6,1.6-8.9,2.7c-1.1,0.4-2.2,0.8-3.3,1.2c-0.9,0.4-1.9,0.8-2.8,1.2"/>
			<path class="st3" d="M314.3,10.4c-1.8,0.1-3.6,0.3-5.4,0.5c-1.6,0.2-3.2,0.4-4.8,0.7c-0.5,0.1-1.1,0.2-1.6,0.3"/>
			<path class="st3" d="M319.6,10.2c-1.7,0-3.3,0.1-5,0.2"/>
			<path class="st3" d="M364.9,21.2c-5.5-2.9-11.3-5.3-17.2-7"/>
			<path class="st3" d="M384.5,34.9c-4.8-4.4-10-8.2-15.5-11.4"/>
			<path class="st3" d="M388.2,588.9c9.6-9.6,16.7-20.7,21.4-32.6c2-5.1,3.6-10.5,4.7-15.9c1.3-6.3,2-12.8,2-19.2V409.5v-56.2v-79.4
				v-56.2V106.1v0c0-6.5-0.7-12.9-2-19.3c-1.1-5.4-2.6-10.7-4.7-15.8c-4.7-11.9-11.8-23-21.4-32.6"/>
			<path class="st3" d="M384.8,592.1c1.1-1,2.2-2,3.3-3.1"/>
			<path class="st3" d="M380.9,595.6c0.2-0.1,0.3-0.3,0.5-0.4"/>
			<path class="st3" d="M373.7,600.8c1.2-0.8,2.3-1.5,3.3-2.3"/>
			<path class="st3" d="M370,603.2c0.8-0.5,1.6-1,2.3-1.5"/>
			<path class="st3" d="M368,604.4c0.2-0.1,0.4-0.3,0.7-0.4"/>
			<path class="st3" d="M252.6,589c28.7,27.5,69.6,34.8,104.1,20.8c1.4-0.6,2.8-1.2,4.3-1.9c1.4-0.6,2.8-1.3,4.2-2"/>
			<path class="st3" d="M252.4,38.4L219.8,71l-7.9,7.9L85.7,205.1l-8,8l-32.6,32.6c0,0,0,0-0.1,0.1l0,0
				c-29.7,31-35.8,76.3-17.1,112.3c0,0.1,0.1,0.1,0.1,0.2c0.5,1,1.1,2,1.6,2.9c0.5,0.8,0.9,1.6,1.4,2.3c0.6,0.9,1.2,1.9,1.8,2.8
				c0.1,0.2,0.3,0.4,0.4,0.6c0.7,1.1,1.5,2.2,2.3,3.3c1,1.3,2,2.6,3,3.8c0.1,0.2,0.3,0.3,0.4,0.5c1,1.2,2,2.3,3,3.5
				c1,1.1,2,2.2,3.1,3.3c0,0,0,0,0.1,0.1c9.6,9.6,20.7,16.7,32.6,21.4c5.1,2,10.4,3.6,15.8,4.7c6.3,1.3,12.8,2,19.3,2h111.6h56.2
				h79.4h56.2h111.6h0c6.4,0,12.9-0.7,19.3-2c5.4-1.1,10.7-2.6,15.8-4.7c11.9-4.7,23-11.8,32.6-21.4c0,0,0,0,0.1-0.1"/>
			<path class="st3" d="M255.8,35.1c-1.2,1-2.3,2.1-3.3,3.1"/>
			<path class="st3" d="M269.6,24.7c-0.7,0.4-1.3,0.8-2,1.2c-0.4,0.2-0.7,0.4-1.1,0.7c-1,0.7-2,1.4-2.9,2"/>
			<path class="st3" d="M388.2,38.4C388.2,38.3,388.2,38.3,388.2,38.4L388.2,38.4c-1.2-1.3-2.4-2.4-3.7-3.5
				c-4.8-4.4-10-8.2-15.5-11.4c-1.4-0.8-2.7-1.6-4.2-2.3c-5.6-3-11.3-5.3-17.2-7c-9.1-2.7-18.6-4-28-3.9c-1.7,0-3.3,0.1-5,0.2
				c-0.1,0-0.3,0-0.4,0c-1.8,0.1-3.6,0.3-5.4,0.5c-1.6,0.2-3.2,0.4-4.8,0.7c-0.5,0-1.1,0.2-1.6,0.3c-1.7,0.3-3.3,0.7-4.9,1.1
				c-4.1,1-8.2,2.3-12.2,3.9c-0.9,0.4-1.9,0.8-2.8,1.2c-0.3,0.1-0.6,0.2-0.8,0.4c-0.9,0.4-1.8,0.8-2.7,1.2c-1.1,0.5-2.2,1.1-3.3,1.6
				"/>
			<path class="st3" d="M601.2,251.8c-0.5-0.6-1.1-1.2-1.6-1.9"/>
			<path class="st3" d="M602.3,253.1c-0.1-0.2-0.3-0.3-0.4-0.5"/>
			<path class="st3" d="M607.9,260.8c-0.8-1.3-1.7-2.6-2.7-3.8"/>
			<path class="st3" d="M610.1,264.3c-0.5-0.9-1.1-1.9-1.7-2.7"/>
			<path class="st3" d="M612.7,268.8c-0.5-1-1-2-1.6-2.9"/>
			<path class="st3" d="M620.8,289.9c-0.7-2.7-1.5-5.3-2.4-7.9c-0.5-1.5-1-2.9-1.6-4.3c-0.6-1.5-1.2-2.9-1.9-4.3
				c-0.6-1.4-1.3-2.8-2.1-4.2"/>
			<path class="st3" d="M623,302c-0.1-1.5-0.4-2.9-0.6-4.4c-0.1-0.7-0.2-1.4-0.4-2.1"/>
			<path class="st3" d="M623.6,307.6c-0.1-1.7-0.2-3.5-0.5-5.2"/>
			<path class="st3" d="M623.8,312.9c0-1.7-0.1-3.3-0.2-5"/>
			<path class="st3" d="M388.1,38.3c-31-29.7-76.4-35.9-112.4-17.1c-1.4,0.8-2.7,1.5-4.1,2.3c-0.4,0.3-0.9,0.5-1.3,0.8
				c-0.3,0.1-0.5,0.3-0.7,0.4c-0.7,0.4-1.3,0.8-2,1.2c-0.1,0-0.2,0.1-0.2,0.2c-1.3,0.8-2.5,1.7-3.8,2.6c-1,0.8-2,1.6-3,2.3
				c-0.7,0.5-1.4,1.2-2.1,1.7c-0.9,0.8-1.8,1.5-2.7,2.3c-1.1,1-2.2,2-3.3,3.1c0,0,0,0-0.1,0.1C242.8,48,235.7,59.1,231,71
				c-2,5.1-3.5,10.5-4.6,15.8c-1.3,6.3-2,12.8-2,19.3v111.6v56.2v79.4v56.2v111.6c0,6.5,0.7,12.9,2,19.3c1.1,5.4,2.6,10.7,4.7,15.8
				c0.1,0.3,0.2,0.7,0.4,1c4.7,11.5,11.7,22.3,21,31.7l0,0l0,0l0,0c18.9,18.8,43.4,28.1,67.8,28.1c0.2,0,0.4,0,0.6,0
				c1.7,0,3.4-0.1,5.1-0.2h0c1.9-0.1,3.7-0.3,5.6-0.5c0.1,0,0.1,0,0.2,0c1.6-0.2,3.1-0.4,4.6-0.7c0.6,0,1.2-0.2,1.8-0.3
				c1.6-0.3,3.2-0.6,4.9-1c3-0.8,5.9-1.6,8.9-2.7c1.1-0.4,2.2-0.8,3.3-1.2c0.4-0.2,0.9-0.4,1.4-0.6c0.6-0.2,1.2-0.5,1.9-0.8
				c0.8-0.4,1.6-0.7,2.4-1.1c0.3-0.1,0.5-0.2,0.8-0.4c1.1-0.5,2.1-1,3.2-1.6c0,0,0.1,0,0.2-0.1c1-0.5,2-1,2.9-1.6
				c0.2-0.1,0.4-0.2,0.7-0.4c0.4-0.2,0.8-0.5,1.3-0.8c0.8-0.4,1.6-0.9,2.3-1.5c0.5-0.3,1-0.6,1.4-0.9c1.1-0.7,2.2-1.5,3.3-2.3
				c1.3-0.9,2.6-2,3.8-3c0.2-0.1,0.3-0.3,0.5-0.4c1.2-1,2.3-2,3.5-3c1.1-1,2.2-2,3.3-3.1c0,0,0,0,0.1-0.1l32.6-32.6l7.9-7.9
				L555,422.1l8-8l32.6-32.6c0,0,0.1,0,0.1,0v0c18.9-18.9,28.3-43.8,28.1-68.5c0-1.7-0.1-3.3-0.2-5c0-0.1,0-0.3,0-0.4
				c-0.1-1.8-0.2-3.5-0.5-5.2c0-0.1,0-0.3,0-0.4c-0.1-1.5-0.4-2.9-0.6-4.4c-0.1-0.7-0.2-1.4-0.4-2.1c-0.4-1.9-0.8-3.8-1.3-5.6
				c-0.7-2.7-1.5-5.3-2.4-7.9c-0.5-1.5-1.1-2.9-1.6-4.3c-0.6-1.5-1.2-2.9-1.9-4.3c-0.7-1.4-1.3-2.8-2.1-4.2c0-0.1-0.1-0.2-0.1-0.2
				c-0.5-1-1-2-1.6-2.9c-0.3-0.6-0.6-1.1-1-1.6c-0.5-0.9-1.1-1.9-1.7-2.7c-0.1-0.3-0.3-0.5-0.5-0.8c-0.8-1.3-1.7-2.6-2.7-3.8
				c-0.9-1.3-1.9-2.6-3-3.9c-0.1-0.1-0.3-0.3-0.4-0.5c-0.2-0.3-0.4-0.5-0.7-0.8c-0.5-0.6-1.1-1.2-1.6-1.9c-0.2-0.3-0.4-0.5-0.7-0.8
				c-1-1.2-2.1-2.3-3.1-3.3l0,0l0,0L563,213.1l-7.9-7.9L428.8,79l-8-8L388.1,38.3C388.2,38.4,388.2,38.3,388.1,38.3z"/>
		</g>
	</g>
</g>
</svg>
