<?xml version="1.0" encoding="utf-8"?>
<!-- Generator: Adobe Illustrator 19.2.1, SVG Export Plug-In . SVG Version: 6.00 Build 0)  -->
<svg version="1.1" id="Layer_1" xmlns="http://www.w3.org/2000/svg" xmlns:xlink="http://www.w3.org/1999/xlink" x="0px" y="0px"
	 viewBox="0 0 642 627.3" style="enable-background:new 0 0 642 627.3;" xml:space="preserve">
<style type="text/css">
	.st0{opacity:0.2;}
	.st1{fill:#FFFFFF;}
	.st2{opacity:0.5;}
	.st3{fill:none;stroke:#FFFFFF;stroke-width:5;stroke-miterlimit:10;}
</style>
<g id="XMLID_7552_">
	<g id="XMLID_8626_" class="st0">
		<g id="XMLID_8792_">
			<polygon class="st1" points="419,273.8 419,353.1 362.8,409.3 283.5,409.3 227.3,353.2 227.3,273.8 283.4,217.6 362.8,217.6 			
				"/>
		</g>
		<g id="XMLID_8793_">
		</g>
	</g>
	<g id="XMLID_8641_" class="st2">
		<g id="XMLID_8655_">
			<path class="st1" d="M537.5,392.4c4.6,4.6,8.7,9.6,12.2,15c-6.3,1.3-12.8,2-19.3,2h0H418.9v-56.2l39.7-39.7L537.5,392.4z"/>
			<polygon class="st1" points="418.9,353.2 418.9,409.3 362.8,409.3 			"/>
			<polygon class="st1" points="283.4,217.7 227.2,273.8 227.2,217.7 			"/>
		</g>
		<g id="XMLID_8656_">
		</g>
	</g>
	<g id="XMLID_8837_">
		<g id="XMLID_8979_">
			<path class="st1" d="M549.7,219.7c5.4,1.1,10.7,2.6,15.8,4.6v178.4c-5.1,2-10.5,3.6-15.8,4.7c-3.5-5.4-7.7-10.4-12.2-15
				l-78.9-78.9l78.8-78.8C542,230.1,546.2,225.1,549.7,219.7z"/>
			<path class="st1" d="M530.5,217.7c6.5,0,12.9,0.7,19.3,2c-3.6,5.4-7.7,10.4-12.3,15l-78.8,78.8l-39.7-39.7v-56.1H530.5z"/>
			<polygon class="st1" points="458.6,313.5 418.9,353.2 418.9,273.8 			"/>
			<polygon class="st1" points="418.9,217.7 418.9,273.8 362.8,217.7 			"/>
			<polygon class="st1" points="362.8,409.3 323.1,449 283.4,409.3 			"/>
			<polygon class="st1" points="323.1,178 362.8,217.7 283.4,217.7 			"/>
			<polygon class="st1" points="283.4,409.3 227.3,409.3 227.3,353.2 			"/>
			<path class="st1" d="M227.3,353.2v56.1H115.7c-6.5,0-12.9-0.7-19.2-2c3.5-5.4,7.7-10.5,12.2-15l78.8-78.8L227.3,353.2z"/>
			<polygon class="st1" points="227.3,273.8 227.3,353.2 187.6,313.5 			"/>
			<path class="st1" d="M108.7,234.6l78.9,78.9l-78.8,78.8c-4.6,4.5-8.7,9.6-12.2,15c-5.4-1.1-10.7-2.6-15.9-4.7V224.3
				c5.1-2,10.5-3.6,15.8-4.7C100,225.1,104.2,230.1,108.7,234.6z"/>
		</g>
		<g id="XMLID_8849_">
			<path class="st3" d="M492.8,73.8c-1-0.3-1.9-0.5-2.9-0.7"/>
			<path class="st3" d="M494.7,74.4c-0.4-0.1-0.7-0.2-1-0.3"/>
			<path class="st3" d="M498.2,75.3c-1-0.3-2-0.6-3-0.8"/>
			<path class="st3" d="M502.7,76.8c-0.2,0-0.4-0.1-0.5-0.2"/>
			<path class="st3" d="M511.3,80.5c-1.3-0.6-2.7-1.2-4.1-1.8"/>
			<path class="st3" d="M524.3,88.1c-1.6-1.1-3.2-2.2-4.9-3.2"/>
			<path class="st3" d="M530.4,92.7c-0.7-0.6-1.4-1.2-2.1-1.6c-1.1-0.9-2.2-1.7-3.3-2.5"/>
			<path class="st3" d="M542,103.9c-1.2-1.4-2.4-2.7-3.7-4c-0.4-0.4-0.7-0.7-1-1c-1-1.1-2-2-3.1-3"/>
			<path class="st3" d="M552.7,118.9c-0.9-1.6-1.9-3.3-3-4.9c-1.1-1.7-2.3-3.3-3.5-5c-1-1.4-2.1-2.7-3.2-4"/>
			<path class="st3" d="M559.7,133.9c-0.5-1.3-1-2.6-1.5-3.9"/>
			<path class="st3" d="M565,156.5c-0.1-1.3-0.3-2.6-0.5-3.9"/>
			<path class="st3" d="M565.4,161.9c0-1.4-0.2-2.7-0.3-4.1"/>
			<path class="st3" d="M565.6,166.8c0-1.6,0-3.2-0.1-4.8"/>
			<path class="st3" d="M565.1,469.3c0.1-1.2,0.2-2.4,0.3-3.6"/>
			<path class="st3" d="M562.7,483.5c0.3-1.1,0.5-2.2,0.8-3.3"/>
			<path class="st3" d="M559.7,493.1c0,0,0-0.1,0-0.1c0.1-0.1,0.1-0.2,0.2-0.4"/>
			<path class="st3" d="M556.1,501.7c0.7-1.3,1.2-2.7,1.8-4.1"/>
			<path class="st3" d="M548.5,514.7c1.2-1.6,2.2-3.2,3.2-4.9"/>
			<path class="st3" d="M543.9,520.8c0.6-0.7,1.1-1.4,1.6-2.1c0.9-1.1,1.7-2.2,2.5-3.3"/>
			<path class="st3" d="M532.7,532.4c1.4-1.2,2.7-2.4,4-3.7c1.4-1.3,2.7-2.7,4-4.1"/>
			<path class="st3" d="M522.7,540c1.5-1,2.9-2,4.3-3.1"/>
			<path class="st3" d="M507.3,548.3c1.3-0.5,2.7-1.2,3.9-1.8c1.4-0.7,2.8-1.4,4.1-2.1c0.7-0.4,1.4-0.7,2-1.1
				c0.4-0.2,0.8-0.4,1.2-0.7c1.2-0.7,2.3-1.4,3.5-2.2"/>
			<path class="st3" d="M502.7,550.1c1.3-0.4,2.6-1,3.9-1.5"/>
			<path class="st3" d="M480.1,555.4c1.3-0.1,2.6-0.3,3.9-0.5"/>
			<path class="st3" d="M474.7,555.8c1.4,0,2.7-0.2,4.1-0.3"/>
			<path class="st3" d="M469.8,556c1.6,0,3.2,0,4.7-0.1"/>
			<path class="st3" d="M80.6,167c0,13.6,2.8,26.4,8,38.1c2.2,5.1,4.8,10,7.8,14.6c3.6,5.4,7.7,10.4,12.2,15l78.9,78.9l39.7,39.7
				l56.2,56.1l39.7,39.7l78.8,78.8c4.6,4.6,9.6,8.7,15,12.2c4.6,3.1,9.4,5.7,14.5,7.9c0.3,0.1,0.6,0.3,0.9,0.4
				c11.4,4.9,24,7.5,37.2,7.5"/>
			<path class="st3" d="M82.5,148.1c0,0.2-0.1,0.4-0.1,0.7"/>
			<path class="st3" d="M83.6,143.1c-0.3,1.2-0.6,2.4-0.8,3.6"/>
			<path class="st3" d="M84.1,141.4c0,0.2-0.1,0.3-0.1,0.5"/>
			<path class="st3" d="M176.4,71c-41.3,0.8-76.5,26.5-90,63c-0.5,1.5-1,2.9-1.5,4.4"/>
			<polyline class="st3" points="565.6,460 565.6,413.9 565.6,402.7 565.6,224.3 565.6,213.1 565.6,167 			"/>
			<path class="st3" d="M469.8,556c1.6,0,3.2,0,4.7-0.1c0,0,0.1,0,0.1,0c1.4,0,2.7-0.2,4.1-0.3c0.4,0,0.9-0.1,1.3-0.1
				c1.3-0.1,2.6-0.3,3.9-0.5c6.5-1,12.7-2.6,18.6-4.7c1.3-0.5,2.6-1,3.9-1.5c0.3-0.1,0.5-0.2,0.8-0.4c1.3-0.6,2.6-1.2,3.9-1.8
				c1.4-0.7,2.7-1.4,4.1-2.1c1.1-0.6,2.1-1.2,3.2-1.8c1.2-0.7,2.3-1.4,3.5-2.2c0.2-0.1,0.4-0.3,0.7-0.4c1.5-1,2.9-2,4.3-3.1
				c1.9-1.5,3.8-3,5.6-4.6c1.4-1.2,2.7-2.4,4-3.7c1.4-1.3,2.7-2.7,4-4.1c1.1-1.2,2.2-2.5,3.2-3.8c0.6-0.7,1.2-1.4,1.6-2.1
				c0.9-1.1,1.7-2.2,2.5-3.3c0.1-0.2,0.3-0.4,0.4-0.7c1.1-1.6,2.2-3.2,3.2-4.9c1.6-2.7,3.1-5.4,4.4-8.2c0.6-1.3,1.2-2.7,1.8-4.1
				c0.7-1.5,1.2-3,1.8-4.5c0-0.2,0.1-0.4,0.2-0.5c0.5-1.3,0.9-2.7,1.3-4.1c0.4-1.3,0.8-2.6,1.1-3.9"/>
			<path class="st3" d="M167.3,555.5c1.2,0.1,2.4,0.2,3.6,0.3"/>
			<path class="st3" d="M153.1,553.1c1.1,0.3,2.2,0.5,3.3,0.8"/>
			<path class="st3" d="M143.5,550.1c0,0,0.1,0,0.1,0c0.1,0.1,0.2,0.1,0.4,0.2"/>
			<path class="st3" d="M134.9,546.5c1.3,0.6,2.7,1.2,4.1,1.8"/>
			<path class="st3" d="M115.8,534.3c1.1,0.9,2.2,1.8,3.4,2.6c1.2,0.9,2.4,1.8,3.7,2.7"/>
			<path class="st3" d="M103,521.7c0.5,0.6,1,1.2,1.5,1.7c0.8,1,1.7,1.9,2.6,2.9"/>
			<path class="st3" d="M88.3,497.7c1.2,2.8,2.4,5.5,3.9,8.1c0.4,0.7,0.7,1.4,1.1,2c0.3,0.5,0.6,1.1,1,1.6"/>
			<path class="st3" d="M86.4,493c0.4,1.3,1,2.6,1.5,3.9"/>
			<path class="st3" d="M81.2,470.5c0.1,1.3,0.3,2.6,0.5,3.9"/>
			<path class="st3" d="M80.8,465.1c0,1.4,0.2,2.7,0.3,4.1"/>
			<path class="st3" d="M80.6,460.2c0,1.6,0,3.2,0.1,4.7"/>
			<path class="st3" d="M469.6,71c-13.6,0-26.4,2.8-38.1,8c-5.1,2.2-10,4.8-14.6,7.8c-5.4,3.5-10.4,7.7-15,12.2L323.1,178
				l-39.7,39.7l-56.1,56.2l-39.7,39.7l-78.8,78.8c-4.6,4.5-8.7,9.6-12.2,15c-3.1,4.6-5.7,9.4-7.9,14.5c-0.1,0.3-0.3,0.6-0.4,0.9
				c-4.9,11.4-7.5,24-7.5,37.2"/>
			<path class="st3" d="M478.9,71.5c-1.2-0.1-2.4-0.2-3.6-0.3"/>
			<path class="st3" d="M488.5,72.9c-0.2,0-0.4-0.1-0.7-0.1"/>
			<path class="st3" d="M493.5,74c-1.2-0.3-2.4-0.6-3.6-0.8"/>
			<path class="st3" d="M495.2,74.5c-0.2,0-0.3-0.1-0.5-0.1"/>
			<path class="st3" d="M565.6,166.8c-0.8-41.3-26.5-76.5-63-90c-1.5-0.5-2.9-1-4.4-1.5"/>
			<path class="st3" d="M358.1,610.1c1.1-0.4,2.2-0.8,3.2-1.3c1.1-0.4,2.2-0.9,3.2-1.5"/>
			<path class="st3" d="M345.9,614c3-0.8,5.9-1.6,8.9-2.7"/>
			<path class="st3" d="M334.7,616c1.6-0.2,3.1-0.4,4.6-0.7c0.6,0,1.2-0.2,1.8-0.3"/>
			<path class="st3" d="M328.9,616.5c1.9-0.1,3.7-0.3,5.6-0.5"/>
			<path class="st3" d="M323.8,616.7c1.7,0,3.4-0.1,5.1-0.2"/>
			<path class="st3" d="M41.4,374c0.1,0.2,0.3,0.3,0.4,0.5"/>
			<path class="st3" d="M32.6,361.2c0.4,0.8,0.9,1.6,1.4,2.3"/>
			<path class="st3" d="M27.1,350c0.5,1.3,1.1,2.6,1.6,3.8c0.5,1,0.9,2,1.5,3"/>
			<path class="st3" d="M22.6,336.3c0.8,3,1.6,5.9,2.7,8.9"/>
			<path class="st3" d="M20.6,325.1c0.2,1.6,0.4,3.2,0.7,4.8"/>
			<path class="st3" d="M20,319.3c0.1,1.9,0.3,3.7,0.5,5.6"/>
			<path class="st3" d="M19.9,313.5c0,1.9,0,3.8,0.2,5.8"/>
			<path class="st3" d="M598.2,245.7c-9.6-9.6-20.7-16.7-32.6-21.4c-5.1-2-10.5-3.5-15.8-4.6c-6.3-1.3-12.8-2-19.3-2H418.9h-56.2
				h-79.4h-56.1H115.8c-6.5,0-12.9,0.7-19.3,2c-5.4,1.1-10.7,2.6-15.8,4.7c-0.3,0.1-0.7,0.2-1,0.4c-11.5,4.7-22.3,11.7-31.6,21"/>
			<path class="st3" d="M601.4,249.1c-1-1.1-2-2.2-3.1-3.3"/>
			<path class="st3" d="M609.8,259.8c-0.7-1-1.4-2-2-3"/>
			<path class="st3" d="M598.2,381.2c29.7-31,35.9-76.3,17.1-112.3c0-0.1-0.1-0.1-0.1-0.2"/>
			<path class="st3" d="M176.6,556h46.1h11.3h178.4h11.3h46.1c0,0,0.1,0,0.1,0c0,0,0,0,0.1,0c41.3-0.9,76.5-26.6,89.9-63
				c0.5-1.5,1-2.9,1.5-4.4c0.4-1.3,0.8-2.6,1.1-3.9c0.1-0.4,0.2-0.8,0.3-1.2c0.3-1.1,0.5-2.2,0.8-3.3c0.8-3.5,1.3-7.2,1.7-10.9
				c0.1-1.2,0.2-2.4,0.3-3.6c0.1-1.8,0.2-3.6,0.2-5.5c0,0,0-0.1,0-0.1c0-13.6-2.8-26.4-8-38.1c-2.2-5.1-4.8-10-7.8-14.6
				c-3.5-5.4-7.7-10.4-12.2-15l-78.9-78.9l-39.7-39.7l-56.2-56.1L323.1,178l-78.8-78.8c-4.5-4.6-9.6-8.7-15-12.3
				c-4.6-3-9.4-5.7-14.5-7.9c-0.3-0.1-0.6-0.3-0.9-0.4c-11.4-4.8-24-7.5-37.2-7.5"/>
			<path class="st3" d="M80.6,460.2c0,1.6,0,3.2,0.1,4.7c0,0,0,0.1,0,0.1c0.1,1.4,0.2,2.7,0.3,4.1c0,0.4,0.1,0.9,0.1,1.3
				c0.1,1.3,0.3,2.6,0.5,3.9c1,6.5,2.6,12.7,4.7,18.6c0.5,1.3,1,2.6,1.5,3.9c0.1,0.3,0.2,0.5,0.4,0.8c1.2,2.7,2.5,5.4,3.9,8.1
				c0.7,1.2,1.4,2.5,2.1,3.7c2.6,4.3,5.5,8.4,8.7,12.2c0.5,0.6,1,1.2,1.5,1.7c0.8,1,1.7,1.9,2.6,2.9c2.7,2.9,5.6,5.5,8.6,8
				c1.1,0.9,2.2,1.8,3.4,2.6c1.2,0.9,2.5,1.8,3.7,2.7c3.9,2.6,7.9,4.9,12,7c1.3,0.6,2.7,1.2,4.1,1.8c1.5,0.7,3,1.2,4.5,1.8
				c0.2,0,0.4,0.1,0.5,0.2c1.3,0.5,2.7,0.9,4.1,1.3c1.3,0.4,2.6,0.8,3.9,1.1"/>
			<path class="st3" d="M81.1,157.7c-0.1,1.2-0.2,2.4-0.3,3.6"/>
			<path class="st3" d="M83.4,143.8c-0.3,1-0.5,1.9-0.7,2.9"/>
			<path class="st3" d="M84,141.9c-0.1,0.3-0.2,0.7-0.3,1"/>
			<path class="st3" d="M84.9,138.4C84.9,138.4,84.9,138.4,84.9,138.4c-0.3,1.1-0.6,2-0.8,3"/>
			<path class="st3" d="M86.4,133.9c0,0,0,0.1,0,0.1c-0.1,0.1-0.1,0.3-0.2,0.4"/>
			<path class="st3" d="M90.1,125.3c-0.6,1.3-1.2,2.7-1.8,4.1"/>
			<path class="st3" d="M102.3,106.2c-0.9,1.1-1.8,2.2-2.6,3.4c-0.9,1.2-1.8,2.4-2.7,3.7"/>
			<path class="st3" d="M128.2,84.1c-1.6,0.9-3.1,1.9-4.6,2.8c-1.7,1.1-3.4,2.3-5,3.5c-1.3,1-2.6,2-3.9,3.1
				c-0.5,0.4-1.1,0.9-1.6,1.4c-1,0.8-1.9,1.7-2.9,2.6"/>
			<path class="st3" d="M143.5,76.8c-1.3,0.5-2.6,1-3.9,1.5"/>
			<path class="st3" d="M166.1,71.6c-1.3,0.1-2.6,0.3-3.9,0.5"/>
			<path class="st3" d="M171.5,71.2c-1.4,0-2.7,0.2-4.1,0.3"/>
			<line class="st3" x1="176.4" y1="71" x2="171.6" y2="71.2"/>
			<path class="st3" d="M80.6,460c0,0,0,0.1,0,0.1c0,0,0,0,0,0.1c0.9,41.3,26.6,76.5,63,89.9c1.5,0.5,2.9,1,4.4,1.5
				c1.3,0.4,2.6,0.8,3.9,1.1c0.4,0.1,0.8,0.2,1.2,0.3c1.1,0.3,2.2,0.5,3.3,0.8c3.5,0.8,7.2,1.3,10.9,1.7c1.2,0.1,2.4,0.2,3.6,0.3
				c1.8,0.1,3.6,0.2,5.5,0.2c0,0,0.1,0,0.1,0c13.6,0,26.4-2.8,38.1-8c5.1-2.2,10-4.8,14.6-7.8c5.4-3.6,10.4-7.7,15-12.2l78.9-78.9
				l39.7-39.7l56.1-56.2l39.7-39.7l78.8-78.8c4.6-4.6,8.7-9.6,12.3-15c3-4.6,5.7-9.4,7.9-14.5c0.1-0.3,0.3-0.6,0.4-0.9
				c4.8-11.4,7.5-24,7.5-37.2c0,0,0-0.1,0-0.1v0c0-1.6,0-3.2-0.1-4.8v-0.1c0-1.4-0.2-2.7-0.3-4.1l-0.1-1.3c-0.1-1.3-0.3-2.6-0.5-3.9
				l-4.7-18.6c-0.5-1.3-1-2.6-1.5-3.9l-5.4-10.9c0-0.1-0.1-0.2-0.2-0.3c-0.9-1.7-1.9-3.3-3-4.9c-1.1-1.7-2.3-3.4-3.5-5
				c-1-1.4-2.1-2.7-3.2-4c-0.3-0.4-0.6-0.8-0.9-1.1c-1.2-1.4-2.4-2.7-3.7-4c-0.4-0.4-0.7-0.7-1-1c-1-1-2-2-3.1-3
				c-1.2-1.1-2.5-2.2-3.8-3.2c-0.7-0.6-1.4-1.1-2.1-1.6c-1.1-0.9-2.2-1.7-3.3-2.5c-0.2-0.2-0.4-0.3-0.7-0.4
				c-1.6-1.2-3.2-2.2-4.9-3.2c-2.7-1.6-5.4-3.1-8.2-4.4c-1.3-0.7-2.7-1.2-4.1-1.8c-1.5-0.7-3-1.2-4.5-1.8c0,0-0.1,0-0.1,0
				c-0.1-0.1-0.3-0.1-0.4-0.2c-1.3-0.5-2.6-0.9-3.9-1.3c0,0,0,0-0.1,0c-1-0.3-1.9-0.6-2.9-0.8c-0.1-0.1-0.3-0.1-0.5-0.1
				c-0.3-0.1-0.7-0.2-1-0.3c0,0-0.1,0-0.2,0c-0.2,0-0.4-0.1-0.7-0.2c-1-0.3-1.9-0.5-2.9-0.7c-0.4-0.1-0.9-0.2-1.3-0.3
				c-0.2,0-0.4-0.1-0.7-0.1c-2.9-0.6-5.9-1-9-1.3c-1.2-0.1-2.4-0.2-3.6-0.3c-1.8-0.1-3.6-0.2-5.5-0.2c0,0-0.1,0-0.1,0h0h-46.1h-11.3
				H233.9h-11.2h-46.1h0c0,0,0,0,0,0c0,0,0,0-0.1,0c-1.6,0-3.2,0-4.8,0.1c0,0-0.1,0-0.1,0c-1.4,0.1-2.7,0.2-4.1,0.3
				c-0.4,0-0.9,0.1-1.3,0.1c-1.3,0.1-2.6,0.3-3.9,0.5c-6.5,1-12.7,2.6-18.6,4.7c-1.3,0.5-2.6,1-3.9,1.5c-4,1.6-7.8,3.6-11.5,5.8
				c-1.6,0.9-3.1,1.8-4.6,2.8c-1.7,1.1-3.4,2.3-5,3.5c-1.3,1-2.6,2-3.9,3.1c-0.5,0.4-1.1,0.9-1.6,1.4c-1,0.8-1.9,1.7-2.9,2.6
				c-2.9,2.7-5.5,5.6-8,8.6c-0.9,1.1-1.8,2.2-2.6,3.4c-0.9,1.2-1.8,2.5-2.7,3.7c-2.6,3.9-4.9,7.9-7,12c-0.6,1.3-1.2,2.7-1.8,4.1
				c-0.7,1.5-1.2,3-1.8,4.5c0,0.2-0.1,0.4-0.2,0.5c-0.5,1.3-0.9,2.6-1.3,3.9c-0.3,1-0.6,2-0.8,3c-0.1,0.2-0.1,0.4-0.1,0.5
				c-0.1,0.4-0.2,0.7-0.3,1c0,0.1,0,0.2,0,0.2c-0.1,0.2-0.1,0.5-0.2,0.7c-0.3,1-0.5,1.9-0.7,2.9c-0.1,0.4-0.2,0.9-0.3,1.3
				c0,0.2-0.1,0.4-0.1,0.7c-0.6,2.9-1,5.9-1.3,9c-0.1,1.2-0.2,2.4-0.3,3.6c-0.1,1.8-0.2,3.6-0.2,5.5v0.1v0v46.1v11.3v178.4v11.3V460
				z"/>
			<line class="st3" x1="255.3" y1="588.6" x2="255.3" y2="588.6"/>
			<polyline class="st3" points="48,381.3 80.6,413.9 88.6,421.9 214.7,548 222.7,556 255.3,588.6 			"/>
			<path class="st3" d="M44.8,377.9c1,1.2,2.1,2.3,3.1,3.3"/>
			<path class="st3" d="M35.8,366.3c0.1,0.2,0.2,0.4,0.4,0.6c0.7,1.1,1.5,2.2,2.3,3.3"/>
			<path class="st3" d="M47.9,245.8c-18.7,18.7-28,43.2-28,67.7c0,1.9,0,3.9,0.2,5.8c0,0,0,0,0,0c0.1,1.9,0.3,3.7,0.5,5.6
				c0,0.1,0,0.1,0,0.2c0.2,1.6,0.4,3.2,0.7,4.8c0.4,2.2,0.8,4.3,1.3,6.4c0.8,3,1.6,5.9,2.7,8.9c0.5,1.6,1.2,3.2,1.9,4.8
				c0.5,1.3,1.1,2.6,1.6,3.8c0.4,1,0.9,2,1.5,3c0.2,0.4,0.4,0.8,0.6,1.2c0,0,0,0.1,0.1,0.2"/>
			<path class="st3" d="M263.5,31.1c-0.7,0.5-1.4,1.1-2.1,1.7"/>
			<path class="st3" d="M270.2,26.2c-0.3,0.2-0.6,0.4-0.8,0.5c-1,0.7-2,1.4-3,2.1"/>
			<path class="st3" d="M275.4,23c-0.8,0.4-1.6,0.9-2.3,1.4"/>
			<path class="st3" d="M284.5,18.4c-0.9,0.4-1.9,0.8-2.8,1.3"/>
			<path class="st3" d="M300.3,13c-3,0.8-6,1.6-8.9,2.7c-1.1,0.4-2.2,0.8-3.3,1.2c-0.9,0.4-1.9,0.8-2.8,1.2"/>
			<path class="st3" d="M311.5,11c-1.5,0.1-3.1,0.4-4.6,0.7c-0.5,0-1.1,0.2-1.6,0.3"/>
			<path class="st3" d="M317.1,10.5c-1.7,0.1-3.5,0.3-5.2,0.5"/>
			<path class="st3" d="M322.4,10.3c-1.7,0-3.3,0.1-5,0.2"/>
			<path class="st3" d="M367.6,21.3c-5.5-2.9-11.3-5.3-17.2-7"/>
			<path class="st3" d="M387.3,34.9c-4.8-4.4-10-8.2-15.5-11.4"/>
			<path class="st3" d="M390.9,588.6c9.6-9.6,16.7-20.7,21.4-32.6c2-5.1,3.6-10.5,4.7-15.9c1.3-6.3,2-12.8,2-19.2V409.3v-56.2v-79.4
				v-56.1V106.2v0c0-6.5-0.7-12.9-2-19.3c-1.1-5.4-2.6-10.7-4.7-15.8c-4.7-11.9-11.8-23-21.4-32.6"/>
			<path class="st3" d="M387.5,591.8c1.1-1,2.2-2,3.3-3.1"/>
			<path class="st3" d="M383.6,595.2c0.2-0.1,0.3-0.3,0.5-0.4"/>
			<path class="st3" d="M376.5,600.5c1.2-0.8,2.3-1.5,3.3-2.3"/>
			<path class="st3" d="M372.7,602.9c0.8-0.5,1.6-1,2.3-1.5"/>
			<path class="st3" d="M370.8,604c0.2-0.1,0.4-0.3,0.7-0.4"/>
			<path class="st3" d="M255.4,588.7c28.7,27.5,69.6,34.8,104.1,20.8c1.4-0.6,2.8-1.2,4.3-1.9c1.4-0.6,2.8-1.3,4.2-2"/>
			<path class="st3" d="M255.3,38.4L222.7,71l-7.9,7.9L88.6,205.1l-8,8L48,245.7c0,0,0,0-0.1,0.1l0,0c-29.7,31-35.8,76.3-17.1,112.2
				c0,0.1,0.1,0.1,0.1,0.2c0.5,1,1.1,1.9,1.6,2.9c0.5,0.8,0.9,1.6,1.4,2.3c0.6,0.9,1.2,1.9,1.8,2.8c0.1,0.2,0.3,0.4,0.4,0.6
				c0.7,1.1,1.5,2.2,2.3,3.3c1,1.3,1.9,2.6,3,3.8c0.1,0.2,0.3,0.3,0.4,0.5c1,1.2,1.9,2.3,3,3.5c1,1.1,2,2.2,3.1,3.3c0,0,0,0,0.1,0.1
				c9.6,9.6,20.7,16.7,32.6,21.4c5.1,2,10.5,3.6,15.9,4.7c6.3,1.3,12.8,2,19.2,2h111.5h56.2h79.4h56.1h111.5h0
				c6.5,0,12.9-0.7,19.3-2c5.4-1.1,10.7-2.6,15.8-4.7c11.9-4.7,23-11.8,32.6-21.4c0,0,0,0,0.1-0.1"/>
			<path class="st3" d="M258.7,35.2c-1.2,1-2.3,2.1-3.3,3.1"/>
			<path class="st3" d="M272.4,24.8c-1,0.6-2,1.2-3,1.9c-2,1.3-3.9,2.7-5.8,4.3"/>
			<path class="st3" d="M390.9,38.4C390.9,38.4,390.9,38.3,390.9,38.4L390.9,38.4c-1.2-1.3-2.4-2.4-3.7-3.5
				c-4.8-4.4-10-8.2-15.5-11.4c-1.4-0.8-2.7-1.6-4.2-2.3c-5.6-3-11.3-5.3-17.2-7c-9.1-2.7-18.6-4-28-3.9c-1.7,0-3.3,0.1-5,0.2
				c-0.1,0-0.3,0-0.4,0c-1.8,0.1-3.5,0.3-5.2,0.5c-0.1,0-0.3,0-0.4,0c-1.6,0.1-3.1,0.4-4.6,0.7c-0.6,0-1.1,0.2-1.6,0.3
				c-1.7,0.3-3.3,0.7-4.9,1.1c-4.1,1-8.2,2.3-12.2,3.9c-0.9,0.4-1.9,0.7-2.8,1.2c-0.3,0.1-0.6,0.2-0.8,0.4c-0.9,0.4-1.9,0.8-2.8,1.3
				c-1.1,0.5-2.1,1-3.1,1.6c0,0-0.1,0-0.2,0.1"/>
			<path class="st3" d="M605.5,253.8c-0.5-0.7-1.1-1.4-1.7-2.1"/>
			<path class="st3" d="M612.2,263.5c-0.3-0.6-0.7-1.2-1.1-1.7c-0.4-0.7-0.8-1.3-1.3-1.9"/>
			<path class="st3" d="M615.2,268.7c-0.5-1-1-1.9-1.6-2.9"/>
			<path class="st3" d="M618.2,274.9c-0.4-0.9-0.8-1.8-1.2-2.7"/>
			<path class="st3" d="M623.3,289.7c-0.7-2.7-1.5-5.3-2.4-7.9c-0.4-1.1-0.8-2.2-1.2-3.3c-0.4-0.9-0.8-1.9-1.2-2.8"/>
			<path class="st3" d="M625.6,301.8c-0.1-1.5-0.4-2.9-0.6-4.4c-0.1-0.7-0.2-1.4-0.4-2.1"/>
			<path class="st3" d="M626.1,307.4c-0.1-1.7-0.2-3.5-0.5-5.2"/>
			<path class="st3" d="M626.3,312.8c0-1.7-0.1-3.3-0.2-5"/>
			<path class="st3" d="M615.3,358c2.9-5.5,5.3-11.3,7-17.2"/>
			<path class="st3" d="M601.7,377.7c4.3-4.8,8.2-10,11.4-15.5"/>
			<path class="st3" d="M390.8,38.3c-31-29.7-76.3-35.9-112.3-17.1c-0.1,0-0.1,0.1-0.2,0.1c-1,0.5-1.9,1.1-2.9,1.6
				c-0.8,0.5-1.6,0.9-2.3,1.4c-0.2,0.1-0.4,0.3-0.7,0.4c-0.8,0.4-1.5,0.9-2.2,1.4c-1.3,0.8-2.6,1.7-3.8,2.6c-1,0.7-1.9,1.5-2.9,2.2
				c0,0-0.1,0-0.1,0.1c-0.7,0.5-1.4,1.2-2.1,1.7c-0.9,0.8-1.8,1.5-2.7,2.3c-1.1,1-2.2,2-3.3,3.1c0,0,0,0-0.1,0.1
				c-9.6,9.6-16.7,20.7-21.4,32.6c-2,5.1-3.5,10.5-4.6,15.8c-1.3,6.3-2,12.8-2,19.3v111.5v56.2v79.4v56.1v111.5
				c0,6.5,0.7,12.9,2,19.3c1.1,5.4,2.6,10.7,4.7,15.8c0.1,0.3,0.2,0.7,0.4,1c4.7,11.5,11.6,22.2,21,31.6l0,0l0,0l0,0
				c18.9,18.7,43.3,28,67.8,28c0.2,0,0.4,0,0.6,0c1.7,0,3.4-0.1,5.1-0.2h0c1.9-0.1,3.7-0.3,5.6-0.5c0.1,0,0.1,0,0.2,0
				c1.6-0.2,3.1-0.4,4.6-0.7c0.6,0,1.2-0.2,1.8-0.3c1.6-0.3,3.2-0.6,4.9-1c3-0.8,5.9-1.6,8.9-2.7c1.1-0.4,2.2-0.8,3.3-1.2
				c0.4-0.2,0.9-0.4,1.4-0.6c0.6-0.2,1.2-0.5,1.9-0.8c0.8-0.4,1.6-0.7,2.4-1.1c0.3-0.1,0.5-0.2,0.8-0.4c1.1-0.5,2.1-1,3.2-1.6
				c0,0,0.1,0,0.2-0.1c1-0.5,1.9-1,2.9-1.6c0.2-0.1,0.4-0.2,0.7-0.4c0.4-0.2,0.8-0.5,1.3-0.8c0.8-0.4,1.6-0.9,2.3-1.5
				c0.5-0.3,1-0.6,1.4-0.9c1.1-0.7,2.2-1.5,3.3-2.3c1.3-0.9,2.6-1.9,3.8-3c0.2-0.1,0.3-0.3,0.5-0.4c1.2-1,2.3-1.9,3.5-3
				c1.1-1,2.2-2,3.3-3.1c0,0,0,0,0.1-0.1l32.6-32.6l7.9-7.9l126.1-126.1l8-8l32.6-32.6c0,0,0.1,0,0.1,0v0c1.2-1.2,2.3-2.3,3.4-3.6
				c4.4-4.8,8.2-10,11.4-15.5c0.8-1.4,1.6-2.7,2.3-4.2c3-5.6,5.3-11.3,7-17.2c2.7-9.1,4-18.6,3.9-28c0-1.7-0.1-3.3-0.2-5
				c0-0.1,0-0.3,0-0.4c-0.1-1.8-0.2-3.5-0.5-5.2c0-0.1,0-0.3,0-0.4c-0.1-1.5-0.4-2.9-0.6-4.4c-0.1-0.7-0.2-1.4-0.4-2.1
				c-0.4-1.9-0.8-3.8-1.3-5.6c-0.9-3.8-2.1-7.5-3.6-11.2c-0.4-0.9-0.8-1.9-1.2-2.8c-0.1-0.3-0.2-0.6-0.4-0.8
				c-0.4-0.9-0.8-1.8-1.2-2.7c-0.5-1.1-1.1-2.2-1.6-3.3c0-0.1-0.1-0.2-0.1-0.2c-0.5-1-1-2-1.6-2.9c-0.4-0.8-0.9-1.6-1.4-2.3
				c-0.3-0.6-0.7-1.2-1.1-1.7c-0.4-0.7-0.8-1.3-1.3-1.9c-0.7-1-1.3-2-2-3c-0.8-1-1.6-2-2.3-3c-0.5-0.7-1.2-1.4-1.7-2.1
				c-0.8-0.9-1.6-1.8-2.3-2.7c-1-1.2-2.1-2.3-3.1-3.3l0,0l0,0l-32.6-32.6l-7.9-7.9L431.5,79l-8-8L390.8,38.3
				C390.9,38.4,390.9,38.4,390.8,38.3z"/>
		</g>
	</g>
</g>
</svg>
