<?xml version="1.0" encoding="utf-8"?>
<!-- Generator: Adobe Illustrator 19.0.0, SVG Export Plug-In . SVG Version: 6.00 Build 0)  -->
<svg version="1.1" id="Layer_1" xmlns="http://www.w3.org/2000/svg" xmlns:xlink="http://www.w3.org/1999/xlink" x="0px" y="0px"
	 viewBox="0 0 18.4 17.4" style="enable-background:new 0 0 18.4 17.4;" xml:space="preserve">
<style type="text/css">
	.st0{fill:#E16A2D;}
</style>
<g id="XMLID_1355_">
	<path id="XMLID_1358_" class="st0" d="M11.1,8.6c-0.5,0.5-0.9,1.1-1.4,1.6c-1.4,1.6-2.9,3.3-4.3,4.9c-0.8,0.9-2.1,0.6-2.5-0.4
		c-0.2-0.6-0.1-1.3,0.4-1.7c2.1-1.8,4.2-3.7,6.3-5.5c0.1-0.1,0.2-0.1,0.3-0.2c0,0-0.1-0.1-0.1-0.1C9.1,6.5,9,5.6,9.4,4.8
		c0.1-0.2,0.3-0.4,0.5-0.6c1.1-0.8,2.3-1.6,3.4-2.4c0.2-0.1,0.4-0.1,0.5,0c0.2,0.2,0.2,0.4,0,0.6c-0.6,0.7-1.2,1.3-1.7,2
		c-0.3,0.3-0.5,0.6-0.8,0.9c-0.2,0.2-0.2,0.3,0,0.5c0.1,0.1,0.3,0.1,0.5,0c0.9-0.8,1.9-1.7,2.8-2.5C14.8,3,15,3,15.1,3.1
		c0.2,0.1,0.3,0.3,0.2,0.5c0,0.1-0.1,0.2-0.1,0.2c-0.8,0.9-1.7,1.8-2.5,2.7c-0.2,0.2-0.1,0.5,0.1,0.6c0.1,0,0.2,0,0.3-0.1
		c0.8-0.7,1.7-1.5,2.5-2.2c0.1-0.1,0.2-0.2,0.3-0.3c0.2-0.2,0.4-0.2,0.6,0c0.2,0.2,0.2,0.4,0.1,0.6c-0.7,0.9-1.3,1.9-2,2.8
		c-0.1,0.2-0.2,0.3-0.3,0.5c-0.6,0.8-1.6,1.1-2.5,0.6C11.5,8.9,11.3,8.7,11.1,8.6z"/>
	<path id="XMLID_1357_" class="st0" d="M8.4,7.5C7.9,7.8,7.5,8.2,7.1,8.6C6.8,8.9,6.6,8.9,6.2,8.7c-1-0.4-2-1-2.8-1.8
		C2.6,6,2.1,5,1.8,3.9C1.7,3.4,1.7,2.9,1.7,2.5c0-0.3,0-0.5,0.3-0.7c0.2-0.1,0.3-0.1,0.5,0C2.6,1.9,2.8,2,2.9,2.1
		C3.9,3.1,4.8,4,5.8,5c0.8,0.8,1.5,1.5,2.3,2.3C8.2,7.3,8.3,7.4,8.4,7.5z"/>
	<path id="XMLID_1356_" class="st0" d="M9.3,11.9c0.6-0.6,1.1-1.3,1.6-1.9c0.3,0.3,0.6,0.6,0.9,0.9c0.7,0.7,1.5,1.4,2.2,2.2
		c0.5,0.5,0.6,1.1,0.4,1.7c-0.2,0.6-0.8,1-1.5,0.9c-0.5,0-0.9-0.2-1.2-0.6c-0.8-1-1.6-2-2.4-3.1C9.4,12,9.3,12,9.3,11.9z"/>
</g>
</svg>
