<?xml version="1.0" encoding="utf-8"?>
<!-- Generator: Adobe Illustrator 19.0.0, SVG Export Plug-In . SVG Version: 6.00 Build 0)  -->
<svg version="1.1" id="Layer_1" xmlns="http://www.w3.org/2000/svg" xmlns:xlink="http://www.w3.org/1999/xlink" x="0px" y="0px"
	 viewBox="0 0 72 80.7" style="enable-background:new 0 0 72 80.7;" xml:space="preserve">
<style type="text/css">
	.st0{fill:#FFFFFF;}
</style>
<g id="XMLID_10457_">
	<path class="st0" id="XMLID_10491_" d="M34,67.5C19.1,67.6,6.9,55.3,6.8,40.4c0-15,12.1-27.2,27.1-27.2c14.9-0.1,27.2,12.1,27.2,27.1
		C61.2,55.3,49.1,67.4,34,67.5z M10.6,40.3c-0.1,12.8,10.4,23.3,23.3,23.4c12.9,0.1,23.4-10.3,23.5-23.2
		C57.5,27.6,47.1,17,34.2,16.9C21.2,16.8,10.7,27.2,10.6,40.3z"/>
	<path class="st0" id="XMLID_10487_" d="M31.2,35.2c0-2.8,0-5.5,0-8.3c0-0.8,0.4-1.3,1-1.6c0.6-0.2,1.4-0.1,1.7,0.5c0.2,0.3,0.4,0.8,0.4,1.2
		c0,2.8,0,5.7,0,8.5c0,1.8,0,3.5,0,5.3c0,0.5,0.2,0.7,0.7,0.7c3.2,0,6.4,0,9.6,0c1.5,0,2.5,1.3,2.1,2.7c-0.3,0.9-1,1.5-2,1.5
		c-3.8,0-7.6,0-11.4,0c-1.2,0-2.2-1.1-2.2-2.3C31.2,40.7,31.2,37.9,31.2,35.2C31.2,35.2,31.2,35.2,31.2,35.2z"/>
</g>
</svg>
