<?xml version="1.0" encoding="utf-8"?>
<!-- Generator: Adobe Illustrator 20.0.0, SVG Export Plug-In . SVG Version: 6.00 Build 0)  -->
<!DOCTYPE svg PUBLIC "-//W3C//DTD SVG 1.1//EN" "http://www.w3.org/Graphics/SVG/1.1/DTD/svg11.dtd">
<svg version="1.1" id="Layer_1" xmlns="http://www.w3.org/2000/svg" xmlns:xlink="http://www.w3.org/1999/xlink" x="0px" y="0px"
	 viewBox="0 0 51.8 41.5" enable-background="new 0 0 51.8 41.5" xml:space="preserve">
<g>
	<path fill="#FFFFFF" d="M42,1.1c-1.3-0.1-1.9,1.6-2.1,2.5c-2.1,6.4-18.1,9.2-24.6,9.8v-0.3c0-0.5-0.4-0.9-0.9-0.9H5.1
		c-0.4,0-0.8,0.3-0.9,0.7l-0.3,1.2H2.4c-0.8,0-1.5,0.6-1.7,1.4l0,0.1c-0.6,2.4-0.6,5,0,7.4c0.2,0.8,0.9,1.4,1.7,1.4h1.5c0,0,0,0,0,0
		l0.3,1.2c0.1,0.4,0.5,0.7,0.9,0.7h0.8l5,13.5c0.2,0.6,0.8,1,1.4,1h5.2c0.5,0,0.9-0.2,1.2-0.6c0.3-0.4,0.3-0.9,0.2-1.3l-4.6-12.5
		h0.2c0.5,0,0.9-0.4,0.9-0.9v-0.3c6.4,0.6,22.5,3.3,24.6,9.8c0.3,0.8,0.8,2.5,2,2.5c0,0,0.1,0,0.1,0c1.1-0.1,1.9-1.3,2.7-7.1
		c1-7.3,1-14.8,0-22.1C43.9,2.4,43.1,1.2,42,1.1z M5.8,14h7.7v10.5h-0.6H6.5H5.8L5.7,24c-0.7-3-0.7-6.2,0-9.2L5.8,14z M2.5,22.6
		C2,20.4,2,18.2,2.5,16l0-0.1h1c-0.3,2.2-0.3,4.4,0,6.6H2.5z M16.9,39h-4.4L7.8,26.4h4.4L16.9,39z M42.9,30.1c-0.4,3-0.8,4.4-1,5.1
		c-0.1-0.2-0.2-0.4-0.3-0.7c-2.8-8.7-23.9-10.8-26.3-11.1v-8.2c2.4-0.2,23.5-2.3,26.3-11.1c0.1-0.3,0.2-0.5,0.3-0.7
		c0.3,0.7,0.6,2.1,1,5.1C43.9,15.6,43.9,22.9,42.9,30.1z"/>
	<path fill="#FFFFFF" d="M50.1,9c-0.1-0.5-0.6-0.8-1.1-0.6c-0.5,0.1-0.8,0.6-0.6,1.1c0,0.1,2.4,8.7,0,19.6c-0.1,0.5,0.2,1,0.7,1.1
		c0.1,0,0.1,0,0.2,0c0.4,0,0.8-0.3,0.9-0.7C52.6,18.1,50.2,9.3,50.1,9z"/>
</g>
</svg>
