<?xml version="1.0" encoding="utf-8"?>
<!-- Generator: Adobe Illustrator 20.0.0, SVG Export Plug-In . SVG Version: 6.00 Build 0)  -->
<!DOCTYPE svg PUBLIC "-//W3C//DTD SVG 1.1//EN" "http://www.w3.org/Graphics/SVG/1.1/DTD/svg11.dtd">
<svg version="1.1" id="Layer_1" xmlns="http://www.w3.org/2000/svg" xmlns:xlink="http://www.w3.org/1999/xlink" x="0px" y="0px"
	 viewBox="0 0 51.5 39.3" enable-background="new 0 0 51.5 39.3" xml:space="preserve">
<g>
	<path fill="#FCFCFC" stroke="#FFFFFF" stroke-miterlimit="10" d="M34.7,17.7c2.8,0,5-2.2,5-5s-2.2-5-5-5c-2.8,0-5,2.2-5,5
		S31.9,17.7,34.7,17.7z M34.7,9.6c1.7,0,3.1,1.4,3.1,3.1s-1.4,3.1-3.1,3.1c-1.7,0-3.1-1.4-3.1-3.1S33,9.6,34.7,9.6z"/>
	<path fill="#FCFCFC" stroke="#FFFFFF" stroke-miterlimit="10" d="M46.7,0.7h-42c-2.2,0-4,1.8-4,4v30c0,2.2,1.8,4,4,4h42
		c2.2,0,4-1.8,4-4v-30C50.7,2.5,48.9,0.7,46.7,0.7z M4.7,2.7h42c1.1,0,2,0.9,2,2v22.2l-8.9-5.5c-0.6-0.4-1.4-0.7-2.1-0.7
		c-0.8,0-1.5,0.2-2.1,0.5l-7.2,3.9c-0.4,0.2-0.8,0.2-1.1-0.1l-8.1-6.5c-0.7-0.6-1.6-0.9-2.4-0.9c-0.9,0-1.8,0.3-2.5,0.8L2.7,26.8
		V4.7C2.7,3.6,3.6,2.7,4.7,2.7z M46.7,36.7h-42c-1.1,0-2-0.9-2-2v-5.5l12.7-9.1c0.4-0.3,0.8-0.4,1.2-0.4c0.5,0,0.9,0.2,1.2,0.5
		l8.1,6.5c0.9,0.8,2.2,0.9,3.3,0.3l7.2-4c0.3-0.2,0.7-0.3,1.1-0.3c0.4,0,0.7,0.1,1.1,0.4l9.9,6.2v5.4C48.7,35.8,47.8,36.7,46.7,36.7
		z"/>
</g>
</svg>
