<?xml version="1.0" encoding="utf-8"?>
<!-- Generator: Adobe Illustrator 19.0.0, SVG Export Plug-In . SVG Version: 6.00 Build 0)  -->
<svg version="1.1" id="Layer_1" xmlns="http://www.w3.org/2000/svg" xmlns:xlink="http://www.w3.org/1999/xlink" x="0px" y="0px"
	 viewBox="0 0 18.4 17.4" style="enable-background:new 0 0 18.4 17.4;" xml:space="preserve">
<style type="text/css">
	.st0{fill:#00BFD6;}
</style>
<g id="XMLID_1564_">
	<path id="XMLID_1133_" class="st0" d="M1.9,8.8V8.2c0-0.9,0.5-1.6,1-1.6h4.9c0.6,0,1,0.7,1,1.6v0.6h0.7V8.2c0-0.9,0.5-1.6,1-1.6
		h4.9c0.6,0,1,0.7,1,1.6v0.6h0.8c0.2,0,0.5,0.1,0.6,0.2V5.8c0-0.5-0.4-1-1-1H1.5c-0.5,0-1,0.4-1,1V9c0.2-0.1,0.4-0.2,0.6-0.2H1.9z"
		/>
	<polygon id="XMLID_1132_" class="st0" points="17.8,11.9 0.5,11.9 0.2,11.9 0.2,13.4 0.2,13.7 0.2,14.7 2.6,14.7 2.6,13.7 
		15.8,13.7 15.8,14.7 18.2,14.7 18.2,13.7 18.2,13.4 18.2,11.9 	"/>
	<path id="XMLID_1131_" class="st0" d="M17.8,10.3c0-0.6-0.5-1-1-1H1.5c-0.6,0-1,0.5-1,1v1.2h17.3V10.3z"/>
</g>
</svg>
