<?xml version="1.0" encoding="utf-8"?>
<!-- Generator: Adobe Illustrator 19.2.1, SVG Export Plug-In . SVG Version: 6.00 Build 0)  -->
<svg version="1.1" id="Layer_1" xmlns="http://www.w3.org/2000/svg" xmlns:xlink="http://www.w3.org/1999/xlink" x="0px" y="0px"
	 viewBox="0 0 642 627.3" style="enable-background:new 0 0 642 627.3;" xml:space="preserve">
<style type="text/css">
	.st0{opacity:0.8;}
	.st1{fill:#FFFFFF;}
	.st2{fill:none;stroke:#FFFFFF;stroke-width:5;stroke-miterlimit:10;}
	.st3{opacity:0.2;}
</style>
<g>
	<g id="XMLID_9860_">
		<g id="XMLID_9880_">
		</g>
		<g id="XMLID_9881_">
		</g>
	</g>
	<g>
		<g id="XMLID_10065_" class="st0">
			<g id="XMLID_8444_">
				<path class="st1" d="M416,409.5v111.3c0,6.5-0.7,12.9-2,19.2c-5.4-3.5-10.4-7.7-14.9-12.2l-78.7-78.7l39.6-39.6H416z"/>
				<path class="st1" d="M241.5,99.8l78.7,78.7l-39.6,39.6h-56V106.8c0-6.5,0.7-12.9,2-19.2C232,91.2,237,95.3,241.5,99.8z"/>
			</g>
			<g id="XMLID_8445_">
			</g>
		</g>
		<g id="XMLID_8490_">
			<g id="XMLID_8432_">
				<path class="st1" d="M554.4,422L428.5,547.9c-5.1-2.2-9.9-4.9-14.5-7.9c1.3-6.3,2-12.7,2-19.2V409.5h111.3h0
					c6.5,0,12.9-0.7,19.2-2C549.6,412.1,552.2,416.9,554.4,422z"/>
				<path class="st1" d="M534.4,392.5c4.6,4.6,8.7,9.6,12.2,14.9c-6.3,1.3-12.8,2-19.2,2h0H416v-56.1l39.6-39.6L534.4,392.5z"/>
				<path class="st1" d="M527.3,218.1c6.5,0,12.9,0.7,19.2,2c-3.6,5.4-7.7,10.4-12.2,14.9l-78.7,78.7L416,274.2v-56H527.3z"/>
				<polygon class="st1" points="416,353.4 416,409.5 360,409.5 				"/>
				<polygon class="st1" points="416,218.1 416,274.2 359.9,218.1 				"/>
				<polygon class="st1" points="280.7,409.5 224.6,409.5 224.6,353.4 				"/>
				<polygon class="st1" points="280.7,218.1 224.6,274.2 224.6,218.1 				"/>
				<path class="st1" d="M226.6,87.5c-1.3,6.3-2,12.8-2,19.2v111.3H113.3c-6.5,0-12.9,0.7-19.3,2c-3-4.6-5.7-9.5-7.8-14.5
					L212.1,79.7C217.2,81.9,222.1,84.5,226.6,87.5z"/>
				<path class="st1" d="M224.6,353.4v56H113.3c-6.5,0-12.9-0.7-19.2-2c3.5-5.4,7.7-10.4,12.2-14.9l78.7-78.7L224.6,353.4z"/>
				<path class="st1" d="M224.6,218.1v56.1L185,313.8l-78.8-78.8c-4.5-4.6-8.6-9.6-12.2-14.9c6.4-1.3,12.8-2,19.3-2H224.6z"/>
			</g>
			<g id="XMLID_8433_">
				<path class="st2" d="M489.7,74.5c-1-0.3-1.9-0.5-2.9-0.7"/>
				<path class="st2" d="M491.6,75.1c-0.4-0.1-0.7-0.2-1-0.3"/>
				<path class="st2" d="M495.1,76c-1-0.3-2-0.6-3-0.8"/>
				<path class="st2" d="M499.6,77.5c-0.2,0-0.4-0.1-0.5-0.2"/>
				<path class="st2" d="M508.2,81.2c-1.3-0.6-2.7-1.2-4.1-1.8"/>
				<path class="st2" d="M521.2,88.8c-1.6-1.1-3.2-2.2-4.9-3.2"/>
				<path class="st2" d="M527.2,93.3c-0.7-0.6-1.4-1.1-2.1-1.6c-1.1-0.9-2.2-1.7-3.3-2.5"/>
				<path class="st2" d="M538.8,104.6c-1.2-1.4-2.4-2.7-3.7-4c-0.4-0.4-0.7-0.7-1-1c-1-1.1-2-2-3.1-3"/>
				<path class="st2" d="M549.5,119.5c-0.9-1.6-1.9-3.3-3-4.9c-1.1-1.7-2.3-3.3-3.5-5c-1-1.4-2.1-2.7-3.2-4"/>
				<path class="st2" d="M556.6,134.5c-0.5-1.3-1-2.6-1.5-3.8"/>
				<path class="st2" d="M561.8,157.1c-0.1-1.3-0.3-2.6-0.5-3.9"/>
				<path class="st2" d="M562.2,162.4c0-1.4-0.2-2.7-0.3-4.1"/>
				<path class="st2" d="M562.4,167.4c0-1.6,0-3.2-0.1-4.8"/>
				<path class="st2" d="M561.9,469.3c0.1-1.2,0.2-2.4,0.3-3.6"/>
				<path class="st2" d="M559.5,483.5c0.3-1.1,0.5-2.2,0.8-3.3"/>
				<path class="st2" d="M556.6,493.1c0,0,0-0.1,0-0.1c0.1-0.1,0.1-0.2,0.2-0.4"/>
				<path class="st2" d="M552.9,501.7c0.7-1.3,1.2-2.7,1.8-4.1"/>
				<path class="st2" d="M545.3,514.7c1.1-1.6,2.2-3.2,3.2-4.9"/>
				<path class="st2" d="M540.8,520.7c0.6-0.7,1.1-1.4,1.6-2.1c0.9-1.1,1.7-2.2,2.5-3.3"/>
				<path class="st2" d="M529.5,532.3c1.4-1.2,2.7-2.4,4-3.7c1.4-1.3,2.7-2.7,4-4.1"/>
				<path class="st2" d="M519.6,539.9c1.5-1,2.9-2,4.3-3.1"/>
				<path class="st2" d="M504.2,548.2c1.3-0.5,2.7-1.1,3.9-1.8c1.4-0.7,2.8-1.4,4.1-2.1c0.7-0.4,1.4-0.7,2-1.1
					c0.4-0.2,0.8-0.4,1.1-0.7c1.1-0.7,2.3-1.4,3.4-2.2"/>
				<path class="st2" d="M499.6,550c1.3-0.4,2.6-1,3.8-1.5"/>
				<path class="st2" d="M477.1,555.3c1.3-0.1,2.6-0.3,3.9-0.5"/>
				<path class="st2" d="M471.7,555.7c1.4,0,2.7-0.2,4.1-0.3"/>
				<path class="st2" d="M466.8,555.8c1.6,0,3.2,0,4.7-0.1"/>
				<path class="st2" d="M78.3,167.5c0,13.5,2.8,26.4,8,38c2.2,5.1,4.8,9.9,7.8,14.5c3.6,5.4,7.7,10.4,12.2,14.9l78.8,78.8
					l39.6,39.6l56.1,56l39.6,39.6l78.7,78.7c4.6,4.6,9.6,8.7,14.9,12.2c4.6,3.1,9.4,5.7,14.5,7.9c0.3,0.1,0.6,0.3,0.9,0.4
					c11.4,4.9,24,7.5,37.1,7.5"/>
				<path class="st2" d="M80.1,148.7c0,0.2-0.1,0.4-0.1,0.7"/>
				<path class="st2" d="M81.2,143.7c-0.3,1.2-0.6,2.4-0.8,3.6"/>
				<path class="st2" d="M81.7,142c0,0.2-0.1,0.3-0.1,0.5"/>
				<path class="st2" d="M173.9,71.7c-41.2,0.8-76.4,26.5-89.8,62.9c-0.5,1.5-1,2.9-1.5,4.4"/>
				<polyline class="st2" points="562.4,460.1 562.4,414.1 562.4,402.8 562.4,224.7 562.4,213.5 562.4,167.5 				"/>
				<path class="st2" d="M466.8,555.8c1.6,0,3.2,0,4.7-0.1c0,0,0.1,0,0.1,0c1.4,0,2.7-0.2,4.1-0.3c0.4,0,0.9-0.1,1.3-0.1
					c1.3-0.1,2.6-0.3,3.9-0.5c6.5-1,12.7-2.6,18.6-4.7c1.3-0.5,2.6-1,3.8-1.5c0.3-0.1,0.5-0.2,0.8-0.4c1.3-0.6,2.6-1.1,3.9-1.8
					c1.4-0.7,2.7-1.4,4.1-2.1c1.1-0.6,2.1-1.2,3.2-1.8c1.1-0.7,2.3-1.4,3.4-2.2c0.2-0.1,0.4-0.3,0.7-0.4c1.5-1,2.9-2,4.3-3.1
					c1.9-1.5,3.8-3,5.6-4.6c1.4-1.2,2.7-2.4,4-3.7c1.4-1.3,2.7-2.7,4-4.1c1.1-1.2,2.2-2.5,3.2-3.8c0.6-0.7,1.1-1.4,1.6-2.1
					c0.9-1.1,1.7-2.2,2.5-3.3c0.1-0.2,0.3-0.4,0.4-0.7c1.1-1.6,2.2-3.2,3.2-4.9c1.6-2.7,3.1-5.4,4.4-8.1c0.6-1.3,1.2-2.7,1.8-4.1
					c0.7-1.5,1.2-3,1.8-4.5c0-0.2,0.1-0.4,0.2-0.5c0.5-1.3,0.9-2.7,1.3-4.1c0.4-1.3,0.8-2.6,1.1-3.9"/>
				<path class="st2" d="M164.8,555.4c1.2,0.1,2.4,0.2,3.6,0.3"/>
				<path class="st2" d="M150.6,553c1.1,0.3,2.2,0.5,3.3,0.8"/>
				<path class="st2" d="M141,550c0,0,0.1,0,0.1,0c0.1,0.1,0.2,0.1,0.4,0.2"/>
				<path class="st2" d="M132.4,546.4c1.3,0.6,2.7,1.2,4.1,1.8"/>
				<path class="st2" d="M113.3,534.2c1.1,0.9,2.2,1.8,3.4,2.6c1.2,0.9,2.4,1.8,3.7,2.7"/>
				<path class="st2" d="M100.6,521.6c0.5,0.6,1,1.1,1.5,1.7c0.8,1,1.7,1.9,2.6,2.9"/>
				<path class="st2" d="M85.9,497.7c1.1,2.8,2.4,5.5,3.9,8.1c0.4,0.7,0.7,1.4,1.1,2c0.3,0.5,0.6,1.1,1,1.6"/>
				<path class="st2" d="M84.1,493c0.4,1.3,1,2.6,1.5,3.8"/>
				<path class="st2" d="M78.8,470.5c0.1,1.3,0.3,2.6,0.5,3.9"/>
				<path class="st2" d="M78.4,465.1c0,1.4,0.2,2.7,0.3,4.1"/>
				<path class="st2" d="M78.3,460.3c0,1.6,0,3.2,0.1,4.7"/>
				<path class="st2" d="M466.6,71.7c-13.5,0-26.4,2.8-38,8c-5.1,2.2-9.9,4.8-14.5,7.8c-5.4,3.5-10.4,7.7-14.9,12.2l-78.8,78.8
					l-39.6,39.6l-56,56.1L185,313.8l-78.7,78.7c-4.6,4.5-8.7,9.6-12.2,14.9c-3.1,4.6-5.7,9.4-7.9,14.5c-0.1,0.3-0.3,0.6-0.4,0.9
					c-4.9,11.4-7.5,24-7.5,37.1"/>
				<path class="st2" d="M475.8,72.2c-1.2-0.1-2.4-0.2-3.6-0.3"/>
				<path class="st2" d="M485.5,73.6c-0.2,0-0.4-0.1-0.7-0.1"/>
				<path class="st2" d="M490.4,74.7c-1.2-0.3-2.4-0.6-3.6-0.8"/>
				<path class="st2" d="M492.1,75.2c-0.2,0-0.3-0.1-0.5-0.1"/>
				<path class="st2" d="M562.4,167.4c-0.8-41.3-26.5-76.4-62.9-89.8c-1.5-0.5-2.9-1-4.4-1.5"/>
				<path class="st2" d="M355.2,609.9c1.1-0.4,2.2-0.8,3.2-1.3c1.1-0.4,2.2-0.9,3.2-1.5"/>
				<path class="st2" d="M343.1,613.8c3-0.8,5.9-1.6,8.8-2.7"/>
				<path class="st2" d="M331.9,615.8c1.5-0.2,3.1-0.4,4.6-0.7c0.6,0,1.2-0.2,1.8-0.3"/>
				<path class="st2" d="M326.1,616.3c1.9-0.1,3.7-0.3,5.6-0.5"/>
				<path class="st2" d="M321,616.5c1.7,0,3.4-0.1,5.1-0.2"/>
				<path class="st2" d="M39.1,374.2c0.1,0.2,0.3,0.3,0.4,0.5"/>
				<path class="st2" d="M30.3,361.4c0.4,0.8,0.9,1.6,1.4,2.3"/>
				<path class="st2" d="M24.8,350.3c0.5,1.3,1.1,2.6,1.6,3.8c0.5,1,0.9,2,1.5,3"/>
				<path class="st2" d="M20.3,336.6c0.8,3,1.6,5.9,2.7,8.8"/>
				<path class="st2" d="M18.3,325.4c0.2,1.6,0.4,3.2,0.7,4.8"/>
				<path class="st2" d="M17.8,319.6c0.1,1.9,0.3,3.7,0.5,5.6"/>
				<path class="st2" d="M17.6,313.8c0,1.9,0,3.8,0.2,5.7"/>
				<path class="st2" d="M594.9,246.1c-9.6-9.6-20.7-16.7-32.5-21.4c-5.1-2-10.4-3.5-15.8-4.6c-6.3-1.3-12.8-2-19.2-2H416h-56.1
					h-79.2h-56H113.3c-6.5,0-12.9,0.7-19.3,2c-5.4,1.1-10.7,2.6-15.8,4.6c-0.3,0.1-0.7,0.2-1,0.4c-11.5,4.7-22.2,11.7-31.6,21"/>
				<path class="st2" d="M598.1,249.5c-1-1.1-2-2.2-3.1-3.3"/>
				<path class="st2" d="M606.6,260.2c-0.7-1-1.4-2-2-3"/>
				<path class="st2" d="M595,381.4c29.7-31,35.8-76.2,17.1-112.1c0-0.1-0.1-0.1-0.1-0.2"/>
				<path class="st2" d="M174,555.8h46h11.2h178.1h11.2h46c0,0,0.1,0,0.1,0s0,0,0.1,0c41.3-0.9,76.4-26.5,89.8-62.9
					c0.5-1.5,1-2.9,1.5-4.4c0.4-1.3,0.8-2.6,1.1-3.9c0.1-0.4,0.2-0.8,0.3-1.1c0.3-1.1,0.5-2.2,0.8-3.3c0.8-3.5,1.3-7.2,1.7-10.9
					c0.1-1.2,0.2-2.4,0.3-3.6c0.1-1.8,0.2-3.6,0.2-5.5c0,0,0-0.1,0-0.1c0-13.5-2.8-26.4-8-38c-2.2-5.1-4.8-9.9-7.8-14.5
					c-3.5-5.4-7.7-10.4-12.2-14.9l-78.8-78.8L416,274.2l-56.1-56l-39.6-39.6l-78.7-78.7c-4.5-4.6-9.6-8.7-14.9-12.2
					c-4.6-3-9.4-5.7-14.5-7.9c-0.3-0.1-0.6-0.3-0.9-0.4c-11.4-4.8-24-7.5-37.1-7.5"/>
				<path class="st2" d="M78.3,460.3c0,1.6,0,3.2,0.1,4.7c0,0,0,0.1,0,0.1c0.1,1.4,0.2,2.7,0.3,4.1c0,0.4,0.1,0.9,0.1,1.3
					c0.1,1.3,0.3,2.6,0.5,3.9c1,6.5,2.6,12.7,4.7,18.6c0.5,1.3,1,2.6,1.5,3.8c0.1,0.3,0.2,0.5,0.4,0.8c1.1,2.7,2.5,5.4,3.9,8.1
					c0.7,1.2,1.4,2.5,2.1,3.7c2.6,4.3,5.5,8.4,8.7,12.2c0.5,0.6,1,1.1,1.5,1.7c0.8,1,1.7,1.9,2.6,2.9c2.7,2.9,5.6,5.5,8.6,8
					c1.1,0.9,2.2,1.8,3.4,2.6c1.2,0.9,2.5,1.8,3.7,2.7c3.8,2.6,7.9,4.9,12,6.9c1.3,0.6,2.7,1.2,4.1,1.8c1.5,0.7,3,1.2,4.5,1.8
					c0.2,0,0.4,0.1,0.5,0.2c1.3,0.5,2.7,0.9,4.1,1.3c1.3,0.4,2.6,0.8,3.9,1.1"/>
				<path class="st2" d="M78.7,158.3c-0.1,1.2-0.2,2.4-0.3,3.6"/>
				<path class="st2" d="M81.1,144.4c-0.3,1-0.5,1.9-0.7,2.9"/>
				<path class="st2" d="M81.6,142.5c-0.1,0.3-0.2,0.7-0.3,1"/>
				<path class="st2" d="M82.6,139C82.6,139,82.6,139,82.6,139c-0.3,1.1-0.6,2-0.8,3"/>
				<path class="st2" d="M84.1,134.5c0,0,0,0.1,0,0.1c-0.1,0.1-0.1,0.3-0.2,0.4"/>
				<path class="st2" d="M87.7,125.9c-0.6,1.3-1.2,2.7-1.8,4.1"/>
				<path class="st2" d="M99.9,106.8c-0.9,1.1-1.8,2.2-2.6,3.4c-0.9,1.2-1.8,2.4-2.7,3.7"/>
				<path class="st2" d="M125.7,84.8c-1.5,0.9-3.1,1.9-4.6,2.8c-1.7,1.1-3.4,2.3-5,3.5c-1.3,1-2.6,2-3.8,3.1
					c-0.5,0.4-1.1,0.9-1.6,1.4c-1,0.8-1.9,1.7-2.9,2.6"/>
				<path class="st2" d="M141.1,77.5c-1.3,0.5-2.6,1-3.8,1.5"/>
				<path class="st2" d="M163.6,72.3c-1.3,0.1-2.6,0.3-3.9,0.5"/>
				<path class="st2" d="M169,71.9c-1.4,0-2.7,0.2-4.1,0.3"/>
				<line class="st2" x1="173.9" y1="71.7" x2="169.1" y2="71.9"/>
				<path class="st2" d="M78.3,460.1c0,0,0,0.1,0,0.1s0,0,0,0.1c0.9,41.2,26.5,76.4,62.9,89.8c1.5,0.5,2.9,1,4.4,1.5
					c1.3,0.4,2.6,0.8,3.9,1.1c0.4,0.1,0.8,0.2,1.1,0.3c1.1,0.3,2.2,0.5,3.3,0.8c3.5,0.8,7.2,1.3,10.9,1.7c1.2,0.1,2.4,0.2,3.6,0.3
					c1.8,0.1,3.6,0.2,5.5,0.2c0,0,0.1,0,0.1,0c13.5,0,26.4-2.8,38-8c5.1-2.2,9.9-4.8,14.5-7.8c5.4-3.6,10.4-7.7,14.9-12.2l78.8-78.8
					l39.6-39.6l56-56.1l39.6-39.6l78.7-78.7c4.6-4.6,8.7-9.6,12.2-14.9c3-4.6,5.7-9.4,7.9-14.5c0.1-0.3,0.3-0.6,0.4-0.9
					c4.8-11.4,7.5-24,7.5-37.1c0,0,0-0.1,0-0.1v0c0-1.6,0-3.2-0.1-4.8v-0.1c0-1.4-0.2-2.7-0.3-4.1l-0.1-1.3
					c-0.1-1.3-0.3-2.6-0.5-3.9l-4.7-18.6c-0.5-1.3-1-2.6-1.5-3.8l-5.4-10.9c0-0.1-0.1-0.2-0.2-0.3c-0.9-1.7-1.9-3.3-3-4.9
					c-1.1-1.7-2.3-3.4-3.5-5c-1-1.4-2.1-2.7-3.2-4c-0.3-0.4-0.6-0.8-0.9-1.1c-1.2-1.4-2.4-2.7-3.7-4c-0.4-0.4-0.7-0.7-1-1
					c-1-1-2-2-3.1-3c-1.2-1.1-2.5-2.2-3.8-3.2c-0.7-0.6-1.4-1.1-2.1-1.6c-1.1-0.9-2.2-1.7-3.3-2.5c-0.2-0.2-0.4-0.3-0.7-0.4
					c-1.6-1.1-3.2-2.2-4.9-3.2c-2.7-1.6-5.4-3.1-8.1-4.4c-1.3-0.7-2.7-1.2-4.1-1.8c-1.5-0.7-3-1.2-4.5-1.8c0,0-0.1,0-0.1,0
					c-0.1-0.1-0.3-0.1-0.4-0.2c-1.3-0.5-2.6-0.9-3.9-1.3c0,0,0,0-0.1,0c-1-0.3-1.9-0.6-2.9-0.8c-0.1-0.1-0.3-0.1-0.5-0.1
					c-0.3-0.1-0.7-0.2-1-0.3c0,0-0.1,0-0.2,0c-0.2,0-0.4-0.1-0.7-0.2c-1-0.3-1.9-0.5-2.9-0.7c-0.4-0.1-0.9-0.2-1.3-0.3
					c-0.2,0-0.4-0.1-0.7-0.1c-2.9-0.6-5.9-1-9-1.3c-1.2-0.1-2.4-0.2-3.6-0.3c-1.8-0.1-3.6-0.2-5.5-0.2c0,0-0.1,0-0.1,0h0h-46h-11.2
					H231.2H220h-46h0c0,0,0,0,0,0c0,0,0,0-0.1,0c-1.6,0-3.2,0-4.8,0.1c0,0-0.1,0-0.1,0c-1.4,0.1-2.7,0.2-4.1,0.3
					c-0.4,0-0.9,0.1-1.3,0.1c-1.3,0.1-2.6,0.3-3.9,0.5c-6.5,1-12.7,2.6-18.6,4.7c-1.3,0.5-2.6,1-3.8,1.5c-4,1.6-7.8,3.6-11.5,5.7
					c-1.5,0.9-3.1,1.8-4.6,2.8c-1.7,1.1-3.4,2.3-5,3.5c-1.3,1-2.6,2-3.8,3.1c-0.5,0.4-1.1,0.9-1.6,1.4c-1,0.8-1.9,1.7-2.9,2.6
					c-2.9,2.7-5.5,5.6-8,8.6c-0.9,1.1-1.8,2.2-2.6,3.4c-0.9,1.2-1.8,2.5-2.7,3.7c-2.6,3.8-4.9,7.9-6.9,12c-0.6,1.3-1.2,2.7-1.8,4.1
					c-0.7,1.5-1.2,3-1.8,4.5c0,0.2-0.1,0.4-0.2,0.5c-0.5,1.3-0.9,2.6-1.3,3.9c-0.3,1-0.6,2-0.8,3c-0.1,0.2-0.1,0.4-0.1,0.5
					c-0.1,0.4-0.2,0.7-0.3,1c0,0.1,0,0.2,0,0.2c-0.1,0.2-0.1,0.5-0.2,0.7c-0.3,1-0.5,1.9-0.7,2.9c-0.1,0.4-0.2,0.9-0.3,1.3
					c0,0.2-0.1,0.4-0.1,0.7c-0.6,2.9-1,5.9-1.3,9c-0.1,1.2-0.2,2.4-0.3,3.6c-0.1,1.8-0.2,3.6-0.2,5.5v0.1v0v46v11.2v178.1v11.2
					V460.1z"/>
				<line class="st2" x1="252.6" y1="588.4" x2="252.7" y2="588.5"/>
				<polyline class="st2" points="45.7,381.5 78.3,414.1 86.2,422 212.1,547.9 220,555.8 252.6,588.4 				"/>
				<path class="st2" d="M42.5,378.1c1,1.1,2.1,2.3,3.1,3.3"/>
				<path class="st2" d="M33.5,366.5c0.1,0.2,0.2,0.4,0.4,0.6c0.7,1.1,1.5,2.2,2.3,3.3"/>
				<path class="st2" d="M45.6,246.2c-18.7,18.7-28,43.2-28,67.6c0,1.9,0,3.8,0.2,5.7c0,0,0,0,0,0c0.1,1.9,0.3,3.7,0.5,5.6
					c0,0.1,0,0.1,0,0.2c0.2,1.6,0.4,3.2,0.7,4.8c0.4,2.2,0.8,4.3,1.3,6.4c0.8,3,1.6,5.9,2.7,8.8c0.5,1.6,1.1,3.2,1.9,4.8
					c0.5,1.3,1.1,2.6,1.6,3.8c0.4,1,0.9,2,1.5,3c0.2,0.4,0.4,0.8,0.6,1.2c0,0,0,0.1,0.1,0.2"/>
				<path class="st2" d="M260.8,31.9c-0.7,0.5-1.4,1.1-2.1,1.7"/>
				<path class="st2" d="M267.5,27c-0.3,0.2-0.6,0.4-0.8,0.5c-1,0.7-2,1.4-3,2.1"/>
				<path class="st2" d="M272.7,23.8c-0.8,0.4-1.6,0.9-2.3,1.4"/>
				<path class="st2" d="M281.8,19.2c-0.9,0.4-1.9,0.8-2.8,1.3"/>
				<path class="st2" d="M297.6,13.8c-3,0.8-6,1.6-8.9,2.7c-1.1,0.4-2.2,0.8-3.3,1.2c-0.9,0.4-1.9,0.8-2.8,1.1"/>
				<path class="st2" d="M308.7,11.8c-1.5,0.1-3.1,0.4-4.6,0.7c-0.5,0-1.1,0.2-1.6,0.3"/>
				<path class="st2" d="M314.3,11.3c-1.7,0.1-3.4,0.3-5.2,0.5"/>
				<path class="st2" d="M319.6,11.1c-1.7,0-3.3,0.1-5,0.2"/>
				<path class="st2" d="M364.8,22c-5.5-2.9-11.3-5.3-17.2-7"/>
				<path class="st2" d="M384.4,35.7c-4.8-4.4-10-8.1-15.4-11.4"/>
				<path class="st2" d="M388,588.4c9.6-9.6,16.7-20.7,21.3-32.5c2-5.1,3.6-10.4,4.6-15.8c1.3-6.3,2-12.7,2-19.2V409.5v-56.1v-79.2
					v-56V106.8v0c0-6.5-0.7-12.9-2-19.2c-1.1-5.4-2.6-10.7-4.6-15.8c-4.6-11.9-11.8-23-21.3-32.5"/>
				<path class="st2" d="M384.6,591.6c1.1-1,2.2-2,3.3-3.1"/>
				<path class="st2" d="M380.7,595c0.2-0.1,0.3-0.3,0.5-0.4"/>
				<path class="st2" d="M373.6,600.3c1.1-0.8,2.3-1.5,3.3-2.3"/>
				<path class="st2" d="M369.9,602.7c0.8-0.5,1.5-1,2.3-1.5"/>
				<path class="st2" d="M367.9,603.8c0.2-0.1,0.4-0.3,0.7-0.4"/>
				<path class="st2" d="M252.7,588.5c28.7,27.5,69.5,34.7,103.9,20.8c1.4-0.6,2.8-1.2,4.2-1.9c1.4-0.6,2.8-1.3,4.2-2"/>
				<path class="st2" d="M252.6,39.2L220,71.7l-7.9,7.9L86.2,205.6l-8,8l-32.5,32.5c0,0,0,0-0.1,0.1l0,0
					c-29.7,31-35.7,76.1-17,112.1c0,0.1,0.1,0.1,0.1,0.2c0.5,1,1.1,1.9,1.6,2.9c0.5,0.8,0.9,1.6,1.4,2.3c0.6,0.9,1.1,1.9,1.8,2.8
					c0.1,0.2,0.3,0.4,0.4,0.6c0.7,1.1,1.5,2.2,2.3,3.3c1,1.3,1.9,2.6,3,3.8c0.1,0.2,0.3,0.3,0.4,0.5c1,1.1,1.9,2.3,3,3.4
					c1,1.1,2,2.2,3.1,3.3c0,0,0,0,0.1,0.1c9.6,9.6,20.7,16.7,32.5,21.3c5.1,2,10.4,3.6,15.8,4.6c6.3,1.3,12.7,2,19.2,2h111.3h56.1
					H360h56h111.3h0c6.5,0,12.9-0.7,19.2-2c5.4-1.1,10.7-2.6,15.8-4.6c11.9-4.6,23-11.8,32.5-21.3c0,0,0,0,0.1-0.1"/>
				<path class="st2" d="M256,36c-1.1,1-2.3,2.1-3.3,3.1"/>
				<path class="st2" d="M269.7,25.6c-1,0.6-2,1.2-3,1.9c-2,1.3-3.9,2.7-5.8,4.3"/>
				<path class="st2" d="M388,39.2C388,39.2,388,39.1,388,39.2L388,39.2c-1.2-1.3-2.4-2.4-3.7-3.5c-4.8-4.4-10-8.2-15.4-11.4
					c-1.4-0.8-2.7-1.6-4.2-2.3c-5.6-3-11.3-5.3-17.2-7c-9.1-2.7-18.5-4-27.9-3.9c-1.7,0-3.3,0.1-5,0.2c-0.1,0-0.3,0-0.4,0
					c-1.8,0.1-3.5,0.3-5.2,0.5c-0.1,0-0.3,0-0.4,0c-1.5,0.1-3.1,0.4-4.6,0.7c-0.6,0-1.1,0.2-1.6,0.3c-1.7,0.3-3.3,0.7-4.9,1.1
					c-4.1,1-8.2,2.3-12.2,3.8c-0.9,0.4-1.9,0.7-2.8,1.1c-0.3,0.1-0.6,0.2-0.8,0.4c-0.9,0.4-1.9,0.8-2.8,1.3c-1.1,0.5-2.1,1-3.1,1.6
					c0,0-0.1,0-0.2,0.1"/>
				<path class="st2" d="M602.2,254.3c-0.5-0.7-1.1-1.4-1.7-2.1"/>
				<path class="st2" d="M609,263.9c-0.3-0.6-0.7-1.1-1.1-1.7c-0.4-0.7-0.8-1.3-1.3-1.9"/>
				<path class="st2" d="M611.9,269.1c-0.5-1-1-1.9-1.6-2.9"/>
				<path class="st2" d="M614.9,275.3c-0.4-0.9-0.8-1.8-1.2-2.7"/>
				<path class="st2" d="M620,290.1c-0.7-2.7-1.5-5.3-2.4-7.9c-0.4-1.1-0.8-2.2-1.2-3.3c-0.4-0.9-0.8-1.9-1.1-2.8"/>
				<path class="st2" d="M622.3,302.1c-0.1-1.5-0.4-2.9-0.6-4.4c-0.1-0.7-0.2-1.4-0.4-2.1"/>
				<path class="st2" d="M622.8,307.8c-0.1-1.7-0.2-3.5-0.5-5.2"/>
				<path class="st2" d="M623,313.1c0-1.7-0.1-3.3-0.2-5"/>
				<path class="st2" d="M612.1,358.3c2.9-5.5,5.3-11.3,7-17.2"/>
				<path class="st2" d="M598.4,377.8c4.3-4.8,8.1-10,11.4-15.4"/>
				<path class="st2" d="M387.9,39.1C357,9.4,311.8,3.3,275.8,22c-0.1,0-0.1,0.1-0.2,0.1c-1,0.5-1.9,1.1-2.9,1.6
					c-0.8,0.5-1.6,0.9-2.3,1.4c-0.2,0.1-0.4,0.3-0.7,0.4c-0.8,0.4-1.5,0.9-2.2,1.4c-1.3,0.8-2.6,1.7-3.8,2.6c-1,0.7-1.9,1.5-2.9,2.2
					c0,0-0.1,0-0.1,0.1c-0.7,0.5-1.4,1.1-2.1,1.7c-0.9,0.8-1.8,1.5-2.7,2.3c-1.1,1-2.2,2-3.3,3.1c0,0,0,0-0.1,0.1
					c-9.6,9.6-16.7,20.7-21.4,32.5c-2,5.1-3.5,10.4-4.6,15.8c-1.3,6.3-2,12.8-2,19.2v111.3v56.1v79.2v56v111.3
					c0,6.5,0.7,12.9,2,19.3c1.1,5.4,2.6,10.7,4.6,15.8c0.1,0.3,0.2,0.7,0.4,1c4.7,11.5,11.6,22.2,21,31.6l0,0l0,0l0,0
					c18.8,18.7,43.2,28,67.7,28c0.2,0,0.4,0,0.6,0c1.7,0,3.4-0.1,5.1-0.2h0c1.9-0.1,3.7-0.3,5.6-0.5c0.1,0,0.1,0,0.2,0
					c1.5-0.2,3.1-0.4,4.6-0.7c0.6,0,1.1-0.2,1.8-0.3c1.6-0.3,3.2-0.6,4.9-1c3-0.8,5.9-1.6,8.8-2.7c1.1-0.4,2.2-0.8,3.3-1.2
					c0.4-0.2,0.9-0.4,1.4-0.6c0.6-0.2,1.2-0.5,1.9-0.8c0.8-0.4,1.6-0.7,2.4-1.1c0.3-0.1,0.5-0.2,0.8-0.4c1.1-0.5,2.1-1,3.2-1.5
					c0,0,0.1,0,0.2-0.1c1-0.5,1.9-1,2.9-1.6c0.2-0.1,0.4-0.2,0.7-0.4c0.4-0.2,0.8-0.5,1.3-0.8c0.8-0.4,1.5-0.9,2.3-1.5
					c0.5-0.3,1-0.6,1.4-0.9c1.1-0.7,2.2-1.5,3.3-2.3c1.3-0.9,2.6-1.9,3.8-3c0.2-0.1,0.3-0.3,0.5-0.4c1.1-1,2.3-1.9,3.4-3
					c1.1-1,2.2-2,3.3-3.1c0,0,0,0,0.1-0.1l32.5-32.5l7.9-7.9L554.4,422l8-8l32.5-32.5c0,0,0.1,0,0.1,0v0c1.2-1.1,2.3-2.3,3.4-3.6
					c4.4-4.8,8.2-10,11.4-15.4c0.8-1.4,1.6-2.7,2.3-4.2c3-5.6,5.3-11.3,7-17.2c2.7-9.1,4-18.5,3.9-27.9c0-1.7-0.1-3.3-0.2-5
					c0-0.1,0-0.3,0-0.4c-0.1-1.8-0.2-3.5-0.5-5.2c0-0.1,0-0.3,0-0.4c-0.1-1.5-0.4-2.9-0.6-4.4c-0.1-0.7-0.2-1.4-0.4-2.1
					c-0.4-1.9-0.8-3.8-1.3-5.6c-0.9-3.8-2.1-7.5-3.6-11.2c-0.4-0.9-0.8-1.9-1.1-2.8c-0.1-0.3-0.2-0.6-0.4-0.8
					c-0.4-0.9-0.8-1.8-1.2-2.7c-0.5-1.1-1.1-2.2-1.6-3.3c0-0.1-0.1-0.2-0.1-0.2c-0.5-1-1-2-1.6-2.9c-0.4-0.8-0.9-1.5-1.4-2.3
					c-0.3-0.6-0.7-1.1-1.1-1.7c-0.4-0.7-0.8-1.3-1.3-1.9c-0.7-1-1.3-2-2-3c-0.8-1-1.5-2-2.3-3c-0.5-0.7-1.1-1.4-1.7-2.1
					c-0.8-0.9-1.5-1.8-2.3-2.7c-1-1.1-2.1-2.3-3.1-3.3l0,0l0,0l-32.5-32.5l-7.9-7.9L428.5,79.7l-8-8L387.9,39.1
					C388,39.2,388,39.2,387.9,39.1z"/>
			</g>
		</g>
		<g id="XMLID_8514_" class="st3">
			<g>
				<path class="st1" d="M562.4,224.7v178.1c-5.1,2-10.4,3.6-15.8,4.6c-3.5-5.4-7.7-10.4-12.2-14.9l-78.8-78.8l78.7-78.7
					c4.6-4.5,8.7-9.6,12.2-14.9C551.9,221.2,557.2,222.7,562.4,224.7z"/>
				<path class="st1" d="M428.5,79.7l125.9,125.9c-2.2,5.1-4.9,9.9-7.9,14.5c-6.3-1.3-12.8-2-19.2-2H416V106.8v0
					c0-6.4-0.7-12.9-2-19.2C418.6,84.5,423.5,81.9,428.5,79.7z"/>
				<path class="st1" d="M554.4,422L428.5,547.9c-5.1-2.2-9.9-4.9-14.5-7.9c1.3-6.3,2-12.8,2-19.2V409.5h111.3h0
					c6.5,0,12.9-0.7,19.2-2C549.6,412.1,552.2,417,554.4,422z"/>
				<path class="st1" d="M534.4,392.5c4.6,4.6,8.7,9.6,12.2,14.9c-6.3,1.3-12.8,2-19.2,2h0H416v-56.1l39.6-39.6L534.4,392.5z"/>
				<path class="st1" d="M527.3,218.1c6.5,0,12.9,0.7,19.2,2c-3.6,5.4-7.7,10.4-12.2,14.9l-78.7,78.7L416,274.2v-56H527.3z"/>
				<polygon class="st1" points="455.6,313.8 416,353.4 416,274.2 				"/>
				<path class="st1" d="M416,409.5v111.3c0,6.5-0.7,12.9-2,19.2c-5.4-3.6-10.4-7.7-14.9-12.2l-78.7-78.7l39.6-39.6H416z"/>
				<polygon class="st1" points="416,353.4 416,409.5 360,409.5 				"/>
				<polygon class="st1" points="416,274.2 416,353.4 360,409.5 280.7,409.5 224.6,353.4 224.6,274.2 280.7,218.1 359.9,218.1 				
					"/>
				<polygon class="st1" points="416,218.1 416,274.2 359.9,218.1 				"/>
				<path class="st1" d="M416,106.8v111.3h-56.1l-39.6-39.6L399,99.8c4.6-4.5,9.6-8.6,14.9-12.2C415.3,93.9,416,100.4,416,106.8
					L416,106.8z"/>
				<path class="st1" d="M409.4,71.8c2,5.1,3.6,10.4,4.6,15.8c-5.4,3.6-10.4,7.7-14.9,12.2l-78.8,78.8l-78.7-78.7
					c-4.5-4.6-9.6-8.7-14.9-12.2c1.1-5.4,2.6-10.7,4.6-15.8H409.4z"/>
				<path class="st1" d="M414,540.1c-1.1,5.4-2.6,10.7-4.6,15.8H231.3c-2-5.1-3.6-10.4-4.6-15.8c5.4-3.5,10.4-7.7,14.9-12.2
					l78.8-78.8l78.7,78.7C403.6,532.4,408.6,536.5,414,540.1z"/>
				<polygon class="st1" points="360,409.5 320.3,449.1 280.7,409.5 				"/>
				<polygon class="st1" points="320.3,178.5 359.9,218.1 280.7,218.1 				"/>
				<path class="st1" d="M320.3,449.1l-78.8,78.8c-4.6,4.6-9.6,8.7-14.9,12.2c-1.3-6.4-2-12.8-2-19.3V409.5h56.1L320.3,449.1z"/>
				<path class="st1" d="M241.6,99.8l78.7,78.7l-39.6,39.6h-56V106.8c0-6.5,0.7-12.9,2-19.2C232,91.1,237.1,95.2,241.6,99.8z"/>
				<polygon class="st1" points="280.7,409.5 224.6,409.5 224.6,353.4 				"/>
				<polygon class="st1" points="280.7,218.1 224.6,274.2 224.6,218.1 				"/>
				<path class="st1" d="M226.6,87.6c-1.3,6.3-2,12.7-2,19.2v111.3H113.3c-6.5,0-12.9,0.7-19.3,2c-3-4.6-5.7-9.5-7.8-14.5
					L212.1,79.7C217.2,81.9,222.1,84.5,226.6,87.6z"/>
				<path class="st1" d="M224.6,520.8c0,6.5,0.7,12.9,2,19.3c-4.6,3-9.5,5.7-14.5,7.8L86.2,422c2.2-5.1,4.9-9.9,7.9-14.5
					c6.3,1.3,12.7,2,19.2,2h111.3V520.8z"/>
				<path class="st1" d="M224.6,353.4v56H113.3c-6.5,0-12.9-0.7-19.2-2c3.5-5.4,7.7-10.4,12.2-14.9l78.7-78.7L224.6,353.4z"/>
				<polygon class="st1" points="224.6,274.2 224.6,353.4 185,313.8 				"/>
				<path class="st1" d="M224.6,218.1v56.1L185,313.8l-78.8-78.8c-4.5-4.6-8.6-9.6-12.2-14.9c6.4-1.3,12.8-2,19.3-2H224.6z"/>
				<path class="st1" d="M106.3,235.1l78.8,78.8l-78.7,78.7c-4.6,4.6-8.7,9.6-12.2,14.9c-5.4-1.1-10.7-2.6-15.8-4.6V224.8
					c5.1-2,10.4-3.6,15.8-4.6C97.6,225.5,101.7,230.5,106.3,235.1z"/>
			</g>
			<g>
			</g>
		</g>
	</g>
</g>
</svg>
