<?xml version="1.0" encoding="utf-8"?>
<!-- Generator: Adobe Illustrator 19.0.0, SVG Export Plug-In . SVG Version: 6.00 Build 0)  -->
<svg version="1.1" id="Layer_1" xmlns="http://www.w3.org/2000/svg" xmlns:xlink="http://www.w3.org/1999/xlink" x="0px" y="0px"
	 viewBox="0 0 30 30" style="enable-background:new 0 0 30 30;" xml:space="preserve">
<style type="text/css">
	.st0{fill:#FFFFFF;}
</style>
<g id="XMLID_10822_">
	<path id="XMLID_10823_" class="st0" d="M-22.3,16h-12.5c-0.4,0-0.9-0.1-1.3-0.2c-1.9-0.6-3.3-2.4-3.3-4.5c0-2.5,2-4.6,4.6-4.7
		c0.6-2.8,3-4.9,5.9-4.9c2.5,0,4.6,1.5,5.5,3.7c0.3,0,0.5-0.1,0.8-0.1c2.9,0,5.3,2.4,5.3,5.3c0,2.3-1.5,4.3-3.7,5
		C-21.4,15.9-21.8,16-22.3,16L-22.3,16z M-34.7,8.6c-1.5,0-2.7,1.2-2.7,2.7c0,1.2,0.8,2.3,1.9,2.6C-35.2,14-35,14-34.8,14h12.5
		c0.2,0,0.5,0,0.7-0.1l0.1,0c1.4-0.4,2.3-1.7,2.3-3.2c0-1.8-1.5-3.3-3.3-3.3c-0.4,0-0.8,0.1-1.1,0.2l-1,0.4l-0.3-1.1
		C-25.4,5-27,3.7-28.9,3.7c-2.2,0-4,1.8-4,4l0,1.2l-1.2-0.2C-34.3,8.6-34.5,8.6-34.7,8.6L-34.7,8.6z"/>
</g>
<path id="XMLID_10818_" class="st0" d="M-65-11.8c-0.2,0-0.4,0-0.6,0c-0.7-1.7-2.3-2.8-4.2-2.8c-2.2,0-4,1.6-4.5,3.7
	c-0.7,0-1.3,0.2-1.8,0.6c-1-0.6-2.1-1-3.3-1c-2.9,0-5.4,2.1-5.9,4.9c-2.5,0.1-4.6,2.1-4.6,4.7c0,2.1,1.4,3.9,3.3,4.5
	c0.4,0.1,0.8,0.2,1.3,0.2h12.5c0.5,0,0.9-0.1,1.4-0.3c2.2-0.7,3.7-2.7,3.7-5c0-0.5-0.1-1-0.2-1.4h3.1c0.4,0,0.7-0.1,1-0.2
	c1.7-0.5,2.8-2.1,2.8-3.8C-60.9-10-62.7-11.8-65-11.8z M-72,0.8L-72,0.8C-72.3,0.9-72.5,1-72.8,1h-12.5c-0.2,0-0.4,0-0.7-0.1
	c-1.1-0.3-1.9-1.4-1.9-2.6c0-1.5,1.2-2.7,2.7-2.7c0.2,0,0.4,0,0.6,0.1l1.2,0.2l0-1.2c0-2.2,1.9-4,4-4c1.9,0,3.5,1.3,3.9,3.1l0.3,1.1
	l1-0.4c0.4-0.1,0.7-0.2,1.1-0.2c1.8,0,3.3,1.5,3.3,3.3C-69.6-0.9-70.6,0.4-72,0.8z M-64.2-5.3c-0.2,0.1-0.4,0.1-0.6,0.1h-3.7
	c-0.9-1.4-2.6-2.4-4.4-2.4c-0.3,0-0.5,0-0.8,0.1c-0.3-0.6-0.6-1.2-1-1.6c0.2-0.1,0.4-0.1,0.7-0.1c0.1,0,0.3,0,0.4,0l0.9,0.2l0-0.9
	c0-1.7,1.4-3,3.1-3c1.4,0,2.7,1,3,2.4l0.2,0.8l0.8-0.3c0.3-0.1,0.6-0.2,0.9-0.2c1.4,0,2.5,1.1,2.5,2.5C-62.4-6.6-63.1-5.7-64.2-5.3z
	"/>
<g id="XMLID_10809_">
	<path id="XMLID_10815_" class="st0" d="M21.4,7.9c-0.3,0-0.5,0-0.8,0.1c-0.9-2.2-3.1-3.7-5.6-3.7c-2.9,0-5.4,2.1-5.9,4.9
		c-2.5,0.1-4.6,2.1-4.6,4.7c0,2.1,1.4,3.9,3.3,4.5c0.4,0.1,0.8,0.2,1.3,0.2h12.5c0.5,0,1-0.1,1.4-0.3c2.2-0.7,3.7-2.7,3.7-5
		C26.7,10.3,24.3,7.9,21.4,7.9z M22.4,16.4L22.4,16.4c-0.3,0.1-0.5,0.2-0.8,0.2H9.2c-0.2,0-0.4,0-0.7-0.1c-1.1-0.3-1.9-1.4-1.9-2.6
		c0-1.5,1.2-2.7,2.7-2.7c0.2,0,0.4,0,0.6,0.1l1.2,0.2l0-1.2c0-2.2,1.9-4,4-4c1.9,0,3.5,1.3,3.9,3.1l0.3,1.1l1-0.4
		c0.4-0.1,0.7-0.2,1.1-0.2c1.8,0,3.3,1.5,3.3,3.3C24.7,14.7,23.8,16,22.4,16.4z"/>
	<path id="XMLID_10814_" class="st0" d="M11.2,19.8c-0.4-0.2-0.8-0.1-1,0.3l-1,1.7c-0.2,0.4-0.1,0.8,0.3,1c0.1,0.1,0.2,0.1,0.4,0.1
		c0.3,0,0.5-0.1,0.6-0.4l1-1.7C11.7,20.5,11.6,20,11.2,19.8z"/>
	<path id="XMLID_10813_" class="st0" d="M15.9,19.8c-0.4-0.2-0.8-0.1-1,0.3l-1,1.7c-0.2,0.4-0.1,0.8,0.3,1c0.1,0.1,0.2,0.1,0.4,0.1
		c0.3,0,0.5-0.1,0.6-0.4l1-1.7C16.4,20.5,16.2,20,15.9,19.8z"/>
	<path id="XMLID_10812_" class="st0" d="M20.6,19.8c-0.4-0.2-0.8-0.1-1,0.3l-1,1.7c-0.2,0.4-0.1,0.8,0.3,1c0.1,0.1,0.2,0.1,0.4,0.1
		c0.3,0,0.5-0.1,0.6-0.4l1-1.7C21.1,20.5,20.9,20,20.6,19.8z"/>
	<path id="XMLID_10811_" class="st0" d="M12.6,23c-0.4-0.2-0.8-0.1-1,0.3l-1,1.7c-0.2,0.4-0.1,0.8,0.3,1c0.1,0.1,0.2,0.1,0.4,0.1
		c0.3,0,0.5-0.1,0.6-0.4l1-1.7C13.1,23.7,12.9,23.2,12.6,23z"/>
	<path id="XMLID_10810_" class="st0" d="M17.3,23c-0.4-0.2-0.8-0.1-1,0.3l-1,1.7c-0.2,0.4-0.1,0.8,0.3,1c0.1,0.1,0.2,0.1,0.4,0.1
		c0.3,0,0.5-0.1,0.6-0.4l1-1.7C17.8,23.7,17.6,23.2,17.3,23z"/>
</g>
<g id="XMLID_10795_">
	<path id="XMLID_10808_" class="st0" d="M61.1,2.3C61.2,2.3,61.2,2.3,61.1,2.3c0.5-0.1,0.8-0.4,0.7-0.8l-0.3-2
		c-0.1-0.4-0.4-0.7-0.8-0.6c-0.4,0.1-0.7,0.4-0.6,0.8l0.3,2C60.5,2,60.8,2.3,61.1,2.3z"/>
	<path id="XMLID_10807_" class="st0" d="M56.5,3.6c0.1,0.2,0.4,0.3,0.6,0.3c0.2,0,0.3,0,0.4-0.2c0.3-0.2,0.4-0.7,0.1-1l-1.2-1.6
		c-0.2-0.3-0.7-0.4-1-0.1c-0.3,0.2-0.4,0.7-0.1,1L56.5,3.6z"/>
	<path id="XMLID_10806_" class="st0" d="M72,13.4l-1.8-0.8c-0.4-0.2-0.8,0-1,0.4c-0.2,0.4,0,0.8,0.4,1l1.8,0.8
		c0.1,0,0.2,0.1,0.3,0.1c0.3,0,0.6-0.2,0.7-0.5C72.6,14,72.4,13.6,72,13.4z"/>
	<path id="XMLID_10805_" class="st0" d="M72.4,8l-2,0.3c-0.4,0.1-0.7,0.4-0.6,0.8c0.1,0.4,0.4,0.6,0.7,0.6c0,0,0.1,0,0.1,0l2-0.3
		C73,9.4,73.3,9,73.3,8.6C73.2,8.2,72.8,8,72.4,8z"/>
	<path id="XMLID_10804_" class="st0" d="M71,4.3c0.3-0.2,0.4-0.7,0.1-1c-0.2-0.3-0.7-0.4-1-0.1l-1.6,1.2c-0.3,0.2-0.4,0.7-0.1,1
		c0.1,0.2,0.4,0.3,0.6,0.3c0.2,0,0.3,0,0.5-0.2L71,4.3z"/>
	<path id="XMLID_10803_" class="st0" d="M65.2,2.8c0.1,0,0.2,0.1,0.3,0.1c0.3,0,0.6-0.2,0.7-0.5l0.8-1.8c0.2-0.4,0-0.8-0.4-1
		c-0.4-0.2-0.8,0-1,0.4l-0.8,1.8C64.7,2.3,64.8,2.7,65.2,2.8z"/>
	<path id="XMLID_10799_" class="st0" d="M68.1,9.2c-0.4-3-3-5.3-6-5.3c-0.3,0-0.5,0-0.8,0.1c-1.5,0.2-2.7,0.9-3.6,1.9
		c-0.7-0.2-1.4-0.4-2.1-0.4c-2.9,0-5.4,2.1-5.9,4.9c-2.5,0.1-4.6,2.1-4.6,4.7c0,2.1,1.4,3.9,3.3,4.5c0.4,0.1,0.8,0.2,1.3,0.2h12.4
		c0.5,0,0.9-0.1,1.4-0.3c2.2-0.7,3.7-2.7,3.7-5c0-0.4,0-0.8-0.1-1.1C67.9,12.1,68.3,10.7,68.1,9.2z M63,17.6L63,17.6
		c-0.3,0.1-0.5,0.2-0.8,0.2H49.7c-0.2,0-0.4,0-0.7-0.1c-1.1-0.3-1.9-1.4-1.9-2.6c0-1.5,1.2-2.7,2.7-2.7c0.2,0,0.4,0,0.6,0.1l1.2,0.2
		l0-1.2c0-2.2,1.9-4,4-4c1.9,0,3.5,1.3,3.9,3.1l0.3,1.1l1-0.4c0.4-0.1,0.7-0.2,1.1-0.2c1.8,0,3.3,1.5,3.3,3.3
		C65.3,15.9,64.4,17.2,63,17.6z M62,9.1c-0.3,0-0.5,0-0.8,0.1c-0.4-0.9-1-1.7-1.7-2.3c0.6-0.5,1.3-0.8,2.1-1c0.2,0,0.4,0,0.5,0
		c2,0,3.8,1.5,4,3.5c0.1,0.5,0,1.1-0.1,1.6C65.1,9.9,63.6,9.1,62,9.1z"/>
	<path id="XMLID_10798_" class="st0" d="M51.8,21c-0.4-0.2-0.8-0.1-1,0.3l-1,1.7c-0.2,0.4-0.1,0.8,0.3,1c0.1,0.1,0.2,0.1,0.4,0.1
		c0.3,0,0.5-0.1,0.6-0.4l1-1.7C52.3,21.7,52.1,21.2,51.8,21z"/>
	<path id="XMLID_10797_" class="st0" d="M56.5,21c-0.4-0.2-0.8-0.1-1,0.3l-1,1.7c-0.2,0.4-0.1,0.8,0.3,1c0.1,0.1,0.2,0.1,0.4,0.1
		c0.3,0,0.5-0.1,0.6-0.4l1-1.7C56.9,21.7,56.8,21.2,56.5,21z"/>
	<path id="XMLID_10796_" class="st0" d="M61.2,21c-0.4-0.2-0.8-0.1-1,0.3l-1,1.7c-0.2,0.4-0.1,0.8,0.3,1c0.1,0.1,0.2,0.1,0.4,0.1
		c0.3,0,0.5-0.1,0.6-0.4l1-1.7C61.6,21.7,61.5,21.2,61.2,21z"/>
</g>
<g id="XMLID_10784_">
	<path id="XMLID_10794_" class="st0" d="M5.3-19.6l-1.8-0.8c-0.4-0.2-0.8,0-1,0.4c-0.2,0.4,0,0.8,0.4,1l1.8,0.8
		c0.1,0,0.2,0.1,0.3,0.1c0.3,0,0.6-0.2,0.7-0.5C5.9-19,5.7-19.4,5.3-19.6z"/>
	<path id="XMLID_10793_" class="st0" d="M5.7-25l-2,0.3c-0.4,0.1-0.7,0.4-0.6,0.8c0,0.4,0.4,0.6,0.7,0.6c0,0,0.1,0,0.1,0l2-0.3
		c0.4-0.1,0.7-0.4,0.6-0.8C6.5-24.8,6.1-25.1,5.7-25z"/>
	<path id="XMLID_10792_" class="st0" d="M4.3-28.7c0.3-0.2,0.4-0.7,0.1-1c-0.3-0.3-0.7-0.4-1-0.1l-1.6,1.2c-0.3,0.2-0.4,0.7-0.1,1
		c0.1,0.2,0.4,0.3,0.6,0.3c0.2,0,0.3,0,0.4-0.2L4.3-28.7z"/>
	<path id="XMLID_10791_" class="st0" d="M-5.5-30.7C-5.5-30.7-5.5-30.7-5.5-30.7c0.5-0.1,0.8-0.4,0.7-0.8l-0.3-2
		c-0.1-0.4-0.4-0.7-0.8-0.6c-0.4,0.1-0.7,0.4-0.6,0.8l0.3,2C-6.2-31-5.9-30.7-5.5-30.7z"/>
	<path id="XMLID_10790_" class="st0" d="M-10.2-29.4c0.1,0.2,0.4,0.3,0.6,0.3c0.2,0,0.3-0.1,0.4-0.2c0.3-0.2,0.4-0.7,0.1-1l-1.2-1.6
		c-0.2-0.3-0.7-0.4-1-0.1c-0.3,0.2-0.4,0.7-0.1,1L-10.2-29.4z"/>
	<path id="XMLID_10789_" class="st0" d="M-1.5-30.2c0.1,0,0.2,0.1,0.3,0.1c0.3,0,0.6-0.2,0.7-0.5l0.8-1.8c0.2-0.4,0-0.8-0.4-1
		c-0.4-0.2-0.8,0-1,0.4l-0.8,1.8C-2-30.7-1.8-30.3-1.5-30.2z"/>
	<path id="XMLID_10785_" class="st0" d="M1.4-23.8c-0.4-3-3-5.3-6-5.3c-0.3,0-0.5,0-0.8,0c-1.5,0.2-2.7,0.9-3.6,1.9
		c-0.7-0.2-1.4-0.4-2.1-0.4c-2.9,0-5.4,2.1-5.9,4.9c-2.5,0.1-4.6,2.1-4.6,4.7c0,2,1.4,3.9,3.3,4.5c0.4,0.1,0.8,0.2,1.3,0.2h12.4
		c0.5,0,0.9-0.1,1.4-0.3c2.2-0.7,3.7-2.7,3.7-5c0-0.4,0-0.8-0.1-1.1C1.2-20.9,1.6-22.3,1.4-23.8z M-3.7-15.4L-3.7-15.4
		c-0.3,0.1-0.5,0.2-0.8,0.2h-12.4c-0.2,0-0.4,0-0.7-0.1c-1.1-0.3-1.9-1.4-1.9-2.6c0-1.5,1.2-2.7,2.7-2.7c0.2,0,0.4,0,0.6,0.1
		l1.2,0.2l0-1.2c0-2.2,1.9-4,4-4c1.9,0,3.5,1.3,3.9,3.1l0.3,1.1l1-0.4c0.4-0.1,0.7-0.2,1.1-0.2c1.8,0,3.3,1.5,3.3,3.3
		C-1.4-17.1-2.3-15.8-3.7-15.4z M-4.7-23.9c-0.3,0-0.5,0-0.8,0.1c-0.4-0.9-1-1.7-1.7-2.3c0.6-0.5,1.3-0.9,2.1-1c0.2,0,0.4,0,0.5,0
		c2,0,3.8,1.5,4,3.5c0.1,0.5,0,1.1-0.1,1.6C-1.6-23.1-3.1-23.9-4.7-23.9z"/>
</g>
<g id="XMLID_10755_">
	<g id="XMLID_10780_">
		<path id="XMLID_10781_" class="st0" d="M30-17.2c-3.3,0-6-2.7-6-6c0-3.3,2.7-6,6-6c3.3,0,6,2.7,6,6C36-19.9,33.3-17.2,30-17.2
			L30-17.2z M30-27.3c-2.2,0-4.1,1.8-4.1,4.1c0,2.2,1.8,4.1,4.1,4.1c2.2,0,4.1-1.8,4.1-4.1C34.1-25.5,32.2-27.3,30-27.3L30-27.3z"/>
	</g>
	<g id="XMLID_10778_">
		<path id="XMLID_10779_" class="st0" d="M30.1-31c-0.4,0-0.7-0.3-0.7-0.7v-2c0-0.4,0.3-0.7,0.7-0.7c0.4,0,0.7,0.3,0.7,0.7v2
			C30.9-31.4,30.5-31,30.1-31L30.1-31z"/>
	</g>
	<g id="XMLID_10776_">
		<path id="XMLID_10777_" class="st0" d="M25.9-30c-0.3,0-0.5-0.1-0.6-0.4l-1-1.7c-0.2-0.4-0.1-0.8,0.3-1c0.4-0.2,0.8-0.1,1,0.3
			l1,1.7c0.2,0.4,0.1,0.8-0.3,1C26.1-30,26-30,25.9-30L25.9-30z"/>
	</g>
	<g id="XMLID_10774_">
		<path id="XMLID_10775_" class="st0" d="M22.7-26.9c-0.1,0-0.3,0-0.4-0.1l-1.7-1c-0.4-0.2-0.5-0.7-0.3-1c0.2-0.4,0.7-0.5,1-0.3
			l1.7,1c0.4,0.2,0.5,0.7,0.3,1C23.2-27,23-26.9,22.7-26.9L22.7-26.9z"/>
	</g>
	<g id="XMLID_10772_">
		<path id="XMLID_10773_" class="st0" d="M21.5-22.7h-2c-0.4,0-0.7-0.3-0.7-0.7c0-0.4,0.3-0.7,0.7-0.7h2c0.4,0,0.7,0.3,0.7,0.7
			C22.2-23,21.9-22.7,21.5-22.7L21.5-22.7z"/>
	</g>
	<g id="XMLID_10770_">
		<path id="XMLID_10771_" class="st0" d="M20.9-17.4c-0.3,0-0.5-0.1-0.6-0.4c-0.2-0.4-0.1-0.8,0.3-1l1.7-1c0.4-0.2,0.8-0.1,1,0.3
			c0.2,0.4,0.1,0.8-0.3,1l-1.7,1C21.1-17.4,21-17.4,20.9-17.4L20.9-17.4z"/>
	</g>
	<g id="XMLID_10768_">
		<path id="XMLID_10769_" class="st0" d="M24.7-13.5c-0.1,0-0.3,0-0.4-0.1c-0.4-0.2-0.5-0.7-0.3-1l1-1.7c0.2-0.4,0.7-0.5,1-0.3
			c0.4,0.2,0.5,0.7,0.3,1l-1,1.7C25.2-13.7,24.9-13.5,24.7-13.5L24.7-13.5z"/>
	</g>
	<g id="XMLID_10766_">
		<path id="XMLID_10767_" class="st0" d="M29.9-12.1c-0.4,0-0.7-0.3-0.7-0.7v-2c0-0.4,0.3-0.7,0.7-0.7c0.4,0,0.7,0.3,0.7,0.7v2
			C30.6-12.4,30.3-12.1,29.9-12.1L29.9-12.1z"/>
	</g>
	<g id="XMLID_10764_">
		<path id="XMLID_10765_" class="st0" d="M35.1-13.4c-0.3,0-0.5-0.1-0.6-0.4l-1-1.7c-0.2-0.4-0.1-0.8,0.3-1c0.4-0.2,0.8-0.1,1,0.3
			l1,1.7c0.2,0.4,0.1,0.8-0.3,1C35.4-13.4,35.3-13.4,35.1-13.4L35.1-13.4z"/>
	</g>
	<g id="XMLID_10762_">
		<path id="XMLID_10763_" class="st0" d="M39-17.2c-0.1,0-0.3,0-0.4-0.1l-1.7-1c-0.4-0.2-0.5-0.7-0.3-1c0.2-0.4,0.7-0.5,1-0.3l1.7,1
			c0.4,0.2,0.5,0.7,0.3,1C39.5-17.3,39.3-17.2,39-17.2L39-17.2z"/>
	</g>
	<g id="XMLID_10760_">
		<path id="XMLID_10761_" class="st0" d="M40.5-22.4h-2c-0.4,0-0.7-0.3-0.7-0.7s0.3-0.7,0.7-0.7h2c0.4,0,0.7,0.3,0.7,0.7
			S40.9-22.4,40.5-22.4L40.5-22.4z"/>
	</g>
	<g id="XMLID_10758_">
		<path id="XMLID_10759_" class="st0" d="M37.4-26.7c-0.3,0-0.5-0.1-0.6-0.4c-0.2-0.4-0.1-0.8,0.3-1l1.7-1c0.4-0.2,0.8-0.1,1,0.3
			c0.2,0.4,0.1,0.8-0.3,1l-1.7,1C37.7-26.7,37.5-26.7,37.4-26.7L37.4-26.7z"/>
	</g>
	<g id="XMLID_10756_">
		<path id="XMLID_10757_" class="st0" d="M34.4-29.8c-0.1,0-0.3,0-0.4-0.1c-0.4-0.2-0.5-0.7-0.3-1l1-1.7c0.2-0.4,0.7-0.5,1-0.3
			c0.4,0.2,0.5,0.7,0.3,1l-1,1.7C34.9-30,34.6-29.8,34.4-29.8L34.4-29.8z"/>
	</g>
</g>
<g id="XMLID_1022_">
	<path id="XMLID_1024_" class="st0" d="M83.9,4.4h10.3c2,0,2.9-1.4,2.9-2.7c0-0.8-0.3-1.5-0.8-2.1c-0.6-0.6-1.5-1-2.6-1
		c-0.9,0-1.7,0.8-1.7,1.7C92,0.7,92.3,1,92.7,1c0.1,0,0.1,0,0.1-0.1c0-0.4,0.4-0.8,0.8-0.8s0.8,0.4,0.8,0.8c0,0.9-0.8,1.7-1.7,1.7
		c-1.3,0-2.3-1-2.3-2.3c0-1.8,1.5-3.3,3.3-3.3c1.9,0,3.1,0.8,3.7,1.4c0.8,0.8,1.3,2,1.3,3.2c0,1.1-0.4,2.3-1.2,3.1
		C97.7,4.8,98,4.9,98.3,5c0.9,0.4,1.5,1.1,1.9,1.9c0.3,0.9,0.3,1.8,0,2.7c-0.3,0.6-0.7,1.1-1.3,1.3c-0.3,0.1-0.6,0.2-0.9,0.2
		c-0.3,0-0.7-0.1-1-0.2c-0.4-0.2-0.8-0.5-0.9-1c-0.2-0.4-0.2-0.9,0-1.4c0.1-0.3,0.4-0.6,0.8-0.7c0.3-0.1,0.7-0.1,1.1,0
		c0.4,0.2,0.6,0.7,0.4,1.1c-0.1,0.3-0.4,0.5-0.7,0.5c0,0,0,0,0.1,0c0.2,0.1,0.4,0.1,0.6,0c0.2-0.1,0.4-0.2,0.4-0.4
		c0.2-0.5,0.2-1,0-1.4c-0.2-0.5-0.6-0.8-1-1.1C97,6.2,95.8,6,94.7,6c0,0-0.1,0-0.1,0c-0.1,0-0.3,0-0.4,0H83.9
		c-0.4,0-0.8-0.4-0.8-0.8S83.5,4.4,83.9,4.4z"/>
	<path id="XMLID_1023_" class="st0" d="M87.3,7h4.5c1.8,0,3.3,1.5,3.3,3.3c0,1.3-1,2.3-2.3,2.3c-0.9,0-1.7-0.8-1.7-1.7
		c0-0.4,0.4-0.8,0.8-0.8c0.4,0,0.8,0.4,0.8,0.8c0,0.1,0,0.1,0.1,0.1c0.4,0,0.7-0.3,0.7-0.7c0-0.9-0.8-1.7-1.7-1.7h-4.5
		c-0.4,0-0.8-0.4-0.8-0.8C86.5,7.3,86.8,7,87.3,7z"/>
</g>
<g id="XMLID_114_">
	<path id="XMLID_115_" d="M-68.1,45.4c-0.2-0.5-0.5-0.9-0.9-0.9c-0.3,0-0.5,0.2-0.5,0.6c0,0.4,0.3,0.6,0.7,0.7
		c0.7,0.3,1.1,0.6,1.1,1.2c0,0.8-0.7,1.2-1.5,1.2c-0.5,0-0.9-0.2-1-0.3c-0.1-0.1-0.1-0.7-0.2-1.1l0.2,0c0.2,0.6,0.6,1.1,1.1,1.1
		c0.3,0,0.6-0.2,0.6-0.6c0-0.4-0.2-0.5-0.7-0.7c-0.5-0.2-1.1-0.5-1.1-1.2c0-0.6,0.5-1.1,1.3-1.1c0.4,0,0.6,0.1,0.8,0.2
		c0.1,0.2,0.2,0.7,0.2,0.9L-68.1,45.4z"/>
	<path id="XMLID_117_" d="M-62.8,47.9c-0.2,0-0.4,0.1-0.7,0.1c-0.2,0.1-0.5,0.1-0.7,0.2l-0.1,0v-0.6c-0.2,0.1-0.4,0.3-0.6,0.4
		c-0.3,0.1-0.4,0.2-0.7,0.2c-0.6,0-1.1-0.4-1.1-1.3v-1.6c0-0.5-0.1-0.5-0.3-0.6l-0.2-0.1v-0.2c0.2,0,0.4,0,0.7-0.1
		c0.2,0,0.5-0.1,0.7-0.1c0,0.3,0,0.7,0,1.2v1.2c0,0.7,0.4,0.9,0.8,0.9c0.3,0,0.6-0.1,0.9-0.4v-2c0-0.5-0.1-0.5-0.4-0.6l-0.3-0.1
		v-0.2c0.2,0,0.6,0,0.8-0.1c0.3,0,0.5-0.1,0.6-0.1v2.8c0,0.4,0.1,0.5,0.4,0.5l0.2,0V47.9z"/>
	<path id="XMLID_119_" d="M-60,48.1v-0.2c0.5-0.1,0.6-0.1,0.6-0.7v-1.4c0-0.6-0.2-1-0.8-1c-0.3,0-0.7,0.2-0.9,0.4v2
		c0,0.6,0,0.6,0.6,0.7v0.2h-1.9v-0.2c0.6-0.1,0.6-0.1,0.6-0.7v-1.7c0-0.6-0.1-0.6-0.5-0.7v-0.2c0.4-0.1,0.9-0.2,1.3-0.3v0.7
		c0.2-0.1,0.4-0.3,0.6-0.4c0.2-0.2,0.5-0.3,0.7-0.3c0.7,0,1.1,0.5,1.1,1.3v1.6c0,0.6,0.1,0.6,0.6,0.7v0.2H-60z"/>
	<path id="XMLID_121_" d="M-55.1,48.1v-0.2c0.5-0.1,0.6-0.1,0.6-0.7v-1.4c0-0.6-0.2-1-0.8-1c-0.3,0-0.7,0.2-0.9,0.4v2
		c0,0.6,0,0.6,0.6,0.7v0.2h-1.9v-0.2c0.6-0.1,0.6-0.1,0.6-0.7v-1.7c0-0.6-0.1-0.6-0.5-0.7v-0.2c0.4-0.1,0.9-0.2,1.3-0.3v0.7
		c0.2-0.1,0.4-0.3,0.6-0.4c0.2-0.2,0.5-0.3,0.7-0.3c0.7,0,1.1,0.5,1.1,1.3v1.6c0,0.6,0.1,0.6,0.6,0.7v0.2H-55.1z"/>
	<path id="XMLID_123_" d="M-48.9,44.6c-0.5,0.1-0.5,0.1-0.8,0.6c-0.2,0.4-0.5,1.2-1.1,2.5c-0.6,1.4-0.8,1.9-0.9,2.3
		c0,0.2-0.2,0.2-0.3,0.2c-0.3,0-0.5-0.2-0.5-0.4c0-0.1,0.1-0.2,0.2-0.3c0.3-0.2,0.5-0.4,0.7-0.8c0.2-0.3,0.2-0.5,0.3-0.6
		c0.1-0.1,0-0.2,0-0.4c-0.4-1-0.8-2.1-1-2.6c-0.2-0.4-0.3-0.6-0.8-0.6v-0.2h1.8l0,0.2c-0.4,0.1-0.5,0.1-0.3,0.5l0.8,2.1
		c0.2-0.5,0.6-1.6,0.8-2.1c0.1-0.3,0-0.4-0.4-0.5v-0.2h1.6V44.6z"/>
	<path id="XMLID_125_" d="M-48.2,46.9c0.3,0,0.8,0.4,0.8,1c0,0.7-0.6,1.1-1.2,1.2l-0.1-0.3c0.4-0.2,0.7-0.4,0.7-0.7
		c0-0.3-0.2-0.5-0.6-0.6c0,0-0.1-0.1-0.1-0.2C-48.7,47.1-48.4,46.9-48.2,46.9L-48.2,46.9z"/>
	<path id="XMLID_127_" d="M-42.4,44.4c0.2-0.1,0.3-0.1,0.5-0.1c1,0,1.6,0.8,1.6,1.6c0,1.3-1,2.1-2.2,2.3c-0.3,0-0.5-0.1-0.6-0.1v1.1
		c0,0.6,0.1,0.7,0.7,0.7v0.2h-2.1v-0.2c0.6-0.1,0.6-0.1,0.6-0.7v-3.9c0-0.5,0-0.6-0.6-0.6v-0.2c0.4-0.1,0.9-0.2,1.3-0.4v0.7
		L-42.4,44.4z M-43.1,47.4c0.2,0.2,0.5,0.3,0.8,0.3c0.7,0,1.2-0.7,1.2-1.5c0-0.9-0.6-1.4-1.2-1.4c-0.3,0-0.6,0.2-0.8,0.4V47.4z"/>
	<path id="XMLID_130_" d="M-37,48.2c-0.2,0-0.4-0.1-0.4-0.2c-0.1-0.1-0.2-0.2-0.2-0.4c-0.4,0.2-0.8,0.5-1,0.5
		c-0.7,0-1.1-0.5-1.1-1.1c0-0.4,0.2-0.7,0.7-0.8c0.6-0.2,1.2-0.4,1.3-0.6v-0.2c0-0.6-0.3-0.9-0.7-0.9c-0.2,0-0.3,0.1-0.4,0.2
		c-0.1,0.1-0.2,0.3-0.3,0.6c-0.1,0.2-0.1,0.2-0.3,0.2c-0.2,0-0.4-0.2-0.4-0.4c0-0.1,0.1-0.2,0.3-0.4c0.3-0.2,0.8-0.5,1.3-0.6
		c0.3,0,0.5,0.1,0.7,0.2c0.3,0.3,0.4,0.6,0.4,1.1v1.5c0,0.4,0.2,0.5,0.3,0.5c0.1,0,0.2,0,0.3-0.1l0.1,0.2L-37,48.2z M-37.7,46
		c-0.2,0.1-0.5,0.3-0.7,0.3c-0.3,0.1-0.5,0.3-0.5,0.6c0,0.5,0.3,0.7,0.6,0.7c0.2,0,0.5-0.1,0.6-0.3V46z"/>
	<path id="XMLID_133_" d="M-34.5,45.2c0.3-0.5,0.6-0.9,1-0.9c0.3,0,0.5,0.2,0.5,0.4c0,0.2-0.1,0.4-0.3,0.5c-0.1,0-0.2,0-0.2,0
		c-0.1-0.1-0.2-0.2-0.4-0.2c-0.2,0-0.5,0.3-0.7,0.7v1.5c0,0.6,0,0.6,0.7,0.7v0.2h-2.1v-0.2c0.5-0.1,0.6-0.1,0.6-0.7v-1.8
		c0-0.5,0-0.6-0.5-0.7v-0.2c0.4-0.1,0.8-0.2,1.3-0.4L-34.5,45.2L-34.5,45.2z"/>
	<path id="XMLID_135_" d="M-30.8,48.1c-0.2,0.1-0.3,0.1-0.4,0.1c-0.6,0-0.9-0.3-0.9-1v-2.5h-0.6l0-0.1l0.2-0.3h0.4v-0.6l0.6-0.6
		l0.1,0v1.2h1c0.1,0.1,0.1,0.3-0.1,0.4h-0.9v2.2c0,0.7,0.3,0.8,0.5,0.8c0.2,0,0.4-0.1,0.5-0.1l0.1,0.2L-30.8,48.1z"/>
	<path id="XMLID_137_" d="M-30,48.1v-0.2c0.5-0.1,0.6-0.1,0.6-0.7v-4c0-0.6-0.1-0.6-0.6-0.7v-0.2c0.5-0.1,1-0.2,1.3-0.3v5.2
		c0,0.6,0.1,0.6,0.6,0.7v0.2H-30z"/>
	<path id="XMLID_139_" d="M-23.7,44.6c-0.5,0.1-0.5,0.1-0.8,0.6c-0.2,0.4-0.5,1.2-1.1,2.5c-0.6,1.4-0.8,1.9-0.9,2.3
		c0,0.2-0.2,0.2-0.3,0.2c-0.3,0-0.5-0.2-0.5-0.4c0-0.1,0.1-0.2,0.2-0.3c0.3-0.2,0.5-0.4,0.7-0.8c0.2-0.3,0.2-0.5,0.3-0.6
		c0.1-0.1,0-0.2,0-0.4c-0.4-1-0.8-2.1-1-2.6c-0.2-0.4-0.3-0.6-0.8-0.6v-0.2h1.8l0,0.2c-0.4,0.1-0.5,0.1-0.3,0.5l0.8,2.1
		c0.2-0.5,0.6-1.6,0.8-2.1c0.1-0.3,0-0.4-0.4-0.5v-0.2h1.6V44.6z"/>
	<path id="XMLID_141_" d="M-21.4,46.4h-2l0.1-0.5h2.1L-21.4,46.4z"/>
	<path id="XMLID_143_" d="M-17.1,47.3c-0.4,0.5-1,0.9-1.5,0.9c-1.1,0-1.8-0.9-1.8-1.8c0-0.7,0.3-1.2,0.9-1.7c0.5-0.4,1-0.5,1.3-0.5
		h0c0.4,0,0.6,0.1,0.8,0.2c0.1,0.1,0.1,0.2,0.1,0.3c0,0.2-0.2,0.4-0.3,0.4c-0.1,0-0.1,0-0.2-0.1c-0.3-0.3-0.6-0.4-0.9-0.4
		c-0.5,0-1,0.4-1,1.3c0,1.2,0.9,1.6,1.3,1.6c0.4,0,0.7-0.1,1-0.5L-17.1,47.3z"/>
	<path id="XMLID_145_" d="M-16.9,48.1v-0.2c0.5-0.1,0.6-0.1,0.6-0.7v-4c0-0.6-0.1-0.6-0.6-0.7v-0.2c0.5-0.1,1-0.2,1.3-0.3v5.2
		c0,0.6,0.1,0.6,0.6,0.7v0.2H-16.9z"/>
	<path id="XMLID_147_" d="M-12.5,44.2c1.1,0,1.9,0.9,1.9,1.9c0,1.4-1.1,2-1.9,2c-1.2,0-2-0.9-2-1.9C-14.5,44.9-13.3,44.2-12.5,44.2
		L-12.5,44.2z M-12.6,44.5c-0.5,0-1,0.5-1,1.5c0,1.1,0.5,1.9,1.2,1.9c0.5,0,1-0.3,1-1.5C-11.4,45.3-11.9,44.5-12.6,44.5L-12.6,44.5z
		"/>
	<path id="XMLID_150_" d="M-5.7,47.9c-0.2,0-0.4,0.1-0.7,0.1c-0.2,0.1-0.5,0.1-0.7,0.2l-0.1,0v-0.6c-0.2,0.1-0.4,0.3-0.6,0.4
		c-0.3,0.1-0.4,0.2-0.7,0.2c-0.6,0-1.1-0.4-1.1-1.3v-1.6c0-0.5-0.1-0.5-0.3-0.6l-0.2-0.1v-0.2c0.2,0,0.4,0,0.7-0.1
		c0.2,0,0.5-0.1,0.7-0.1c0,0.3,0,0.7,0,1.2v1.2c0,0.7,0.4,0.9,0.8,0.9c0.3,0,0.6-0.1,0.9-0.4v-2c0-0.5-0.1-0.5-0.4-0.6l-0.3-0.1
		v-0.2c0.2,0,0.6,0,0.8-0.1c0.3,0,0.5-0.1,0.6-0.1v2.8c0,0.4,0.1,0.5,0.4,0.5l0.2,0V47.9z"/>
	<path id="XMLID_152_" d="M-1,47.9c-0.2,0-0.9,0.1-1.4,0.3v-0.6l-0.5,0.3c-0.3,0.2-0.6,0.2-0.7,0.2c-0.7,0-1.7-0.6-1.7-1.8
		c0-1.2,1.1-2.1,2.3-2.1c0.1,0,0.4,0,0.6,0.1v-1.2c0-0.6-0.1-0.6-0.7-0.6v-0.2c0.5-0.1,1.1-0.2,1.4-0.3v5.1c0,0.5,0.1,0.5,0.4,0.5
		l0.2,0V47.9z M-2.4,45c-0.2-0.3-0.6-0.4-0.9-0.4c-0.4,0-1.1,0.3-1.1,1.6c0,1,0.7,1.5,1.2,1.5c0.3,0,0.6-0.1,0.8-0.3V45z"/>
	<path id="XMLID_155_" d="M3.3,44.6c-0.5,0.1-0.5,0.1-0.8,0.6c-0.2,0.4-0.5,1.2-1.1,2.5c-0.6,1.4-0.8,1.9-0.9,2.3
		c0,0.2-0.2,0.2-0.3,0.2c-0.3,0-0.5-0.2-0.5-0.4c0-0.1,0.1-0.2,0.2-0.3c0.3-0.2,0.5-0.4,0.7-0.8c0.2-0.3,0.2-0.5,0.3-0.6
		c0.1-0.1,0-0.2,0-0.4c-0.4-1-0.8-2.1-1-2.6c-0.2-0.4-0.3-0.6-0.8-0.6v-0.2H1l0,0.2c-0.4,0.1-0.5,0.1-0.3,0.5l0.8,2.1
		c0.2-0.5,0.6-1.6,0.8-2.1c0.1-0.3,0-0.4-0.4-0.5v-0.2h1.6V44.6z"/>
	<path id="XMLID_157_" d="M4,46.9c0.3,0,0.8,0.4,0.8,1c0,0.7-0.6,1.1-1.2,1.2l-0.1-0.3c0.4-0.2,0.7-0.4,0.7-0.7
		c0-0.3-0.2-0.5-0.6-0.6c0,0-0.1-0.1-0.1-0.2C3.5,47.1,3.8,46.9,4,46.9L4,46.9z"/>
	<path id="XMLID_159_" d="M10.1,45.4c-0.2-0.5-0.5-0.9-0.9-0.9c-0.3,0-0.5,0.2-0.5,0.6c0,0.4,0.3,0.6,0.7,0.7
		c0.7,0.3,1.1,0.6,1.1,1.2c0,0.8-0.7,1.2-1.5,1.2c-0.5,0-0.9-0.2-1-0.3c-0.1-0.1-0.1-0.7-0.2-1.1l0.2,0c0.2,0.6,0.6,1.1,1.1,1.1
		c0.3,0,0.6-0.2,0.6-0.6c0-0.4-0.2-0.5-0.7-0.7C8.6,46.3,8,46.1,8,45.4c0-0.6,0.5-1.1,1.3-1.1c0.4,0,0.6,0.1,0.8,0.2
		c0.1,0.2,0.2,0.7,0.2,0.9L10.1,45.4z"/>
	<path id="XMLID_161_" d="M15.3,47.9c-0.2,0-0.4,0.1-0.7,0.1c-0.2,0.1-0.5,0.1-0.7,0.2l-0.1,0v-0.6c-0.2,0.1-0.4,0.3-0.6,0.4
		c-0.3,0.1-0.4,0.2-0.7,0.2c-0.6,0-1.1-0.4-1.1-1.3v-1.6c0-0.5-0.1-0.5-0.3-0.6L11,44.6v-0.2c0.2,0,0.4,0,0.7-0.1
		c0.2,0,0.5-0.1,0.7-0.1c0,0.3,0,0.7,0,1.2v1.2c0,0.7,0.4,0.9,0.8,0.9c0.3,0,0.6-0.1,0.9-0.4v-2c0-0.5-0.1-0.5-0.4-0.6l-0.3-0.1
		v-0.2c0.2,0,0.6,0,0.8-0.1c0.3,0,0.5-0.1,0.6-0.1v2.8c0,0.4,0.1,0.5,0.4,0.5l0.2,0V47.9z"/>
	<path id="XMLID_163_" d="M18.2,48.1v-0.2c0.5-0.1,0.6-0.1,0.6-0.7v-1.4c0-0.6-0.2-1-0.8-1c-0.3,0-0.7,0.2-0.9,0.4v2
		c0,0.6,0,0.6,0.6,0.7v0.2h-1.9v-0.2c0.6-0.1,0.6-0.1,0.6-0.7v-1.7c0-0.6-0.1-0.6-0.5-0.7v-0.2c0.4-0.1,0.9-0.2,1.3-0.3v0.7
		c0.2-0.1,0.4-0.3,0.6-0.4c0.2-0.2,0.5-0.3,0.7-0.3c0.7,0,1.1,0.5,1.1,1.3v1.6c0,0.6,0.1,0.6,0.6,0.7v0.2H18.2z"/>
	<path id="XMLID_165_" d="M23,48.1v-0.2c0.5-0.1,0.6-0.1,0.6-0.7v-1.4c0-0.6-0.2-1-0.8-1c-0.3,0-0.7,0.2-0.9,0.4v2
		c0,0.6,0,0.6,0.6,0.7v0.2h-1.9v-0.2c0.6-0.1,0.6-0.1,0.6-0.7v-1.7c0-0.6-0.1-0.6-0.5-0.7v-0.2c0.4-0.1,0.9-0.2,1.3-0.3v0.7
		c0.2-0.1,0.4-0.3,0.6-0.4c0.2-0.2,0.5-0.3,0.7-0.3c0.7,0,1.1,0.5,1.1,1.3v1.6c0,0.6,0.1,0.6,0.6,0.7v0.2H23z"/>
	<path id="XMLID_167_" d="M29.3,44.6c-0.5,0.1-0.5,0.1-0.8,0.6c-0.2,0.4-0.5,1.2-1.1,2.5c-0.6,1.4-0.8,1.9-0.9,2.3
		c0,0.2-0.2,0.2-0.3,0.2c-0.3,0-0.5-0.2-0.5-0.4c0-0.1,0.1-0.2,0.2-0.3c0.3-0.2,0.5-0.4,0.7-0.8c0.2-0.3,0.2-0.5,0.3-0.6
		c0.1-0.1,0-0.2,0-0.4c-0.4-1-0.8-2.1-1-2.6c-0.2-0.4-0.3-0.6-0.8-0.6v-0.2h1.8l0,0.2c-0.4,0.1-0.5,0.1-0.3,0.5l0.8,2.1
		c0.2-0.5,0.6-1.6,0.8-2.1c0.1-0.3,0-0.4-0.4-0.5v-0.2h1.6V44.6z"/>
	<path id="XMLID_169_" d="M31.6,46.4h-2l0.1-0.5h2.1L31.6,46.4z"/>
	<path id="XMLID_171_" d="M33.9,45.2c0.3-0.5,0.6-0.9,1-0.9c0.3,0,0.5,0.2,0.5,0.4c0,0.2-0.1,0.4-0.3,0.5c-0.1,0-0.2,0-0.2,0
		c-0.1-0.1-0.2-0.2-0.4-0.2c-0.2,0-0.5,0.3-0.7,0.7v1.5c0,0.6,0,0.6,0.7,0.7v0.2h-2.1v-0.2c0.5-0.1,0.6-0.1,0.6-0.7v-1.8
		c0-0.5,0-0.6-0.5-0.7v-0.2c0.4-0.1,0.8-0.2,1.3-0.4L33.9,45.2L33.9,45.2z"/>
	<path id="XMLID_173_" d="M38.6,48.2c-0.2,0-0.4-0.1-0.4-0.2C38,47.9,38,47.8,38,47.7c-0.4,0.2-0.8,0.5-1,0.5
		c-0.7,0-1.1-0.5-1.1-1.1c0-0.4,0.2-0.7,0.7-0.8c0.6-0.2,1.2-0.4,1.3-0.6v-0.2c0-0.6-0.3-0.9-0.7-0.9c-0.2,0-0.3,0.1-0.4,0.2
		c-0.1,0.1-0.2,0.3-0.3,0.6c-0.1,0.2-0.1,0.2-0.3,0.2c-0.2,0-0.4-0.2-0.4-0.4c0-0.1,0.1-0.2,0.3-0.4c0.3-0.2,0.8-0.5,1.3-0.6
		c0.3,0,0.5,0.1,0.7,0.2c0.3,0.3,0.4,0.6,0.4,1.1v1.5c0,0.4,0.2,0.5,0.3,0.5c0.1,0,0.2,0,0.3-0.1l0.1,0.2L38.6,48.2z M37.9,46
		c-0.2,0.1-0.5,0.3-0.7,0.3c-0.3,0.1-0.5,0.3-0.5,0.6c0,0.5,0.3,0.7,0.6,0.7c0.2,0,0.5-0.1,0.6-0.3V46z"/>
	<path id="XMLID_176_" d="M39.7,48.1v-0.2c0.5-0.1,0.6-0.1,0.6-0.7v-1.7c0-0.5,0-0.6-0.5-0.7v-0.2c0.5-0.1,0.9-0.2,1.3-0.3v2.9
		c0,0.6,0.1,0.6,0.6,0.7v0.2H39.7z M40.2,43.1c0-0.3,0.2-0.5,0.5-0.5s0.5,0.2,0.5,0.5c0,0.2-0.2,0.5-0.5,0.5
		C40.4,43.5,40.2,43.3,40.2,43.1z"/>
	<path id="XMLID_179_" d="M44.6,48.1v-0.2c0.5-0.1,0.6-0.1,0.6-0.7v-1.4c0-0.6-0.2-1-0.8-1c-0.3,0-0.7,0.2-0.9,0.4v2
		c0,0.6,0,0.6,0.6,0.7v0.2h-1.9v-0.2c0.6-0.1,0.6-0.1,0.6-0.7v-1.7c0-0.6-0.1-0.6-0.5-0.7v-0.2c0.4-0.1,0.9-0.2,1.3-0.3v0.7
		c0.2-0.1,0.4-0.3,0.6-0.4c0.2-0.2,0.5-0.3,0.7-0.3c0.7,0,1.1,0.5,1.1,1.3v1.6c0,0.6,0.1,0.6,0.6,0.7v0.2H44.6z"/>
	<path id="XMLID_181_" d="M50.8,44.6c-0.5,0.1-0.5,0.1-0.8,0.6c-0.2,0.4-0.5,1.2-1.1,2.5c-0.6,1.4-0.8,1.9-0.9,2.3
		c0,0.2-0.2,0.2-0.3,0.2c-0.3,0-0.5-0.2-0.5-0.4c0-0.1,0.1-0.2,0.2-0.3c0.3-0.2,0.5-0.4,0.7-0.8c0.2-0.3,0.2-0.5,0.3-0.6
		c0.1-0.1,0-0.2,0-0.4c-0.4-1-0.8-2.1-1-2.6c-0.2-0.4-0.3-0.6-0.8-0.6v-0.2h1.8l0,0.2c-0.4,0.1-0.5,0.1-0.3,0.5l0.8,2.1
		c0.2-0.5,0.6-1.6,0.8-2.1c0.1-0.3,0-0.4-0.4-0.5v-0.2h1.6V44.6z"/>
	<path id="XMLID_183_" d="M51.5,46.9c0.3,0,0.8,0.4,0.8,1c0,0.7-0.6,1.1-1.2,1.2L51,48.9c0.4-0.2,0.7-0.4,0.7-0.7
		c0-0.3-0.2-0.5-0.6-0.6c0,0-0.1-0.1-0.1-0.2C51.1,47.1,51.3,46.9,51.5,46.9L51.5,46.9z"/>
	<path id="XMLID_185_" d="M56.7,45.2c0.3-0.5,0.6-0.9,1-0.9c0.3,0,0.5,0.2,0.5,0.4c0,0.2-0.1,0.4-0.3,0.5c-0.1,0-0.2,0-0.2,0
		c-0.1-0.1-0.2-0.2-0.4-0.2c-0.2,0-0.5,0.3-0.7,0.7v1.5c0,0.6,0,0.6,0.7,0.7v0.2h-2.1v-0.2c0.5-0.1,0.6-0.1,0.6-0.7v-1.8
		c0-0.5,0-0.6-0.5-0.7v-0.2c0.4-0.1,0.8-0.2,1.3-0.4L56.7,45.2L56.7,45.2z"/>
	<path id="XMLID_187_" d="M61.4,48.2c-0.2,0-0.4-0.1-0.4-0.2c-0.1-0.1-0.2-0.2-0.2-0.4c-0.4,0.2-0.8,0.5-1,0.5
		c-0.7,0-1.1-0.5-1.1-1.1c0-0.4,0.2-0.7,0.7-0.8c0.6-0.2,1.2-0.4,1.3-0.6v-0.2c0-0.6-0.3-0.9-0.7-0.9c-0.2,0-0.3,0.1-0.4,0.2
		c-0.1,0.1-0.2,0.3-0.3,0.6c-0.1,0.2-0.1,0.2-0.3,0.2c-0.2,0-0.4-0.2-0.4-0.4c0-0.1,0.1-0.2,0.3-0.4c0.3-0.2,0.8-0.5,1.3-0.6
		c0.3,0,0.5,0.1,0.7,0.2c0.3,0.3,0.4,0.6,0.4,1.1v1.5c0,0.4,0.2,0.5,0.3,0.5c0.1,0,0.2,0,0.3-0.1l0.1,0.2L61.4,48.2z M60.7,46
		c-0.2,0.1-0.5,0.3-0.7,0.3c-0.3,0.1-0.5,0.3-0.5,0.6c0,0.5,0.3,0.7,0.6,0.7c0.2,0,0.5-0.1,0.6-0.3V46z"/>
	<path id="XMLID_190_" d="M62.5,48.1v-0.2c0.5-0.1,0.6-0.1,0.6-0.7v-1.7c0-0.5,0-0.6-0.5-0.7v-0.2c0.5-0.1,0.9-0.2,1.3-0.3v2.9
		c0,0.6,0.1,0.6,0.6,0.7v0.2H62.5z M62.9,43.1c0-0.3,0.2-0.5,0.5-0.5s0.5,0.2,0.5,0.5c0,0.2-0.2,0.5-0.5,0.5
		C63.2,43.5,62.9,43.3,62.9,43.1z"/>
	<path id="XMLID_193_" d="M67.4,48.1v-0.2c0.5-0.1,0.6-0.1,0.6-0.7v-1.4c0-0.6-0.2-1-0.8-1c-0.3,0-0.7,0.2-0.9,0.4v2
		c0,0.6,0,0.6,0.6,0.7v0.2h-1.9v-0.2c0.6-0.1,0.6-0.1,0.6-0.7v-1.7c0-0.6-0.1-0.6-0.5-0.7v-0.2c0.4-0.1,0.9-0.2,1.3-0.3v0.7
		c0.2-0.1,0.4-0.3,0.6-0.4c0.2-0.2,0.5-0.3,0.7-0.3c0.7,0,1.1,0.5,1.1,1.3v1.6c0,0.6,0.1,0.6,0.6,0.7v0.2H67.4z"/>
	<path id="XMLID_195_" d="M73.6,44.6c-0.5,0.1-0.5,0.1-0.8,0.6c-0.2,0.4-0.5,1.2-1.1,2.5c-0.6,1.4-0.8,1.9-0.9,2.3
		c0,0.2-0.2,0.2-0.3,0.2c-0.3,0-0.5-0.2-0.5-0.4c0-0.1,0.1-0.2,0.2-0.3c0.3-0.2,0.5-0.4,0.7-0.8c0.2-0.3,0.2-0.5,0.3-0.6
		c0.1-0.1,0-0.2,0-0.4c-0.4-1-0.8-2.1-1-2.6c-0.2-0.4-0.3-0.6-0.8-0.6v-0.2h1.8l0,0.2c-0.4,0.1-0.5,0.1-0.3,0.5l0.8,2.1
		c0.2-0.5,0.6-1.6,0.8-2.1c0.1-0.3,0-0.4-0.4-0.5v-0.2h1.6V44.6z"/>
	<path id="XMLID_197_" d="M74.3,46.9c0.3,0,0.8,0.4,0.8,1c0,0.7-0.6,1.1-1.2,1.2l-0.1-0.3c0.4-0.2,0.7-0.4,0.7-0.7
		c0-0.3-0.2-0.5-0.6-0.6c0,0-0.1-0.1-0.1-0.2C73.8,47.1,74,46.9,74.3,46.9L74.3,46.9z"/>
	<path id="XMLID_199_" d="M83.9,44.6c-0.4,0.1-0.5,0.2-0.7,0.6c-0.3,0.7-0.7,1.8-1.1,3h-0.3c-0.4-0.9-0.7-1.8-1.1-2.6
		c-0.3,0.9-0.7,1.7-1,2.6h-0.3c-0.3-1-0.7-2-1-3c-0.2-0.4-0.2-0.5-0.6-0.6v-0.2h1.9v0.2c-0.5,0.1-0.6,0.1-0.4,0.5
		c0.2,0.6,0.4,1.3,0.6,1.9h0c0.3-0.8,0.7-1.7,1-2.6h0.2c0.3,0.9,0.7,1.8,1,2.7h0c0.2-0.5,0.4-1.3,0.6-1.9c0.1-0.4,0.1-0.5-0.5-0.6
		v-0.2h1.6V44.6z"/>
	<path id="XMLID_201_" d="M84.1,48.1v-0.2c0.5-0.1,0.6-0.1,0.6-0.7v-1.7c0-0.5,0-0.6-0.5-0.7v-0.2c0.5-0.1,0.9-0.2,1.3-0.3v2.9
		c0,0.6,0.1,0.6,0.6,0.7v0.2H84.1z M84.5,43.1c0-0.3,0.2-0.5,0.5-0.5s0.5,0.2,0.5,0.5c0,0.2-0.2,0.5-0.5,0.5
		C84.8,43.5,84.5,43.3,84.5,43.1z"/>
	<path id="XMLID_204_" d="M89,48.1v-0.2c0.5-0.1,0.6-0.1,0.6-0.7v-1.4c0-0.6-0.2-1-0.8-1c-0.3,0-0.7,0.2-0.9,0.4v2
		c0,0.6,0,0.6,0.6,0.7v0.2h-1.9v-0.2c0.6-0.1,0.6-0.1,0.6-0.7v-1.7c0-0.6-0.1-0.6-0.5-0.7v-0.2c0.4-0.1,0.9-0.2,1.3-0.3v0.7
		c0.2-0.1,0.4-0.3,0.6-0.4c0.2-0.2,0.5-0.3,0.7-0.3c0.7,0,1.1,0.5,1.1,1.3v1.6c0,0.6,0.1,0.6,0.6,0.7v0.2H89z"/>
	<path id="XMLID_206_" d="M95.6,47.9c-0.2,0-0.9,0.1-1.4,0.3v-0.6l-0.5,0.3c-0.3,0.2-0.6,0.2-0.7,0.2c-0.7,0-1.7-0.6-1.7-1.8
		c0-1.2,1.1-2.1,2.3-2.1c0.1,0,0.4,0,0.6,0.1v-1.2c0-0.6-0.1-0.6-0.7-0.6v-0.2c0.5-0.1,1.1-0.2,1.4-0.3v5.1c0,0.5,0.1,0.5,0.4,0.5
		l0.2,0V47.9z M94.2,45c-0.2-0.3-0.6-0.4-0.9-0.4c-0.4,0-1.1,0.3-1.1,1.6c0,1,0.7,1.5,1.2,1.5c0.3,0,0.6-0.1,0.8-0.3V45z"/>
	<path id="XMLID_209_" d="M99.9,44.6c-0.5,0.1-0.5,0.1-0.8,0.6c-0.2,0.4-0.5,1.2-1.1,2.5c-0.6,1.4-0.8,1.9-0.9,2.3
		c0,0.2-0.2,0.2-0.3,0.2c-0.3,0-0.5-0.2-0.5-0.4c0-0.1,0.1-0.2,0.2-0.3c0.3-0.2,0.5-0.4,0.7-0.8c0.2-0.3,0.2-0.5,0.3-0.6
		c0.1-0.1,0-0.2,0-0.4c-0.4-1-0.8-2.1-1-2.6c-0.2-0.4-0.3-0.6-0.8-0.6v-0.2h1.8l0,0.2c-0.4,0.1-0.5,0.1-0.3,0.5l0.8,2.1
		c0.2-0.5,0.6-1.6,0.8-2.1c0.1-0.3,0-0.4-0.4-0.5v-0.2h1.6V44.6z"/>
	<path id="XMLID_211_" d="M100.6,46.9c0.3,0,0.8,0.4,0.8,1c0,0.7-0.6,1.1-1.2,1.2l-0.1-0.3c0.4-0.2,0.7-0.4,0.7-0.7
		c0-0.3-0.2-0.5-0.6-0.6c0,0-0.1-0.1-0.1-0.2C100.1,47.1,100.3,46.9,100.6,46.9L100.6,46.9z"/>
	<path id="XMLID_213_" d="M107.7,47.3c-0.4,0.5-1,0.9-1.5,0.9c-1.1,0-1.8-0.9-1.8-1.8c0-0.7,0.3-1.2,0.9-1.7c0.5-0.4,1-0.5,1.3-0.5
		h0c0.4,0,0.6,0.1,0.8,0.2c0.1,0.1,0.1,0.2,0.1,0.3c0,0.2-0.2,0.4-0.3,0.4c-0.1,0-0.1,0-0.2-0.1c-0.3-0.3-0.6-0.4-0.9-0.4
		c-0.5,0-1,0.4-1,1.3c0,1.2,0.9,1.6,1.3,1.6c0.4,0,0.7-0.1,1-0.5L107.7,47.3z"/>
	<path id="XMLID_215_" d="M107.9,48.1v-0.2c0.5-0.1,0.6-0.1,0.6-0.7v-4c0-0.6-0.1-0.6-0.6-0.7v-0.2c0.5-0.1,1-0.2,1.3-0.3v5.2
		c0,0.6,0.1,0.6,0.6,0.7v0.2H107.9z"/>
	<path id="XMLID_217_" d="M112.3,44.2c1.1,0,1.9,0.9,1.9,1.9c0,1.4-1.1,2-1.9,2c-1.2,0-2-0.9-2-1.9
		C110.4,44.9,111.5,44.2,112.3,44.2L112.3,44.2z M112.2,44.5c-0.5,0-1,0.5-1,1.5c0,1.1,0.5,1.9,1.2,1.9c0.5,0,1-0.3,1-1.5
		C113.4,45.3,113,44.5,112.2,44.5L112.2,44.5z"/>
	<path id="XMLID_220_" d="M119.2,47.9c-0.2,0-0.4,0.1-0.7,0.1c-0.2,0.1-0.5,0.1-0.7,0.2l-0.1,0v-0.6c-0.2,0.1-0.4,0.3-0.6,0.4
		c-0.3,0.1-0.4,0.2-0.7,0.2c-0.6,0-1.1-0.4-1.1-1.3v-1.6c0-0.5-0.1-0.5-0.3-0.6l-0.2-0.1v-0.2c0.2,0,0.4,0,0.7-0.1
		c0.2,0,0.5-0.1,0.7-0.1c0,0.3,0,0.7,0,1.2v1.2c0,0.7,0.4,0.9,0.8,0.9c0.3,0,0.6-0.1,0.9-0.4v-2c0-0.5-0.1-0.5-0.4-0.6l-0.3-0.1
		v-0.2c0.2,0,0.6,0,0.8-0.1c0.3,0,0.5-0.1,0.6-0.1v2.8c0,0.4,0.1,0.5,0.4,0.5l0.2,0V47.9z"/>
	<path id="XMLID_222_" d="M123.9,47.9c-0.2,0-0.9,0.1-1.4,0.3v-0.6l-0.5,0.3c-0.3,0.2-0.6,0.2-0.7,0.2c-0.7,0-1.7-0.6-1.7-1.8
		c0-1.2,1.1-2.1,2.3-2.1c0.1,0,0.4,0,0.6,0.1v-1.2c0-0.6-0.1-0.6-0.7-0.6v-0.2c0.5-0.1,1.1-0.2,1.4-0.3v5.1c0,0.5,0.1,0.5,0.4,0.5
		l0.2,0V47.9z M122.4,45c-0.2-0.3-0.6-0.4-0.9-0.4c-0.4,0-1.1,0.3-1.1,1.6c0,1,0.7,1.5,1.2,1.5c0.3,0,0.6-0.1,0.8-0.3V45z"/>
	<path id="XMLID_225_" d="M128.2,44.6c-0.5,0.1-0.5,0.1-0.8,0.6c-0.2,0.4-0.5,1.2-1.1,2.5c-0.6,1.4-0.8,1.9-0.9,2.3
		c0,0.2-0.2,0.2-0.3,0.2c-0.3,0-0.5-0.2-0.5-0.4c0-0.1,0.1-0.2,0.2-0.3c0.3-0.2,0.5-0.4,0.7-0.8c0.2-0.3,0.2-0.5,0.3-0.6
		c0.1-0.1,0-0.2,0-0.4c-0.4-1-0.8-2.1-1-2.6c-0.2-0.4-0.3-0.6-0.8-0.6v-0.2h1.8l0,0.2c-0.4,0.1-0.5,0.1-0.3,0.5l0.8,2.1
		c0.2-0.5,0.6-1.6,0.8-2.1c0.1-0.3,0-0.4-0.4-0.5v-0.2h1.6V44.6z"/>
</g>
<g id="XMLID_1101_">
	<path id="XMLID_2_" d="M-68.1,45.4c-0.2-0.5-0.5-0.9-0.9-0.9c-0.3,0-0.5,0.2-0.5,0.6c0,0.4,0.3,0.6,0.7,0.7
		c0.7,0.3,1.1,0.6,1.1,1.2c0,0.8-0.7,1.2-1.5,1.2c-0.5,0-0.9-0.2-1-0.3c-0.1-0.1-0.1-0.7-0.2-1.1l0.2,0c0.2,0.6,0.6,1.1,1.1,1.1
		c0.3,0,0.6-0.2,0.6-0.6c0-0.4-0.2-0.5-0.7-0.7c-0.5-0.2-1.1-0.5-1.1-1.2c0-0.6,0.5-1.1,1.3-1.1c0.4,0,0.6,0.1,0.8,0.2
		c0.1,0.2,0.2,0.7,0.2,0.9L-68.1,45.4z"/>
	<path id="XMLID_4_" d="M-62.8,47.9c-0.2,0-0.4,0.1-0.7,0.1c-0.2,0.1-0.5,0.1-0.7,0.2l-0.1,0v-0.6c-0.2,0.1-0.4,0.3-0.6,0.4
		c-0.3,0.1-0.4,0.2-0.7,0.2c-0.6,0-1.1-0.4-1.1-1.3v-1.6c0-0.5-0.1-0.5-0.3-0.6l-0.2-0.1v-0.2c0.2,0,0.4,0,0.7-0.1
		c0.2,0,0.5-0.1,0.7-0.1c0,0.3,0,0.7,0,1.2v1.2c0,0.7,0.4,0.9,0.8,0.9c0.3,0,0.6-0.1,0.9-0.4v-2c0-0.5-0.1-0.5-0.4-0.6l-0.3-0.1
		v-0.2c0.2,0,0.6,0,0.8-0.1c0.3,0,0.5-0.1,0.6-0.1v2.8c0,0.4,0.1,0.5,0.4,0.5l0.2,0V47.9z"/>
	<path id="XMLID_6_" d="M-60,48.1v-0.2c0.5-0.1,0.6-0.1,0.6-0.7v-1.4c0-0.6-0.2-1-0.8-1c-0.3,0-0.7,0.2-0.9,0.4v2
		c0,0.6,0,0.6,0.6,0.7v0.2h-1.9v-0.2c0.6-0.1,0.6-0.1,0.6-0.7v-1.7c0-0.6-0.1-0.6-0.5-0.7v-0.2c0.4-0.1,0.9-0.2,1.3-0.3v0.7
		c0.2-0.1,0.4-0.3,0.6-0.4c0.2-0.2,0.5-0.3,0.7-0.3c0.7,0,1.1,0.5,1.1,1.3v1.6c0,0.6,0.1,0.6,0.6,0.7v0.2H-60z"/>
	<path id="XMLID_8_" d="M-55.1,48.1v-0.2c0.5-0.1,0.6-0.1,0.6-0.7v-1.4c0-0.6-0.2-1-0.8-1c-0.3,0-0.7,0.2-0.9,0.4v2
		c0,0.6,0,0.6,0.6,0.7v0.2h-1.9v-0.2c0.6-0.1,0.6-0.1,0.6-0.7v-1.7c0-0.6-0.1-0.6-0.5-0.7v-0.2c0.4-0.1,0.9-0.2,1.3-0.3v0.7
		c0.2-0.1,0.4-0.3,0.6-0.4c0.2-0.2,0.5-0.3,0.7-0.3c0.7,0,1.1,0.5,1.1,1.3v1.6c0,0.6,0.1,0.6,0.6,0.7v0.2H-55.1z"/>
	<path id="XMLID_10_" d="M-48.9,44.6c-0.5,0.1-0.5,0.1-0.8,0.6c-0.2,0.4-0.5,1.2-1.1,2.5c-0.6,1.4-0.8,1.9-0.9,2.3
		c0,0.2-0.2,0.2-0.3,0.2c-0.3,0-0.5-0.2-0.5-0.4c0-0.1,0.1-0.2,0.2-0.3c0.3-0.2,0.5-0.4,0.7-0.8c0.2-0.3,0.2-0.5,0.3-0.6
		c0.1-0.1,0-0.2,0-0.4c-0.4-1-0.8-2.1-1-2.6c-0.2-0.4-0.3-0.6-0.8-0.6v-0.2h1.8l0,0.2c-0.4,0.1-0.5,0.1-0.3,0.5l0.8,2.1
		c0.2-0.5,0.6-1.6,0.8-2.1c0.1-0.3,0-0.4-0.4-0.5v-0.2h1.6V44.6z"/>
	<path id="XMLID_12_" d="M-48.2,46.9c0.3,0,0.8,0.4,0.8,1c0,0.7-0.6,1.1-1.2,1.2l-0.1-0.3c0.4-0.2,0.7-0.4,0.7-0.7
		c0-0.3-0.2-0.5-0.6-0.6c0,0-0.1-0.1-0.1-0.2C-48.7,47.1-48.4,46.9-48.2,46.9L-48.2,46.9z"/>
	<path id="XMLID_14_" d="M-42.4,44.4c0.2-0.1,0.3-0.1,0.5-0.1c1,0,1.6,0.8,1.6,1.6c0,1.3-1,2.1-2.2,2.3c-0.3,0-0.5-0.1-0.6-0.1v1.1
		c0,0.6,0.1,0.7,0.7,0.7v0.2h-2.1v-0.2c0.6-0.1,0.6-0.1,0.6-0.7v-3.9c0-0.5,0-0.6-0.6-0.6v-0.2c0.4-0.1,0.9-0.2,1.3-0.4v0.7
		L-42.4,44.4z M-43.1,47.4c0.2,0.2,0.5,0.3,0.8,0.3c0.7,0,1.2-0.7,1.2-1.5c0-0.9-0.6-1.4-1.2-1.4c-0.3,0-0.6,0.2-0.8,0.4V47.4z"/>
	<path id="XMLID_17_" d="M-37,48.2c-0.2,0-0.4-0.1-0.4-0.2c-0.1-0.1-0.2-0.2-0.2-0.4c-0.4,0.2-0.8,0.5-1,0.5c-0.7,0-1.1-0.5-1.1-1.1
		c0-0.4,0.2-0.7,0.7-0.8c0.6-0.2,1.2-0.4,1.3-0.6v-0.2c0-0.6-0.3-0.9-0.7-0.9c-0.2,0-0.3,0.1-0.4,0.2c-0.1,0.1-0.2,0.3-0.3,0.6
		c-0.1,0.2-0.1,0.2-0.3,0.2c-0.2,0-0.4-0.2-0.4-0.4c0-0.1,0.1-0.2,0.3-0.4c0.3-0.2,0.8-0.5,1.3-0.6c0.3,0,0.5,0.1,0.7,0.2
		c0.3,0.3,0.4,0.6,0.4,1.1v1.5c0,0.4,0.2,0.5,0.3,0.5c0.1,0,0.2,0,0.3-0.1l0.1,0.2L-37,48.2z M-37.7,46c-0.2,0.1-0.5,0.3-0.7,0.3
		c-0.3,0.1-0.5,0.3-0.5,0.6c0,0.5,0.3,0.7,0.6,0.7c0.2,0,0.5-0.1,0.6-0.3V46z"/>
	<path id="XMLID_20_" d="M-34.5,45.2c0.3-0.5,0.6-0.9,1-0.9c0.3,0,0.5,0.2,0.5,0.4c0,0.2-0.1,0.4-0.3,0.5c-0.1,0-0.2,0-0.2,0
		c-0.1-0.1-0.2-0.2-0.4-0.2c-0.2,0-0.5,0.3-0.7,0.7v1.5c0,0.6,0,0.6,0.7,0.7v0.2h-2.1v-0.2c0.5-0.1,0.6-0.1,0.6-0.7v-1.8
		c0-0.5,0-0.6-0.5-0.7v-0.2c0.4-0.1,0.8-0.2,1.3-0.4L-34.5,45.2L-34.5,45.2z"/>
	<path id="XMLID_22_" d="M-30.8,48.1c-0.2,0.1-0.3,0.1-0.4,0.1c-0.6,0-0.9-0.3-0.9-1v-2.5h-0.6l0-0.1l0.2-0.3h0.4v-0.6l0.6-0.6
		l0.1,0v1.2h1c0.1,0.1,0.1,0.3-0.1,0.4h-0.9v2.2c0,0.7,0.3,0.8,0.5,0.8c0.2,0,0.4-0.1,0.5-0.1l0.1,0.2L-30.8,48.1z"/>
	<path id="XMLID_24_" d="M-30,48.1v-0.2c0.5-0.1,0.6-0.1,0.6-0.7v-4c0-0.6-0.1-0.6-0.6-0.7v-0.2c0.5-0.1,1-0.2,1.3-0.3v5.2
		c0,0.6,0.1,0.6,0.6,0.7v0.2H-30z"/>
	<path id="XMLID_26_" d="M-23.7,44.6c-0.5,0.1-0.5,0.1-0.8,0.6c-0.2,0.4-0.5,1.2-1.1,2.5c-0.6,1.4-0.8,1.9-0.9,2.3
		c0,0.2-0.2,0.2-0.3,0.2c-0.3,0-0.5-0.2-0.5-0.4c0-0.1,0.1-0.2,0.2-0.3c0.3-0.2,0.5-0.4,0.7-0.8c0.2-0.3,0.2-0.5,0.3-0.6
		c0.1-0.1,0-0.2,0-0.4c-0.4-1-0.8-2.1-1-2.6c-0.2-0.4-0.3-0.6-0.8-0.6v-0.2h1.8l0,0.2c-0.4,0.1-0.5,0.1-0.3,0.5l0.8,2.1
		c0.2-0.5,0.6-1.6,0.8-2.1c0.1-0.3,0-0.4-0.4-0.5v-0.2h1.6V44.6z"/>
	<path id="XMLID_28_" d="M-21.4,46.4h-2l0.1-0.5h2.1L-21.4,46.4z"/>
	<path id="XMLID_30_" d="M-17.1,47.3c-0.4,0.5-1,0.9-1.5,0.9c-1.1,0-1.8-0.9-1.8-1.8c0-0.7,0.3-1.2,0.9-1.7c0.5-0.4,1-0.5,1.3-0.5h0
		c0.4,0,0.6,0.1,0.8,0.2c0.1,0.1,0.1,0.2,0.1,0.3c0,0.2-0.2,0.4-0.3,0.4c-0.1,0-0.1,0-0.2-0.1c-0.3-0.3-0.6-0.4-0.9-0.4
		c-0.5,0-1,0.4-1,1.3c0,1.2,0.9,1.6,1.3,1.6c0.4,0,0.7-0.1,1-0.5L-17.1,47.3z"/>
	<path id="XMLID_32_" d="M-16.9,48.1v-0.2c0.5-0.1,0.6-0.1,0.6-0.7v-4c0-0.6-0.1-0.6-0.6-0.7v-0.2c0.5-0.1,1-0.2,1.3-0.3v5.2
		c0,0.6,0.1,0.6,0.6,0.7v0.2H-16.9z"/>
	<path id="XMLID_34_" d="M-12.5,44.2c1.1,0,1.9,0.9,1.9,1.9c0,1.4-1.1,2-1.9,2c-1.2,0-2-0.9-2-1.9C-14.5,44.9-13.3,44.2-12.5,44.2
		L-12.5,44.2z M-12.6,44.5c-0.5,0-1,0.5-1,1.5c0,1.1,0.5,1.9,1.2,1.9c0.5,0,1-0.3,1-1.5C-11.4,45.3-11.9,44.5-12.6,44.5L-12.6,44.5z
		"/>
	<path id="XMLID_37_" d="M-5.7,47.9c-0.2,0-0.4,0.1-0.7,0.1c-0.2,0.1-0.5,0.1-0.7,0.2l-0.1,0v-0.6c-0.2,0.1-0.4,0.3-0.6,0.4
		c-0.3,0.1-0.4,0.2-0.7,0.2c-0.6,0-1.1-0.4-1.1-1.3v-1.6c0-0.5-0.1-0.5-0.3-0.6l-0.2-0.1v-0.2c0.2,0,0.4,0,0.7-0.1
		c0.2,0,0.5-0.1,0.7-0.1c0,0.3,0,0.7,0,1.2v1.2c0,0.7,0.4,0.9,0.8,0.9c0.3,0,0.6-0.1,0.9-0.4v-2c0-0.5-0.1-0.5-0.4-0.6l-0.3-0.1
		v-0.2c0.2,0,0.6,0,0.8-0.1c0.3,0,0.5-0.1,0.6-0.1v2.8c0,0.4,0.1,0.5,0.4,0.5l0.2,0V47.9z"/>
	<path id="XMLID_39_" d="M-1,47.9c-0.2,0-0.9,0.1-1.4,0.3v-0.6l-0.5,0.3c-0.3,0.2-0.6,0.2-0.7,0.2c-0.7,0-1.7-0.6-1.7-1.8
		c0-1.2,1.1-2.1,2.3-2.1c0.1,0,0.4,0,0.6,0.1v-1.2c0-0.6-0.1-0.6-0.7-0.6v-0.2c0.5-0.1,1.1-0.2,1.4-0.3v5.1c0,0.5,0.1,0.5,0.4,0.5
		l0.2,0V47.9z M-2.4,45c-0.2-0.3-0.6-0.4-0.9-0.4c-0.4,0-1.1,0.3-1.1,1.6c0,1,0.7,1.5,1.2,1.5c0.3,0,0.6-0.1,0.8-0.3V45z"/>
	<path id="XMLID_42_" d="M3.3,44.6c-0.5,0.1-0.5,0.1-0.8,0.6c-0.2,0.4-0.5,1.2-1.1,2.5c-0.6,1.4-0.8,1.9-0.9,2.3
		c0,0.2-0.2,0.2-0.3,0.2c-0.3,0-0.5-0.2-0.5-0.4c0-0.1,0.1-0.2,0.2-0.3c0.3-0.2,0.5-0.4,0.7-0.8c0.2-0.3,0.2-0.5,0.3-0.6
		c0.1-0.1,0-0.2,0-0.4c-0.4-1-0.8-2.1-1-2.6c-0.2-0.4-0.3-0.6-0.8-0.6v-0.2H1l0,0.2c-0.4,0.1-0.5,0.1-0.3,0.5l0.8,2.1
		c0.2-0.5,0.6-1.6,0.8-2.1c0.1-0.3,0-0.4-0.4-0.5v-0.2h1.6V44.6z"/>
	<path id="XMLID_44_" d="M4,46.9c0.3,0,0.8,0.4,0.8,1c0,0.7-0.6,1.1-1.2,1.2l-0.1-0.3c0.4-0.2,0.7-0.4,0.7-0.7
		c0-0.3-0.2-0.5-0.6-0.6c0,0-0.1-0.1-0.1-0.2C3.5,47.1,3.8,46.9,4,46.9L4,46.9z"/>
	<path id="XMLID_46_" d="M10.1,45.4c-0.2-0.5-0.5-0.9-0.9-0.9c-0.3,0-0.5,0.2-0.5,0.6c0,0.4,0.3,0.6,0.7,0.7
		c0.7,0.3,1.1,0.6,1.1,1.2c0,0.8-0.7,1.2-1.5,1.2c-0.5,0-0.9-0.2-1-0.3c-0.1-0.1-0.1-0.7-0.2-1.1l0.2,0c0.2,0.6,0.6,1.1,1.1,1.1
		c0.3,0,0.6-0.2,0.6-0.6c0-0.4-0.2-0.5-0.7-0.7C8.6,46.3,8,46.1,8,45.4c0-0.6,0.5-1.1,1.3-1.1c0.4,0,0.6,0.1,0.8,0.2
		c0.1,0.2,0.2,0.7,0.2,0.9L10.1,45.4z"/>
	<path id="XMLID_48_" d="M15.3,47.9c-0.2,0-0.4,0.1-0.7,0.1c-0.2,0.1-0.5,0.1-0.7,0.2l-0.1,0v-0.6c-0.2,0.1-0.4,0.3-0.6,0.4
		c-0.3,0.1-0.4,0.2-0.7,0.2c-0.6,0-1.1-0.4-1.1-1.3v-1.6c0-0.5-0.1-0.5-0.3-0.6L11,44.6v-0.2c0.2,0,0.4,0,0.7-0.1
		c0.2,0,0.5-0.1,0.7-0.1c0,0.3,0,0.7,0,1.2v1.2c0,0.7,0.4,0.9,0.8,0.9c0.3,0,0.6-0.1,0.9-0.4v-2c0-0.5-0.1-0.5-0.4-0.6l-0.3-0.1
		v-0.2c0.2,0,0.6,0,0.8-0.1c0.3,0,0.5-0.1,0.6-0.1v2.8c0,0.4,0.1,0.5,0.4,0.5l0.2,0V47.9z"/>
	<path id="XMLID_50_" d="M18.2,48.1v-0.2c0.5-0.1,0.6-0.1,0.6-0.7v-1.4c0-0.6-0.2-1-0.8-1c-0.3,0-0.7,0.2-0.9,0.4v2
		c0,0.6,0,0.6,0.6,0.7v0.2h-1.9v-0.2c0.6-0.1,0.6-0.1,0.6-0.7v-1.7c0-0.6-0.1-0.6-0.5-0.7v-0.2c0.4-0.1,0.9-0.2,1.3-0.3v0.7
		c0.2-0.1,0.4-0.3,0.6-0.4c0.2-0.2,0.5-0.3,0.7-0.3c0.7,0,1.1,0.5,1.1,1.3v1.6c0,0.6,0.1,0.6,0.6,0.7v0.2H18.2z"/>
	<path id="XMLID_52_" d="M23,48.1v-0.2c0.5-0.1,0.6-0.1,0.6-0.7v-1.4c0-0.6-0.2-1-0.8-1c-0.3,0-0.7,0.2-0.9,0.4v2
		c0,0.6,0,0.6,0.6,0.7v0.2h-1.9v-0.2c0.6-0.1,0.6-0.1,0.6-0.7v-1.7c0-0.6-0.1-0.6-0.5-0.7v-0.2c0.4-0.1,0.9-0.2,1.3-0.3v0.7
		c0.2-0.1,0.4-0.3,0.6-0.4c0.2-0.2,0.5-0.3,0.7-0.3c0.7,0,1.1,0.5,1.1,1.3v1.6c0,0.6,0.1,0.6,0.6,0.7v0.2H23z"/>
	<path id="XMLID_54_" d="M29.3,44.6c-0.5,0.1-0.5,0.1-0.8,0.6c-0.2,0.4-0.5,1.2-1.1,2.5c-0.6,1.4-0.8,1.9-0.9,2.3
		c0,0.2-0.2,0.2-0.3,0.2c-0.3,0-0.5-0.2-0.5-0.4c0-0.1,0.1-0.2,0.2-0.3c0.3-0.2,0.5-0.4,0.7-0.8c0.2-0.3,0.2-0.5,0.3-0.6
		c0.1-0.1,0-0.2,0-0.4c-0.4-1-0.8-2.1-1-2.6c-0.2-0.4-0.3-0.6-0.8-0.6v-0.2h1.8l0,0.2c-0.4,0.1-0.5,0.1-0.3,0.5l0.8,2.1
		c0.2-0.5,0.6-1.6,0.8-2.1c0.1-0.3,0-0.4-0.4-0.5v-0.2h1.6V44.6z"/>
	<path id="XMLID_56_" d="M31.6,46.4h-2l0.1-0.5h2.1L31.6,46.4z"/>
	<path id="XMLID_58_" d="M33.9,45.2c0.3-0.5,0.6-0.9,1-0.9c0.3,0,0.5,0.2,0.5,0.4c0,0.2-0.1,0.4-0.3,0.5c-0.1,0-0.2,0-0.2,0
		c-0.1-0.1-0.2-0.2-0.4-0.2c-0.2,0-0.5,0.3-0.7,0.7v1.5c0,0.6,0,0.6,0.7,0.7v0.2h-2.1v-0.2c0.5-0.1,0.6-0.1,0.6-0.7v-1.8
		c0-0.5,0-0.6-0.5-0.7v-0.2c0.4-0.1,0.8-0.2,1.3-0.4L33.9,45.2L33.9,45.2z"/>
	<path id="XMLID_60_" d="M38.6,48.2c-0.2,0-0.4-0.1-0.4-0.2C38,47.9,38,47.8,38,47.7c-0.4,0.2-0.8,0.5-1,0.5c-0.7,0-1.1-0.5-1.1-1.1
		c0-0.4,0.2-0.7,0.7-0.8c0.6-0.2,1.2-0.4,1.3-0.6v-0.2c0-0.6-0.3-0.9-0.7-0.9c-0.2,0-0.3,0.1-0.4,0.2c-0.1,0.1-0.2,0.3-0.3,0.6
		c-0.1,0.2-0.1,0.2-0.3,0.2c-0.2,0-0.4-0.2-0.4-0.4c0-0.1,0.1-0.2,0.3-0.4c0.3-0.2,0.8-0.5,1.3-0.6c0.3,0,0.5,0.1,0.7,0.2
		c0.3,0.3,0.4,0.6,0.4,1.1v1.5c0,0.4,0.2,0.5,0.3,0.5c0.1,0,0.2,0,0.3-0.1l0.1,0.2L38.6,48.2z M37.9,46c-0.2,0.1-0.5,0.3-0.7,0.3
		c-0.3,0.1-0.5,0.3-0.5,0.6c0,0.5,0.3,0.7,0.6,0.7c0.2,0,0.5-0.1,0.6-0.3V46z"/>
	<path id="XMLID_63_" d="M39.7,48.1v-0.2c0.5-0.1,0.6-0.1,0.6-0.7v-1.7c0-0.5,0-0.6-0.5-0.7v-0.2c0.5-0.1,0.9-0.2,1.3-0.3v2.9
		c0,0.6,0.1,0.6,0.6,0.7v0.2H39.7z M40.2,43.1c0-0.3,0.2-0.5,0.5-0.5s0.5,0.2,0.5,0.5c0,0.2-0.2,0.5-0.5,0.5
		C40.4,43.5,40.2,43.3,40.2,43.1z"/>
	<path id="XMLID_66_" d="M44.6,48.1v-0.2c0.5-0.1,0.6-0.1,0.6-0.7v-1.4c0-0.6-0.2-1-0.8-1c-0.3,0-0.7,0.2-0.9,0.4v2
		c0,0.6,0,0.6,0.6,0.7v0.2h-1.9v-0.2c0.6-0.1,0.6-0.1,0.6-0.7v-1.7c0-0.6-0.1-0.6-0.5-0.7v-0.2c0.4-0.1,0.9-0.2,1.3-0.3v0.7
		c0.2-0.1,0.4-0.3,0.6-0.4c0.2-0.2,0.5-0.3,0.7-0.3c0.7,0,1.1,0.5,1.1,1.3v1.6c0,0.6,0.1,0.6,0.6,0.7v0.2H44.6z"/>
	<path id="XMLID_68_" d="M50.8,44.6c-0.5,0.1-0.5,0.1-0.8,0.6c-0.2,0.4-0.5,1.2-1.1,2.5c-0.6,1.4-0.8,1.9-0.9,2.3
		c0,0.2-0.2,0.2-0.3,0.2c-0.3,0-0.5-0.2-0.5-0.4c0-0.1,0.1-0.2,0.2-0.3c0.3-0.2,0.5-0.4,0.7-0.8c0.2-0.3,0.2-0.5,0.3-0.6
		c0.1-0.1,0-0.2,0-0.4c-0.4-1-0.8-2.1-1-2.6c-0.2-0.4-0.3-0.6-0.8-0.6v-0.2h1.8l0,0.2c-0.4,0.1-0.5,0.1-0.3,0.5l0.8,2.1
		c0.2-0.5,0.6-1.6,0.8-2.1c0.1-0.3,0-0.4-0.4-0.5v-0.2h1.6V44.6z"/>
	<path id="XMLID_70_" d="M51.5,46.9c0.3,0,0.8,0.4,0.8,1c0,0.7-0.6,1.1-1.2,1.2L51,48.9c0.4-0.2,0.7-0.4,0.7-0.7
		c0-0.3-0.2-0.5-0.6-0.6c0,0-0.1-0.1-0.1-0.2C51.1,47.1,51.3,46.9,51.5,46.9L51.5,46.9z"/>
	<path id="XMLID_72_" d="M56.7,45.2c0.3-0.5,0.6-0.9,1-0.9c0.3,0,0.5,0.2,0.5,0.4c0,0.2-0.1,0.4-0.3,0.5c-0.1,0-0.2,0-0.2,0
		c-0.1-0.1-0.2-0.2-0.4-0.2c-0.2,0-0.5,0.3-0.7,0.7v1.5c0,0.6,0,0.6,0.7,0.7v0.2h-2.1v-0.2c0.5-0.1,0.6-0.1,0.6-0.7v-1.8
		c0-0.5,0-0.6-0.5-0.7v-0.2c0.4-0.1,0.8-0.2,1.3-0.4L56.7,45.2L56.7,45.2z"/>
	<path id="XMLID_74_" d="M61.4,48.2c-0.2,0-0.4-0.1-0.4-0.2c-0.1-0.1-0.2-0.2-0.2-0.4c-0.4,0.2-0.8,0.5-1,0.5
		c-0.7,0-1.1-0.5-1.1-1.1c0-0.4,0.2-0.7,0.7-0.8c0.6-0.2,1.2-0.4,1.3-0.6v-0.2c0-0.6-0.3-0.9-0.7-0.9c-0.2,0-0.3,0.1-0.4,0.2
		c-0.1,0.1-0.2,0.3-0.3,0.6c-0.1,0.2-0.1,0.2-0.3,0.2c-0.2,0-0.4-0.2-0.4-0.4c0-0.1,0.1-0.2,0.3-0.4c0.3-0.2,0.8-0.5,1.3-0.6
		c0.3,0,0.5,0.1,0.7,0.2c0.3,0.3,0.4,0.6,0.4,1.1v1.5c0,0.4,0.2,0.5,0.3,0.5c0.1,0,0.2,0,0.3-0.1l0.1,0.2L61.4,48.2z M60.7,46
		c-0.2,0.1-0.5,0.3-0.7,0.3c-0.3,0.1-0.5,0.3-0.5,0.6c0,0.5,0.3,0.7,0.6,0.7c0.2,0,0.5-0.1,0.6-0.3V46z"/>
	<path id="XMLID_77_" d="M62.5,48.1v-0.2c0.5-0.1,0.6-0.1,0.6-0.7v-1.7c0-0.5,0-0.6-0.5-0.7v-0.2c0.5-0.1,0.9-0.2,1.3-0.3v2.9
		c0,0.6,0.1,0.6,0.6,0.7v0.2H62.5z M62.9,43.1c0-0.3,0.2-0.5,0.5-0.5s0.5,0.2,0.5,0.5c0,0.2-0.2,0.5-0.5,0.5
		C63.2,43.5,62.9,43.3,62.9,43.1z"/>
	<path id="XMLID_80_" d="M67.4,48.1v-0.2c0.5-0.1,0.6-0.1,0.6-0.7v-1.4c0-0.6-0.2-1-0.8-1c-0.3,0-0.7,0.2-0.9,0.4v2
		c0,0.6,0,0.6,0.6,0.7v0.2h-1.9v-0.2c0.6-0.1,0.6-0.1,0.6-0.7v-1.7c0-0.6-0.1-0.6-0.5-0.7v-0.2c0.4-0.1,0.9-0.2,1.3-0.3v0.7
		c0.2-0.1,0.4-0.3,0.6-0.4c0.2-0.2,0.5-0.3,0.7-0.3c0.7,0,1.1,0.5,1.1,1.3v1.6c0,0.6,0.1,0.6,0.6,0.7v0.2H67.4z"/>
	<path id="XMLID_82_" d="M73.6,44.6c-0.5,0.1-0.5,0.1-0.8,0.6c-0.2,0.4-0.5,1.2-1.1,2.5c-0.6,1.4-0.8,1.9-0.9,2.3
		c0,0.2-0.2,0.2-0.3,0.2c-0.3,0-0.5-0.2-0.5-0.4c0-0.1,0.1-0.2,0.2-0.3c0.3-0.2,0.5-0.4,0.7-0.8c0.2-0.3,0.2-0.5,0.3-0.6
		c0.1-0.1,0-0.2,0-0.4c-0.4-1-0.8-2.1-1-2.6c-0.2-0.4-0.3-0.6-0.8-0.6v-0.2h1.8l0,0.2c-0.4,0.1-0.5,0.1-0.3,0.5l0.8,2.1
		c0.2-0.5,0.6-1.6,0.8-2.1c0.1-0.3,0-0.4-0.4-0.5v-0.2h1.6V44.6z"/>
	<path id="XMLID_84_" d="M74.3,46.9c0.3,0,0.8,0.4,0.8,1c0,0.7-0.6,1.1-1.2,1.2l-0.1-0.3c0.4-0.2,0.7-0.4,0.7-0.7
		c0-0.3-0.2-0.5-0.6-0.6c0,0-0.1-0.1-0.1-0.2C73.8,47.1,74,46.9,74.3,46.9L74.3,46.9z"/>
	<path id="XMLID_86_" d="M83.9,44.6c-0.4,0.1-0.5,0.2-0.7,0.6c-0.3,0.7-0.7,1.8-1.1,3h-0.3c-0.4-0.9-0.7-1.8-1.1-2.6
		c-0.3,0.9-0.7,1.7-1,2.6h-0.3c-0.3-1-0.7-2-1-3c-0.2-0.4-0.2-0.5-0.6-0.6v-0.2h1.9v0.2c-0.5,0.1-0.6,0.1-0.4,0.5
		c0.2,0.6,0.4,1.3,0.6,1.9h0c0.3-0.8,0.7-1.7,1-2.6h0.2c0.3,0.9,0.7,1.8,1,2.7h0c0.2-0.5,0.4-1.3,0.6-1.9c0.1-0.4,0.1-0.5-0.5-0.6
		v-0.2h1.6V44.6z"/>
	<path id="XMLID_88_" d="M84.1,48.1v-0.2c0.5-0.1,0.6-0.1,0.6-0.7v-1.7c0-0.5,0-0.6-0.5-0.7v-0.2c0.5-0.1,0.9-0.2,1.3-0.3v2.9
		c0,0.6,0.1,0.6,0.6,0.7v0.2H84.1z M84.5,43.1c0-0.3,0.2-0.5,0.5-0.5s0.5,0.2,0.5,0.5c0,0.2-0.2,0.5-0.5,0.5
		C84.8,43.5,84.5,43.3,84.5,43.1z"/>
	<path id="XMLID_91_" d="M89,48.1v-0.2c0.5-0.1,0.6-0.1,0.6-0.7v-1.4c0-0.6-0.2-1-0.8-1c-0.3,0-0.7,0.2-0.9,0.4v2
		c0,0.6,0,0.6,0.6,0.7v0.2h-1.9v-0.2c0.6-0.1,0.6-0.1,0.6-0.7v-1.7c0-0.6-0.1-0.6-0.5-0.7v-0.2c0.4-0.1,0.9-0.2,1.3-0.3v0.7
		c0.2-0.1,0.4-0.3,0.6-0.4c0.2-0.2,0.5-0.3,0.7-0.3c0.7,0,1.1,0.5,1.1,1.3v1.6c0,0.6,0.1,0.6,0.6,0.7v0.2H89z"/>
	<path id="XMLID_93_" d="M95.6,47.9c-0.2,0-0.9,0.1-1.4,0.3v-0.6l-0.5,0.3c-0.3,0.2-0.6,0.2-0.7,0.2c-0.7,0-1.7-0.6-1.7-1.8
		c0-1.2,1.1-2.1,2.3-2.1c0.1,0,0.4,0,0.6,0.1v-1.2c0-0.6-0.1-0.6-0.7-0.6v-0.2c0.5-0.1,1.1-0.2,1.4-0.3v5.1c0,0.5,0.1,0.5,0.4,0.5
		l0.2,0V47.9z M94.2,45c-0.2-0.3-0.6-0.4-0.9-0.4c-0.4,0-1.1,0.3-1.1,1.6c0,1,0.7,1.5,1.2,1.5c0.3,0,0.6-0.1,0.8-0.3V45z"/>
	<path id="XMLID_96_" d="M99.9,44.6c-0.5,0.1-0.5,0.1-0.8,0.6c-0.2,0.4-0.5,1.2-1.1,2.5c-0.6,1.4-0.8,1.9-0.9,2.3
		c0,0.2-0.2,0.2-0.3,0.2c-0.3,0-0.5-0.2-0.5-0.4c0-0.1,0.1-0.2,0.2-0.3c0.3-0.2,0.5-0.4,0.7-0.8c0.2-0.3,0.2-0.5,0.3-0.6
		c0.1-0.1,0-0.2,0-0.4c-0.4-1-0.8-2.1-1-2.6c-0.2-0.4-0.3-0.6-0.8-0.6v-0.2h1.8l0,0.2c-0.4,0.1-0.5,0.1-0.3,0.5l0.8,2.1
		c0.2-0.5,0.6-1.6,0.8-2.1c0.1-0.3,0-0.4-0.4-0.5v-0.2h1.6V44.6z"/>
	<path id="XMLID_98_" d="M100.6,46.9c0.3,0,0.8,0.4,0.8,1c0,0.7-0.6,1.1-1.2,1.2l-0.1-0.3c0.4-0.2,0.7-0.4,0.7-0.7
		c0-0.3-0.2-0.5-0.6-0.6c0,0-0.1-0.1-0.1-0.2C100.1,47.1,100.3,46.9,100.6,46.9L100.6,46.9z"/>
	<path id="XMLID_100_" d="M107.7,47.3c-0.4,0.5-1,0.9-1.5,0.9c-1.1,0-1.8-0.9-1.8-1.8c0-0.7,0.3-1.2,0.9-1.7c0.5-0.4,1-0.5,1.3-0.5
		h0c0.4,0,0.6,0.1,0.8,0.2c0.1,0.1,0.1,0.2,0.1,0.3c0,0.2-0.2,0.4-0.3,0.4c-0.1,0-0.1,0-0.2-0.1c-0.3-0.3-0.6-0.4-0.9-0.4
		c-0.5,0-1,0.4-1,1.3c0,1.2,0.9,1.6,1.3,1.6c0.4,0,0.7-0.1,1-0.5L107.7,47.3z"/>
	<path id="XMLID_102_" d="M107.9,48.1v-0.2c0.5-0.1,0.6-0.1,0.6-0.7v-4c0-0.6-0.1-0.6-0.6-0.7v-0.2c0.5-0.1,1-0.2,1.3-0.3v5.2
		c0,0.6,0.1,0.6,0.6,0.7v0.2H107.9z"/>
	<path id="XMLID_104_" d="M112.3,44.2c1.1,0,1.9,0.9,1.9,1.9c0,1.4-1.1,2-1.9,2c-1.2,0-2-0.9-2-1.9
		C110.4,44.9,111.5,44.2,112.3,44.2L112.3,44.2z M112.2,44.5c-0.5,0-1,0.5-1,1.5c0,1.1,0.5,1.9,1.2,1.9c0.5,0,1-0.3,1-1.5
		C113.4,45.3,113,44.5,112.2,44.5L112.2,44.5z"/>
	<path id="XMLID_107_" d="M119.2,47.9c-0.2,0-0.4,0.1-0.7,0.1c-0.2,0.1-0.5,0.1-0.7,0.2l-0.1,0v-0.6c-0.2,0.1-0.4,0.3-0.6,0.4
		c-0.3,0.1-0.4,0.2-0.7,0.2c-0.6,0-1.1-0.4-1.1-1.3v-1.6c0-0.5-0.1-0.5-0.3-0.6l-0.2-0.1v-0.2c0.2,0,0.4,0,0.7-0.1
		c0.2,0,0.5-0.1,0.7-0.1c0,0.3,0,0.7,0,1.2v1.2c0,0.7,0.4,0.9,0.8,0.9c0.3,0,0.6-0.1,0.9-0.4v-2c0-0.5-0.1-0.5-0.4-0.6l-0.3-0.1
		v-0.2c0.2,0,0.6,0,0.8-0.1c0.3,0,0.5-0.1,0.6-0.1v2.8c0,0.4,0.1,0.5,0.4,0.5l0.2,0V47.9z"/>
	<path id="XMLID_109_" d="M123.9,47.9c-0.2,0-0.9,0.1-1.4,0.3v-0.6l-0.5,0.3c-0.3,0.2-0.6,0.2-0.7,0.2c-0.7,0-1.7-0.6-1.7-1.8
		c0-1.2,1.1-2.1,2.3-2.1c0.1,0,0.4,0,0.6,0.1v-1.2c0-0.6-0.1-0.6-0.7-0.6v-0.2c0.5-0.1,1.1-0.2,1.4-0.3v5.1c0,0.5,0.1,0.5,0.4,0.5
		l0.2,0V47.9z M122.4,45c-0.2-0.3-0.6-0.4-0.9-0.4c-0.4,0-1.1,0.3-1.1,1.6c0,1,0.7,1.5,1.2,1.5c0.3,0,0.6-0.1,0.8-0.3V45z"/>
	<path id="XMLID_112_" d="M128.2,44.6c-0.5,0.1-0.5,0.1-0.8,0.6c-0.2,0.4-0.5,1.2-1.1,2.5c-0.6,1.4-0.8,1.9-0.9,2.3
		c0,0.2-0.2,0.2-0.3,0.2c-0.3,0-0.5-0.2-0.5-0.4c0-0.1,0.1-0.2,0.2-0.3c0.3-0.2,0.5-0.4,0.7-0.8c0.2-0.3,0.2-0.5,0.3-0.6
		c0.1-0.1,0-0.2,0-0.4c-0.4-1-0.8-2.1-1-2.6c-0.2-0.4-0.3-0.6-0.8-0.6v-0.2h1.8l0,0.2c-0.4,0.1-0.5,0.1-0.3,0.5l0.8,2.1
		c0.2-0.5,0.6-1.6,0.8-2.1c0.1-0.3,0-0.4-0.4-0.5v-0.2h1.6V44.6z"/>
</g>
</svg>
