<?xml version="1.0" encoding="utf-8"?>
<!-- Generator: Adobe Illustrator 20.0.0, SVG Export Plug-In . SVG Version: 6.00 Build 0)  -->
<!DOCTYPE svg PUBLIC "-//W3C//DTD SVG 1.1//EN" "http://www.w3.org/Graphics/SVG/1.1/DTD/svg11.dtd">
<svg version="1.1" id="Isolation_Mode" xmlns="http://www.w3.org/2000/svg" xmlns:xlink="http://www.w3.org/1999/xlink" x="0px"
	 y="0px" viewBox="0 0 18.2 15.4" enable-background="new 0 0 18.2 15.4" xml:space="preserve">
<path id="XMLID_876_" fill-rule="evenodd" clip-rule="evenodd" fill="none" stroke="#FFFFFF" stroke-miterlimit="10" d="M9.1,3.1
	l1.2-1.2c0.4-0.4,0.9-0.7,1.4-0.9c0.5-0.2,1.1-0.3,1.6-0.3c1.2,0,2.2,0.5,3,1.2c0.8,0.8,1.2,1.8,1.2,3c0,0.6-0.1,1.1-0.3,1.6
	c-0.2,0.5-0.5,1-0.9,1.4c-2.3,2.3-4.6,4.6-6.8,6.9c-0.1,0.1-0.3,0.2-0.4,0.2c-0.1,0-0.3,0-0.4-0.2c-2.3-2.3-4.6-4.6-6.8-6.9
	C1.5,7.4,1.1,7,0.9,6.5C0.7,6,0.6,5.4,0.6,4.8c0-1.2,0.5-2.2,1.2-3c0.8-0.8,1.8-1.2,3-1.2c0.6,0,1.1,0.1,1.6,0.3
	c0.5,0.2,1,0.5,1.4,0.9L9.1,3.1z"/>
</svg>
