<?xml version="1.0" encoding="utf-8"?>
<!-- Generator: Adobe Illustrator 20.0.0, SVG Export Plug-In . SVG Version: 6.00 Build 0)  -->
<!DOCTYPE svg PUBLIC "-//W3C//DTD SVG 1.1//EN" "http://www.w3.org/Graphics/SVG/1.1/DTD/svg11.dtd">
<svg version="1.1" id="Layer_1" xmlns="http://www.w3.org/2000/svg" xmlns:xlink="http://www.w3.org/1999/xlink" x="0px" y="0px"
	 viewBox="0 0 30.1 18.6" enable-background="new 0 0 30.1 18.6" xml:space="preserve">
<path id="XMLID_1194_" fill="none" stroke="#FFFFFF" stroke-width="1.5" stroke-miterlimit="10" d="M28.3,5.5L16.9,16.9
	c-1,1-2.7,1-3.7,0L1.7,5.5C0.1,3.8,1.2,1,3.6,1h22.8C28.8,1,30,3.8,28.3,5.5z"/>
</svg>
