<?xml version="1.0" encoding="utf-8"?>
<!-- Generator: Adobe Illustrator 20.0.0, SVG Export Plug-In . SVG Version: 6.00 Build 0)  -->
<!DOCTYPE svg PUBLIC "-//W3C//DTD SVG 1.1//EN" "http://www.w3.org/Graphics/SVG/1.1/DTD/svg11.dtd">
<svg version="1.1" id="Layer_1" xmlns="http://www.w3.org/2000/svg" xmlns:xlink="http://www.w3.org/1999/xlink" x="0px" y="0px"
	 viewBox="0 0 30.1 18.6" enable-background="new 0 0 30.1 18.6" xml:space="preserve">
<path id="XMLID_1194_" fill="none" stroke="#FFFFFF" stroke-width="1.5" stroke-miterlimit="10" d="M1.7,13.1L13.1,1.7
	c1-1,2.7-1,3.7,0l11.4,11.4c1.7,1.7,0.5,4.5-1.9,4.5H3.6C1.2,17.6,0.1,14.8,1.7,13.1z"/>
</svg>
