<?xml version="1.0" encoding="utf-8"?>
<!-- Generator: Adobe Illustrator 20.0.0, SVG Export Plug-In . SVG Version: 6.00 Build 0)  -->
<!DOCTYPE svg PUBLIC "-//W3C//DTD SVG 1.1//EN" "http://www.w3.org/Graphics/SVG/1.1/DTD/svg11.dtd">
<svg version="1.1" id="Layer_1" xmlns="http://www.w3.org/2000/svg" xmlns:xlink="http://www.w3.org/1999/xlink" x="0px" y="0px"
	 viewBox="0 0 46.2 46.2" enable-background="new 0 0 46.2 46.2" xml:space="preserve">
<g id="XMLID_2952_">
	<g>
		<path fill="#5A453C" d="M45.1,19.8c1.4,2.7,1,6.1-1.3,8.5c0,0,0,0,0,0c-0.7,0.7-1.6,1.3-2.5,1.6V16.5c0.9,0.4,1.7,0.9,2.5,1.6l0,0
			l0,0c0.1,0.1,0.2,0.2,0.2,0.3c0,0,0,0,0.1,0.1c0,0,0.1,0.1,0.1,0.1c0,0,0,0,0.1,0.1c0,0,0,0,0,0c0.1,0.1,0.2,0.2,0.2,0.3
			c0.1,0.1,0.1,0.2,0.2,0.3c0,0,0,0,0,0.1c0,0.1,0.1,0.1,0.1,0.2c0,0,0.1,0.1,0.1,0.1C45,19.7,45,19.7,45.1,19.8
			C45.1,19.8,45.1,19.8,45.1,19.8z"/>
		<path fill="#E2CEC6" d="M44.2,18.5c0,0-0.1-0.1-0.1-0.1C44.1,18.4,44.2,18.5,44.2,18.5z"/>
		<path fill="#5A453C" d="M43.8,28.3l-2.5,2.5v-0.9C42.2,29.6,43.1,29.1,43.8,28.3z"/>
		<path fill="#5A453C" d="M41.3,15.6l2.5,2.5c-0.7-0.7-1.6-1.3-2.5-1.6V15.6z"/>
		<path fill="#86685B" d="M41.3,34.3C41.3,34.3,41.3,34.3,41.3,34.3c0,0.2,0,0.3,0,0.4c0,0.1,0,0.2,0,0.3c0,0.3-0.1,0.6-0.1,0.8
			c0,0.1,0,0.2-0.1,0.2c0,0,0,0.1,0,0.1c0,0.1-0.1,0.2-0.1,0.3c0,0.1-0.1,0.2-0.1,0.3c-1,2.8-3.7,4.7-6.8,4.8c0,0,0,0,0,0
			c0,0,0,0,0,0c-1,0-1.9-0.2-2.8-0.6c0,0,0,0-0.1,0l9.5-9.5C41.1,32.3,41.3,33.3,41.3,34.3z"/>
		<path fill="#86685B" d="M41.3,30.8v3.5c0-1-0.2-2-0.6-2.9L41.3,30.8z"/>
		<path fill="#D2B7AB" d="M41.3,29.9v0.9l-0.6,0.6c-0.2-0.4-0.4-0.8-0.6-1.1C40.5,30.2,40.9,30.1,41.3,29.9z"/>
		<path fill="#D2B7AB" d="M41.3,16.5v13.5c-0.4,0.2-0.8,0.3-1.2,0.4c-0.3-0.4-0.6-0.8-0.9-1.1l-6-6l6-6c0.3-0.3,0.7-0.7,0.9-1.1
			C40.5,16.2,40.9,16.3,41.3,16.5z"/>
		<path fill="#D2B7AB" d="M41.3,15.6v0.9c-0.4-0.2-0.8-0.3-1.2-0.4c0.2-0.3,0.4-0.7,0.6-1.1L41.3,15.6z"/>
		<path fill="#86685B" d="M41.3,12.1v3.5L40.7,15c0,0,0,0,0-0.1C41.1,14.1,41.3,13.1,41.3,12.1z"/>
		<path fill="#86685B" d="M41.3,12.1C41.3,12.1,41.3,12.1,41.3,12.1c0,1-0.2,2-0.6,2.8c0,0,0,0,0,0.1l-9.5-9.5
			c0.9-0.4,1.9-0.6,2.9-0.6h0c0,0,0,0,0,0c0.1,0,0.3,0,0.4,0c0.1,0,0.2,0,0.3,0c0.3,0,0.6,0.1,0.8,0.1c0.1,0,0.2,0,0.2,0.1
			c0,0,0.1,0,0.1,0c0.1,0,0.2,0.1,0.3,0.1c0.1,0,0.2,0.1,0.3,0.1C39.3,6.3,41.3,9,41.3,12.1L41.3,12.1z"/>
		<path fill="#D2B7AB" d="M31.2,5.5l9.5,9.5c-0.2,0.4-0.4,0.8-0.6,1.1c-0.5-0.1-1-0.2-1.5-0.2h-8.4V7.5v0c0-0.5-0.1-1-0.2-1.5
			C30.4,5.9,30.8,5.7,31.2,5.5z"/>
		<path fill="#D2B7AB" d="M40.7,31.4l-9.5,9.5c-0.4-0.2-0.8-0.4-1.1-0.6c0.1-0.5,0.2-1,0.2-1.5v-8.4h8.4h0c0.5,0,1-0.1,1.5-0.2
			C40.4,30.6,40.6,31,40.7,31.4z"/>
		<path fill="#E2CEC6" d="M40.1,16.1c-0.3,0.4-0.6,0.8-0.9,1.1l-6,6l-3-3V16h8.4C39.2,16,39.7,16,40.1,16.1z"/>
		<path fill="#E2CEC6" d="M39.2,29.2c0.3,0.3,0.7,0.7,0.9,1.1c-0.5,0.1-1,0.2-1.5,0.2h0h-8.4v-4.2l3-3L39.2,29.2z"/>
		<path fill="#86685B" d="M30.6,4.9h3.5c-1,0-2,0.2-2.9,0.6L30.6,4.9z"/>
		<path fill="#86685B" d="M34.1,41.5h-3.5l0.6-0.6c0,0,0,0,0.1,0C32.1,41.3,33.1,41.5,34.1,41.5z"/>
		<polygon fill="#D2B7AB" points="33.2,23.2 30.3,26.2 30.3,20.2 		"/>
		<path fill="#D2B7AB" d="M30.6,4.9l0.6,0.6c-0.4,0.2-0.8,0.4-1.1,0.6c-0.1-0.4-0.2-0.8-0.4-1.2H30.6z"/>
		<path fill="#D2B7AB" d="M31.2,40.9l-0.6,0.6h-0.9c0.2-0.4,0.3-0.8,0.4-1.2C30.4,40.6,30.8,40.8,31.2,40.9z"/>
		<path fill="#5A453C" d="M30.6,41.5L28.1,44c0.7-0.7,1.3-1.6,1.6-2.5H30.6z"/>
		<path fill="#5A453C" d="M30.6,4.9h-0.9c-0.4-0.9-0.9-1.7-1.6-2.5L30.6,4.9z"/>
		<path fill="#E2CEC6" d="M30.3,30.4v8.4c0,0.5-0.1,1-0.2,1.5c-0.4-0.3-0.8-0.6-1.1-0.9l-6-6l3-3H30.3z"/>
		<polygon fill="#D2B7AB" points="30.3,26.2 30.3,30.4 26,30.4 		"/>
		<polygon fill="#B28978" points="30.3,20.2 30.3,26.2 26,30.4 20,30.4 15.8,26.2 15.8,20.2 20,16 26,16 		"/>
		<polygon fill="#B28978" points="30.3,16 30.3,20.2 26,16 		"/>
		<path fill="#5A453C" d="M30.3,7.5V16H26l-3-3l6-6c0.3-0.3,0.7-0.7,1.1-0.9C30.2,6.6,30.3,7,30.3,7.5L30.3,7.5z"/>
		<path fill="#D2B7AB" d="M29.7,4.9c0.2,0.4,0.3,0.8,0.4,1.2C29.7,6.3,29.3,6.7,29,7l-6,6l-6-6c-0.3-0.3-0.7-0.7-1.1-0.9
			c0.1-0.4,0.2-0.8,0.3-1.2H29.7z"/>
		<path fill="#D2B7AB" d="M30.1,40.3c-0.1,0.4-0.2,0.8-0.4,1.2H16.3c-0.2-0.4-0.3-0.8-0.4-1.2c0.4-0.3,0.8-0.6,1.1-0.9l6-6l6,6
			C29.3,39.7,29.7,40.1,30.1,40.3z"/>
		<path fill="#5A453C" d="M29.7,41.5c-0.4,0.9-0.9,1.7-1.6,2.5c0,0,0,0,0,0c-0.1,0.1-0.2,0.2-0.3,0.2c-0.1,0.1-0.2,0.2-0.3,0.2
			c0,0,0,0,0,0c-0.1,0.1-0.2,0.2-0.3,0.2c-0.1,0.1-0.2,0.1-0.3,0.2c0,0-0.1,0.1-0.1,0.1c-0.1,0-0.1,0.1-0.2,0.1c0,0-0.1,0-0.1,0.1
			c0,0,0,0-0.1,0c-0.1,0-0.1,0.1-0.2,0.1c-0.1,0.1-0.2,0.1-0.3,0.2c-0.1,0.1-0.2,0.1-0.3,0.1c-2.6,1.1-5.7,0.5-7.9-1.6l0,0l0,0l0,0
			c-0.7-0.7-1.2-1.5-1.6-2.4c0,0,0-0.1,0-0.1H29.7z"/>
		<path fill="#5A453C" d="M28.1,2.4c0.7,0.7,1.3,1.6,1.6,2.5H16.3c0.4-0.9,0.9-1.7,1.6-2.5c0,0,0,0,0,0c0.1-0.1,0.2-0.2,0.3-0.2
			c0.1-0.1,0.1-0.1,0.2-0.2c0.1,0,0.1-0.1,0.2-0.1c0.1-0.1,0.2-0.1,0.2-0.2c0.1-0.1,0.2-0.1,0.3-0.2c0,0,0,0,0,0
			c0,0,0.1-0.1,0.1-0.1c0,0,0,0,0.1,0c0,0,0.1,0,0.1-0.1c0.1-0.1,0.2-0.1,0.3-0.2C22.4-0.3,25.8,0.2,28.1,2.4
			C28.1,2.4,28.1,2.4,28.1,2.4z"/>
		<polygon fill="#B28978" points="26,30.4 23,33.4 20,30.4 		"/>
		<polygon fill="#B28978" points="23,13 26,16 20,16 		"/>
		<path fill="#5A453C" d="M23,33.4l-6,6c-0.3,0.3-0.7,0.7-1.1,0.9c-0.1-0.5-0.2-1-0.2-1.5v-8.4H20L23,33.4z"/>
		<path fill="#E2CEC6" d="M17.1,7l6,6l-3,3h-4.2V7.5c0-0.5,0.1-1,0.2-1.5C16.3,6.4,16.7,6.7,17.1,7z"/>
		<polygon fill="#B28978" points="20,30.4 15.8,30.4 15.8,26.2 		"/>
		<polygon fill="#D2B7AB" points="20,16 15.8,20.2 15.8,16 		"/>
		<path fill="#5A453C" d="M15.4,4.9l2.5-2.5c-0.7,0.7-1.3,1.6-1.6,2.5H15.4z"/>
		<path fill="#5A453C" d="M17.9,44l-2.5-2.5h0.9c0,0,0,0.1,0,0.1C16.7,42.5,17.2,43.3,17.9,44z"/>
		<path fill="#D2B7AB" d="M16.3,41.5h-0.9l-0.6-0.6c0.4-0.2,0.8-0.4,1.1-0.6C16,40.7,16.1,41.1,16.3,41.5z"/>
		<path fill="#D2B7AB" d="M15.4,4.9h0.8c-0.2,0.4-0.3,0.8-0.3,1.2c-0.3-0.2-0.7-0.4-1.1-0.6L15.4,4.9z"/>
		<path fill="#D2B7AB" d="M15.9,6.1c-0.1,0.5-0.2,1-0.2,1.5V16H7.3c-0.5,0-1,0.1-1.5,0.2c-0.2-0.3-0.4-0.7-0.6-1.1l9.5-9.5
			C15.2,5.7,15.6,5.9,15.9,6.1z"/>
		<path fill="#D2B7AB" d="M15.8,38.9c0,0.5,0.1,1,0.2,1.5c-0.3,0.2-0.7,0.4-1.1,0.6l-9.5-9.5c0.2-0.4,0.4-0.8,0.6-1.1
			c0.5,0.1,1,0.2,1.5,0.2h8.4V38.9z"/>
		<path fill="#E2CEC6" d="M15.8,26.2v4.2H7.3c-0.5,0-1-0.1-1.5-0.2c0.3-0.4,0.6-0.8,0.9-1.1l6-6L15.8,26.2z"/>
		<polygon fill="#D2B7AB" points="15.8,20.2 15.8,26.2 12.8,23.2 		"/>
		<path fill="#E2CEC6" d="M15.8,16v4.2l-3,3l-6-6c-0.3-0.3-0.7-0.7-0.9-1.1C6.4,16,6.9,16,7.3,16H15.8z"/>
		<path fill="#86685B" d="M15.4,4.9l-0.6,0.6c0,0,0,0-0.1,0c-0.9-0.4-1.8-0.6-2.8-0.6H15.4z"/>
		<path fill="#86685B" d="M15.4,41.5h-3.5c1,0,2-0.2,2.9-0.6L15.4,41.5z"/>
		<path fill="#86685B" d="M14.8,5.5L5.3,15c-0.4-0.9-0.6-1.9-0.6-2.9v0v0c0-0.1,0-0.3,0-0.4c0-0.1,0-0.2,0-0.3
			c0-0.2,0.1-0.5,0.1-0.7c0,0,0,0,0-0.1c0,0,0-0.1,0-0.1c0-0.1,0-0.2,0.1-0.3c0,0,0,0,0,0c0,0,0-0.1,0-0.1c0,0,0,0,0,0
			C5,10.1,5,10.1,5,10c0-0.1,0.1-0.2,0.1-0.3c1-2.8,3.7-4.7,6.8-4.8c0,0,0,0,0,0h0h0C12.9,4.9,13.9,5.1,14.8,5.5
			C14.8,5.5,14.8,5.5,14.8,5.5z"/>
		<path fill="#86685B" d="M14.8,40.9c-0.9,0.4-1.9,0.6-2.9,0.6c0,0,0,0,0,0c-0.1,0-0.3,0-0.4,0c-0.1,0-0.2,0-0.3,0
			c-0.2,0-0.5-0.1-0.7-0.1c0,0,0,0-0.1,0c0,0-0.1,0-0.1,0c-0.1,0-0.1,0-0.2-0.1c0,0,0,0-0.1,0c0,0-0.1,0-0.1,0c0,0,0,0,0,0
			c-0.1,0-0.1,0-0.2-0.1c-0.1,0-0.2-0.1-0.3-0.1c-2.8-1-4.7-3.7-4.8-6.8c0,0,0,0,0,0s0,0,0,0c0-1,0.2-1.9,0.6-2.8c0,0,0,0,0-0.1
			L14.8,40.9z"/>
		<path fill="#D2B7AB" d="M6.8,17.2l6,6l-6,6c-0.3,0.3-0.7,0.7-0.9,1.1c-0.4-0.1-0.8-0.2-1.2-0.4V16.5c0.4-0.2,0.8-0.3,1.2-0.4
			C6.2,16.5,6.5,16.9,6.8,17.2z"/>
		<path fill="#D2B7AB" d="M5.3,15c0.2,0.4,0.4,0.8,0.6,1.1c-0.4,0.1-0.8,0.2-1.2,0.4v-0.9L5.3,15z"/>
		<path fill="#D2B7AB" d="M5.9,30.3c-0.2,0.3-0.4,0.7-0.6,1.1l-0.6-0.6v-0.9C5.1,30.1,5.5,30.2,5.9,30.3z"/>
		<path fill="#86685B" d="M5.3,15l-0.6,0.6v-3.5C4.7,13.2,4.9,14.1,5.3,15z"/>
		<path fill="#86685B" d="M5.3,31.4C5.3,31.4,5.3,31.4,5.3,31.4c-0.4,0.9-0.6,1.9-0.6,2.9v-3.5L5.3,31.4z"/>
		<path fill="#5A453C" d="M4.7,29.9v0.9l-2.5-2.5C3,29.1,3.8,29.6,4.7,29.9z"/>
		<path fill="#5A453C" d="M4.7,16.5v13.5c-0.9-0.4-1.7-0.9-2.5-1.6c0,0,0,0,0,0c-0.1-0.1-0.2-0.2-0.2-0.3c-0.1-0.1-0.2-0.2-0.2-0.3
			c0,0,0,0,0,0c-0.1-0.1-0.2-0.2-0.2-0.3c-0.1-0.1-0.1-0.2-0.2-0.2c0,0,0,0,0,0c0-0.1-0.1-0.1-0.1-0.2c0-0.1-0.1-0.1-0.1-0.2
			c0-0.1-0.1-0.1-0.1-0.2c0,0,0,0,0,0c-1.4-2.7-1-6.1,1.3-8.5l0,0c0,0,0,0,0,0C2.9,17.4,3.7,16.8,4.7,16.5
			C4.6,16.5,4.7,16.5,4.7,16.5z"/>
		<path fill="#5A453C" d="M4.7,15.6v0.9c0,0-0.1,0-0.1,0c-0.9,0.4-1.7,0.9-2.4,1.6L4.7,15.6z"/>
	</g>
	<g>
	</g>
</g>
</svg>
