<?xml version="1.0" encoding="utf-8"?>
<!-- Generator: Adobe Illustrator 19.2.1, SVG Export Plug-In . SVG Version: 6.00 Build 0)  -->
<svg version="1.1" id="Layer_1" xmlns="http://www.w3.org/2000/svg" xmlns:xlink="http://www.w3.org/1999/xlink" x="0px" y="0px"
	 viewBox="0 0 51.8 41.5" style="enable-background:new 0 0 51.8 41.5;" xml:space="preserve">
<style type="text/css">
	.st0{fill:#FFFFFF;}
	.st1{fill:#FFFFFF;stroke:#FFFFFF;stroke-width:2;stroke-miterlimit:10;}
</style>
<g>
	<path class="st0" d="M45.1,1c-1.3-0.1-1.9,1.6-2.1,2.5c-2.1,6.4-18.1,9.2-24.6,9.8V13c0-0.5-0.4-0.9-0.9-0.9H8.2
		c-0.4,0-0.8,0.3-0.9,0.7L7,14H5.5c-0.8,0-1.5,0.6-1.7,1.4v0.1c-0.6,2.4-0.6,5,0,7.4c0.2,0.8,0.9,1.4,1.7,1.4H7l0,0l0.3,1.2
		c0.1,0.4,0.5,0.7,0.9,0.7H9l5,13.5c0.2,0.6,0.8,1,1.4,1h5.2c0.5,0,0.9-0.2,1.2-0.6c0.3-0.4,0.3-0.9,0.2-1.3l-4.6-12.5h0.2
		c0.5,0,0.9-0.4,0.9-0.9v-0.3c6.4,0.6,22.5,3.3,24.6,9.8c0.3,0.8,0.8,2.5,2,2.5h0.1c1.1-0.1,1.9-1.3,2.7-7.1c1-7.3,1-14.8,0-22.1
		C47,2.3,46.2,1.1,45.1,1z M8.9,13.9h7.7v10.5H16H9.6H8.9l-0.1-0.5c-0.7-3-0.7-6.2,0-9.2L8.9,13.9z M5.6,22.5
		c-0.5-2.2-0.5-4.4,0-6.6v-0.1h1c-0.3,2.2-0.3,4.4,0,6.6h-1V22.5z M20,38.9h-4.4l-4.7-12.6h4.4L20,38.9z M46,30
		c-0.4,3-0.8,4.4-1,5.1c-0.1-0.2-0.2-0.4-0.3-0.7c-2.8-8.7-23.9-10.8-26.3-11.1v-8.2c2.4-0.2,23.5-2.3,26.3-11.1
		c0.1-0.3,0.2-0.5,0.3-0.7c0.3,0.7,0.6,2.1,1,5.1C47,15.5,47,22.8,46,30z"/>
</g>
<line class="st1" x1="3.4" y1="3.3" x2="49.4" y2="41.5"/>
</svg>
