<?xml version="1.0" encoding="utf-8"?>
<!-- Generator: Adobe Illustrator 20.0.0, SVG Export Plug-In . SVG Version: 6.00 Build 0)  -->
<!DOCTYPE svg PUBLIC "-//W3C//DTD SVG 1.1//EN" "http://www.w3.org/Graphics/SVG/1.1/DTD/svg11.dtd">
<svg version="1.1" id="Layer_1" xmlns="http://www.w3.org/2000/svg" xmlns:xlink="http://www.w3.org/1999/xlink" x="0px" y="0px"
	 viewBox="0 0 46.5 46.4" enable-background="new 0 0 46.5 46.4" xml:space="preserve">
<g id="XMLID_7949_">
	<g id="XMLID_7962_">
		<path fill="#FCC4A8" d="M45.3,19.9c1.4,2.7,1,6.2-1.3,8.5c0,0,0,0,0,0c-0.7,0.7-1.6,1.3-2.5,1.6V16.5c0.9,0.4,1.7,0.9,2.5,1.6l0,0
			l0,0c0.1,0.1,0.2,0.2,0.2,0.3c0.1,0.1,0.1,0.1,0.2,0.2c0,0.1,0.1,0.1,0.1,0.2c0,0,0,0,0,0c0.1,0.1,0.1,0.1,0.2,0.2
			c0.1,0.1,0.1,0.2,0.2,0.3c0,0,0.1,0.1,0.1,0.1c0,0,0,0,0,0.1c0,0,0.1,0.1,0.1,0.1c0,0,0,0,0,0.1C45.2,19.7,45.3,19.8,45.3,19.9z"
			/>
		<path fill="#FCC4A8" d="M44,28.4l-2.5,2.5V30C42.4,29.6,43.3,29.1,44,28.4z"/>
		<path fill="#FCC4A8" d="M41.5,15.7l2.5,2.5c-0.7-0.7-1.6-1.3-2.5-1.6V15.7z"/>
		<path fill="#86675A" d="M41.5,34.3C41.5,34.3,41.5,34.3,41.5,34.3c0,0.2,0,0.3,0,0.4c0,0.1,0,0.2,0,0.3c0,0.2-0.1,0.5-0.1,0.7
			c0,0,0,0,0,0.1c0,0,0,0.1,0,0.1c0,0.1,0,0.1-0.1,0.2c0,0,0,0,0,0.1c0,0,0,0.1,0,0.1c0,0,0,0,0,0c0,0.1,0,0.1-0.1,0.2
			c0,0.1-0.1,0.2-0.1,0.3c-1,2.8-3.7,4.7-6.8,4.8c0,0,0,0,0,0c0,0,0,0,0,0c-1,0-1.9-0.2-2.8-0.6c0,0,0,0-0.1,0l9.5-9.5
			C41.3,32.3,41.5,33.3,41.5,34.3z"/>
		<path fill="#86675A" d="M41.5,30.8v3.5c0-1-0.2-2-0.6-2.9L41.5,30.8z"/>
		<path fill="#FCC4A8" d="M41.5,30v0.9l-0.6,0.6c-0.2-0.4-0.4-0.8-0.6-1.1C40.8,30.3,41.2,30.1,41.5,30z"/>
		<path fill="#FCC4A8" d="M41.5,16.5V30c-0.4,0.2-0.8,0.3-1.2,0.4c-0.3-0.4-0.6-0.8-0.9-1.1l-6-6l6-6c0.3-0.3,0.7-0.7,0.9-1.1
			C40.8,16.2,41.2,16.4,41.5,16.5z"/>
		<path fill="#FCC4A8" d="M41.5,15.7v0.8c-0.4-0.2-0.8-0.3-1.2-0.3c0.2-0.3,0.4-0.7,0.6-1.1L41.5,15.7z"/>
		<path fill="#86675A" d="M41.5,12.2v3.5l-0.6-0.6c0,0,0,0,0-0.1C41.3,14.1,41.5,13.2,41.5,12.2z"/>
		<path fill="#86675A" d="M41.5,12.2C41.5,12.2,41.5,12.2,41.5,12.2c0,1-0.2,2-0.6,2.8c0,0,0,0,0,0.1l-9.5-9.5
			c0.9-0.4,1.9-0.6,2.9-0.6h0c0,0,0,0,0,0c0.1,0,0.3,0,0.4,0c0.1,0,0.2,0,0.3,0c0.2,0,0.5,0.1,0.7,0.1c0,0,0,0,0.1,0
			c0,0,0.1,0,0.1,0c0.1,0,0.2,0,0.3,0.1c0,0,0,0,0,0c0,0,0.1,0,0.1,0c0,0,0,0,0,0c0.1,0,0.1,0,0.2,0.1c0.1,0,0.2,0.1,0.3,0.1
			C39.5,6.4,41.5,9,41.5,12.2L41.5,12.2z"/>
		<path fill="#FCC4A8" d="M31.4,5.5l9.5,9.5c-0.2,0.4-0.4,0.8-0.6,1.1c-0.5-0.1-1-0.2-1.5-0.2h-8.4V7.6v0c0-0.5-0.1-1-0.2-1.5
			C30.7,5.9,31,5.7,31.4,5.5z"/>
		<path fill="#FCC4A8" d="M40.9,31.4L31.4,41c-0.4-0.2-0.8-0.4-1.1-0.6c0.1-0.5,0.2-1,0.2-1.5v-8.4h8.4h0c0.5,0,1-0.1,1.5-0.2
			C40.6,30.7,40.8,31.1,40.9,31.4z"/>
		<path fill="#86675A" d="M39.4,29.2c0.3,0.3,0.7,0.7,0.9,1.1c-0.5,0.1-1,0.2-1.5,0.2h0h-8.4v-4.2l3-3L39.4,29.2z"/>
		<path fill="#86675A" d="M40.4,16.2c-0.3,0.4-0.6,0.8-0.9,1.1l-6,6l-3-3V16h8.4C39.4,16,39.9,16.1,40.4,16.2z"/>
		<path fill="#86675A" d="M30.8,4.9h3.5c-1,0-2,0.2-2.9,0.6L30.8,4.9z"/>
		<path fill="#86675A" d="M34.3,41.6h-3.5l0.6-0.6c0,0,0,0,0.1,0C32.3,41.4,33.3,41.6,34.3,41.6z"/>
		<polygon fill="#FCC4A8" points="33.5,23.3 30.5,26.3 30.5,20.3 		"/>
		<path fill="#FCC4A8" d="M30.8,4.9l0.6,0.6c-0.4,0.2-0.8,0.4-1.1,0.6c-0.1-0.4-0.2-0.8-0.4-1.2H30.8z"/>
		<path fill="#FCC4A8" d="M31.4,41l-0.6,0.6H30c0.2-0.4,0.3-0.8,0.4-1.2C30.7,40.6,31,40.8,31.4,41z"/>
		<path fill="#FCC4A8" d="M30.8,41.6L28.4,44c0.7-0.7,1.3-1.6,1.6-2.5H30.8z"/>
		<path fill="#FCC4A8" d="M30.8,4.9H30c-0.4-0.9-0.9-1.7-1.6-2.5L30.8,4.9z"/>
		<path fill="#86675A" d="M30.5,30.5v8.4c0,0.5-0.1,1-0.2,1.5c-0.4-0.3-0.8-0.6-1.1-0.9l-6-6l3-3H30.5z"/>
		<polygon fill="#FCC4A8" points="30.5,26.3 30.5,30.5 26.2,30.5 		"/>
		<polygon fill="#E16A2D" points="30.5,20.3 30.5,26.3 26.2,30.5 20.2,30.5 16,26.3 16,20.3 20.2,16 26.2,16 		"/>
		<polygon fill="#E16A2D" points="30.5,16 30.5,20.3 26.2,16 		"/>
		<path fill="#A95022" d="M30.5,7.6V16h-4.2l-3-3l6-6c0.3-0.3,0.7-0.7,1.1-0.9C30.4,6.6,30.5,7.1,30.5,7.6L30.5,7.6z"/>
		<path fill="#FCC4A8" d="M30,4.9c0.2,0.4,0.3,0.8,0.4,1.2c-0.4,0.3-0.8,0.6-1.1,0.9l-6,6l-6-6c-0.3-0.3-0.7-0.7-1.1-0.9
			c0.1-0.4,0.2-0.8,0.4-1.2H30z"/>
		<path fill="#FCC4A8" d="M30.3,40.4c-0.1,0.4-0.2,0.8-0.4,1.2H16.5c-0.2-0.4-0.3-0.8-0.4-1.2c0.4-0.3,0.8-0.6,1.1-0.9l6-6l6,6
			C29.5,39.8,29.9,40.1,30.3,40.4z"/>
		<path fill="#FCC4A8" d="M30,41.6c-0.4,0.9-0.9,1.7-1.6,2.5c0,0,0,0,0,0c-0.1,0.1-0.2,0.2-0.3,0.2c-0.1,0.1-0.2,0.2-0.3,0.2
			c0,0,0,0,0,0c-0.1,0.1-0.2,0.2-0.3,0.2c-0.1,0.1-0.2,0.1-0.3,0.2c0,0-0.1,0.1-0.1,0.1c-0.1,0-0.1,0.1-0.2,0.1c0,0-0.1,0-0.1,0.1
			c0,0,0,0-0.1,0c-0.1,0-0.1,0.1-0.2,0.1c-0.1,0.1-0.2,0.1-0.3,0.2c-0.1,0.1-0.2,0.1-0.3,0.1c-2.6,1.1-5.7,0.5-7.9-1.6l0,0l0,0l0,0
			c-0.7-0.7-1.2-1.5-1.6-2.4c0,0,0-0.1,0-0.1H30z"/>
		<path fill="#FCC4A8" d="M28.4,2.5C29.1,3.2,29.6,4,30,4.9H16.5c0.4-0.9,0.9-1.7,1.6-2.5c0,0,0,0,0,0c0.1-0.1,0.2-0.2,0.3-0.2
			c0,0,0,0,0.1-0.1c0,0,0.1-0.1,0.1-0.1c0,0,0,0,0.1-0.1c0,0,0,0,0,0c0.1-0.1,0.2-0.2,0.3-0.2c0.1-0.1,0.2-0.1,0.2-0.2c0,0,0,0,0,0
			c0.1,0,0.1-0.1,0.2-0.1c0.1,0,0.1-0.1,0.2-0.1c0.1,0,0.1-0.1,0.2-0.1c0,0,0,0,0,0C22.6-0.2,26,0.2,28.4,2.5
			C28.3,2.5,28.4,2.5,28.4,2.5z"/>
		<polygon fill="#E16A2D" points="26.2,30.5 23.2,33.5 20.2,30.5 		"/>
		<polygon fill="#E16A2D" points="23.2,13 26.2,16 20.2,16 		"/>
		<path fill="#A95022" d="M23.2,33.5l-6,6c-0.3,0.3-0.7,0.7-1.1,0.9c-0.1-0.5-0.2-1-0.2-1.5v-8.4h4.2L23.2,33.5z"/>
		<path fill="#86675A" d="M17.3,7.1l6,6l-3,3H16V7.6c0-0.5,0.1-1,0.2-1.5C16.5,6.4,16.9,6.7,17.3,7.1z"/>
		<polygon fill="#E16A2D" points="20.2,30.5 16,30.5 16,26.3 		"/>
		<polygon fill="#FCC4A8" points="20.2,16 16,20.3 16,16 		"/>
		<path fill="#FCC4A8" d="M15.6,4.9l2.5-2.5c-0.7,0.7-1.3,1.6-1.6,2.5H15.6z"/>
		<path fill="#FCC4A8" d="M18.1,44l-2.5-2.5h0.9c0,0,0,0.1,0,0.1C16.9,42.5,17.4,43.3,18.1,44z"/>
		<path fill="#FCC4A8" d="M15.6,4.9h0.9c-0.2,0.4-0.3,0.8-0.4,1.2c-0.3-0.2-0.7-0.4-1.1-0.6L15.6,4.9z"/>
		<path fill="#FCC4A8" d="M16.5,41.6h-0.9L15,41c0.4-0.2,0.8-0.4,1.1-0.6C16.2,40.8,16.3,41.2,16.5,41.6z"/>
		<path fill="#FCC4A8" d="M16.1,6.1C16,6.6,16,7.1,16,7.6V16H7.6c-0.5,0-1,0.1-1.5,0.2c-0.2-0.3-0.4-0.7-0.6-1.1L15,5.5
			C15.4,5.7,15.8,5.9,16.1,6.1z"/>
		<path fill="#FCC4A8" d="M16,38.9c0,0.5,0.1,1,0.2,1.5c-0.3,0.2-0.7,0.4-1.1,0.6l-9.5-9.5c0.2-0.4,0.4-0.8,0.6-1.1
			c0.5,0.1,1,0.2,1.5,0.2H16V38.9z"/>
		<path fill="#86675A" d="M16,26.3v4.2H7.6c-0.5,0-1-0.1-1.5-0.2c0.3-0.4,0.6-0.8,0.9-1.1l6-6L16,26.3z"/>
		<polygon fill="#FCC4A8" points="16,20.3 16,26.3 13,23.3 		"/>
		<path fill="#86675A" d="M16,16v4.2l-3,3l-6-6c-0.3-0.3-0.7-0.7-0.9-1.1c0.5-0.1,1-0.2,1.5-0.2H16z"/>
		<path fill="#86675A" d="M15.6,4.9L15,5.5c0,0,0,0-0.1,0c-0.9-0.4-1.8-0.6-2.8-0.6H15.6z"/>
		<path fill="#86675A" d="M15.6,41.6h-3.5c1,0,2-0.2,2.9-0.6L15.6,41.6z"/>
		<path fill="#86675A" d="M15,5.5l-9.5,9.5c-0.4-0.9-0.6-1.9-0.6-2.9v0v0c0-0.1,0-0.3,0-0.4c0-0.1,0-0.2,0-0.3
			c0-0.3,0.1-0.6,0.1-0.8c0-0.1,0-0.2,0.1-0.2c0,0,0-0.1,0-0.1c0-0.1,0.1-0.2,0.1-0.3c0-0.1,0.1-0.2,0.1-0.3C6.4,6.9,9,5,12.1,4.9
			c0,0,0,0,0,0h0h0h0C13.2,4.9,14.1,5.1,15,5.5C15,5.5,15,5.5,15,5.5z"/>
		<path fill="#86675A" d="M15,41c-0.9,0.4-1.8,0.6-2.9,0.6c0,0,0,0,0,0c-0.1,0-0.3,0-0.4,0c-0.1,0-0.2,0-0.3,0
			c-0.2,0-0.5-0.1-0.7-0.1c0,0,0,0,0,0c0,0,0,0-0.1,0c-0.1,0-0.2,0-0.2-0.1c0,0-0.1,0-0.1,0c-0.1,0-0.2-0.1-0.3-0.1
			c-0.1,0-0.2-0.1-0.3-0.1c-2.8-1-4.7-3.7-4.8-6.8c0,0,0,0,0,0s0,0,0,0c0-1,0.2-1.9,0.6-2.8c0,0,0,0,0-0.1L15,41z"/>
		<path fill="#FCC4A8" d="M7,17.3l6,6l-6,6c-0.3,0.3-0.7,0.7-0.9,1.1c-0.4-0.1-0.8-0.2-1.2-0.4V16.5c0.4-0.2,0.8-0.3,1.2-0.4
			C6.4,16.6,6.7,17,7,17.3z"/>
		<path fill="#FCC4A8" d="M5.5,15.1c0.2,0.4,0.4,0.8,0.6,1.1c-0.4,0.1-0.8,0.2-1.2,0.4v-0.9L5.5,15.1z"/>
		<path fill="#FCC4A8" d="M6.1,30.3c-0.2,0.3-0.4,0.7-0.6,1.1l-0.6-0.6V30C5.3,30.1,5.7,30.3,6.1,30.3z"/>
		<path fill="#86675A" d="M5.5,15.1l-0.6,0.6v-3.5C4.9,13.2,5.1,14.2,5.5,15.1z"/>
		<path fill="#86675A" d="M5.5,31.4C5.5,31.5,5.5,31.5,5.5,31.4c-0.4,0.9-0.6,1.9-0.6,2.9v-3.5L5.5,31.4z"/>
		<path fill="#FCC4A8" d="M4.9,30v0.9l-2.5-2.5C3.2,29.1,4,29.6,4.9,30z"/>
		<path fill="#FCC4A8" d="M4.9,16.5V30c-0.9-0.4-1.7-0.9-2.5-1.6c0,0,0,0,0,0c-0.1-0.1-0.2-0.2-0.2-0.3C2.1,28,2,27.9,2,27.9
			c0,0,0,0,0,0c-0.1-0.1-0.2-0.2-0.2-0.3c-0.1-0.1-0.1-0.2-0.2-0.2c0,0,0,0,0,0c0-0.1-0.1-0.1-0.1-0.2c0-0.1-0.1-0.1-0.1-0.2
			c0-0.1-0.1-0.1-0.1-0.2c0,0,0,0,0,0c-1.4-2.7-1-6.1,1.3-8.5l0,0c0,0,0,0,0,0C3.2,17.4,4,16.9,4.9,16.5C4.9,16.5,4.9,16.5,4.9,16.5
			z"/>
		<path fill="#FCC4A8" d="M4.9,15.7v0.9c0,0-0.1,0-0.1,0c-0.9,0.4-1.7,0.9-2.4,1.6L4.9,15.7z"/>
	</g>
	<g id="XMLID_7961_">
	</g>
</g>
</svg>
