<?xml version="1.0" encoding="utf-8"?>
<!-- Generator: Adobe Illustrator 19.0.0, SVG Export Plug-In . SVG Version: 6.00 Build 0)  -->
<svg version="1.1" id="Layer_1" xmlns="http://www.w3.org/2000/svg" xmlns:xlink="http://www.w3.org/1999/xlink" x="0px" y="0px"
	 viewBox="-288 412.5 18.4 17.4" style="enable-background:new -288 412.5 18.4 17.4;" xml:space="preserve">
<style type="text/css">
	.st0{fill-rule:evenodd;clip-rule:evenodd;fill:#FFFFFF;}
</style>
<path id="XMLID_1298_" class="st0" d="M-284.4,417.5h2v-0.7c0-0.7,0.3-1.3,0.7-1.7c0.4-0.4,1-0.7,1.7-0.7h2.6c0.7,0,1.3,0.3,1.7,0.7
	c0.4,0.4,0.7,1,0.7,1.7v0.7h2c0.7,0,1.3,0.6,1.3,1.3v7.5c0,0.7-0.6,1.3-1.3,1.3h-11.4c-0.7,0-1.3-0.6-1.3-1.3v-7.5
	C-285.7,418.1-285.1,417.5-284.4,417.5L-284.4,417.5z M-281.1,417.5h4.8v-0.7c0-0.3-0.1-0.6-0.3-0.8c-0.2-0.2-0.5-0.3-0.8-0.3h-2.6
	c-0.3,0-0.6,0.1-0.8,0.3c-0.2,0.2-0.3,0.5-0.3,0.8V417.5L-281.1,417.5z"/>
</svg>
