<?xml version="1.0" encoding="utf-8"?>
<!-- Generator: Adobe Illustrator 20.0.0, SVG Export Plug-In . SVG Version: 6.00 Build 0)  -->
<!DOCTYPE svg PUBLIC "-//W3C//DTD SVG 1.1//EN" "http://www.w3.org/Graphics/SVG/1.1/DTD/svg11.dtd">
<svg version="1.1" id="Layer_1" xmlns="http://www.w3.org/2000/svg" xmlns:xlink="http://www.w3.org/1999/xlink" x="0px" y="0px"
	 viewBox="0 0 34.8 34.5" enable-background="new 0 0 34.8 34.5" xml:space="preserve">
<path fill="none" stroke="#FFFFFF" stroke-width="1.44" stroke-miterlimit="22.9256" d="M2.3,4l3.5-2.6c0.6-0.4,1.3-0.3,1.8,0.1l0,0
	l0,0c0,0,0.1,0.1,0.1,0.1l4.4,5.9c0.5,0.6,0.3,1.5-0.3,2c-3.3,2.4-4.6,2-1.5,6.4c1.5,2.2,3.5,4.4,3.8,4.7l0,0l0,0l0,0l0,0l0,0l0,0
	l0,0c0.3,0.3,2.5,2.3,4.7,3.8c4.5,3,4,1.7,6.4-1.5c0.5-0.6,1.3-0.7,2-0.3l5.9,4.4c0,0,0.1,0.1,0.1,0.1l0,0l0,0
	c0.5,0.5,0.5,1.3,0.1,1.8l-2.6,3.5c-0.1,0.2-0.2,0.3-0.4,0.4c-3.4,3.3-12.7-1.7-20-8.6C3.6,17.1-1.4,7.8,1.9,4.4
	C2,4.3,2.2,4.1,2.3,4L2.3,4z"/>
</svg>
