<?xml version="1.0" encoding="utf-8"?>
<!-- Generator: Adobe Illustrator 19.2.1, SVG Export Plug-In . SVG Version: 6.00 Build 0)  -->
<svg version="1.1" id="Layer_1" xmlns="http://www.w3.org/2000/svg" xmlns:xlink="http://www.w3.org/1999/xlink" x="0px" y="0px"
	 viewBox="0 0 642 627.3" style="enable-background:new 0 0 642 627.3;" xml:space="preserve">
<style type="text/css">
	.st0{fill:#FFFFFF;}
	.st1{fill:none;stroke:#FFFFFF;stroke-width:5;stroke-miterlimit:10;}
	.st2{opacity:0.5;}
	.st3{opacity:0.8;}
</style>
<g id="XMLID_7551_">
	<g id="XMLID_9564_">
		<g id="XMLID_2574_">
			<path class="st0" d="M594.4,244.3c1.1,1.1,2.1,2.2,3.1,3.3c0.3,0.3,0.5,0.5,0.7,0.8c0.6,0.6,1.1,1.2,1.6,1.8
				c0.2,0.3,0.4,0.5,0.7,0.8c0.1,0.2,0.3,0.3,0.4,0.5c1.1,1.3,2,2.5,3,3.8c0.8,1.1,1.5,2.2,2.3,3.3c0.4,0.5,0.7,1,0.9,1.4
				c0.5,0.7,1,1.5,1.5,2.3c0.3,0.4,0.5,0.9,0.7,1.3c0.1,0.2,0.3,0.4,0.4,0.7c0.6,1,1.1,1.9,1.6,2.9C630,303,624,348.2,594.4,379
				c0,0,0,0-0.1,0.1c-9.6,9.5-20.6,16.6-32.4,21.2V223C573.7,227.6,584.8,234.7,594.4,244.3L594.4,244.3L594.4,244.3z"/>
			<path class="st0" d="M561.9,211.8l32.4,32.4c-9.5-9.5-20.6-16.6-32.4-21.2V211.8z"/>
			<path class="st0" d="M561.9,400.3c11.8-4.6,22.9-11.7,32.4-21.2l-32.4,32.4V400.3z"/>
			<path class="st0" d="M561.9,400.3v11.2l-7.9,7.9c-2.2-5.1-4.8-9.9-7.8-14.5C551.5,403.9,556.7,402.4,561.9,400.3z"/>
			<path class="st0" d="M561.9,211.8V223c-5.1-2-10.4-3.6-15.8-4.6c3-4.5,5.7-9.4,7.9-14.4L561.9,211.8z"/>
			<path class="st0" d="M546.1,218.4c5.4,1.1,10.7,2.6,15.8,4.6v177.3c-5.1,2-10.4,3.6-15.7,4.6c-3.6-5.4-7.7-10.3-12.2-14.9
				l-78.4-78.4l78.4-78.4C538.5,228.8,542.6,223.8,546.1,218.4z"/>
			<path class="st0" d="M428.6,78.6L554,203.9c-2.2,5.1-4.8,9.9-7.9,14.4c-6.3-1.3-12.7-2-19.1-2H416.1V105.6v0
				c0-6.4-0.7-12.8-2-19.2C418.7,83.4,423.5,80.7,428.6,78.6z"/>
			<path class="st0" d="M527,216.4c6.4,0,12.8,0.7,19.1,2c-3.5,5.4-7.6,10.4-12.2,14.9l-78.4,78.4l-39.5-39.5v-55.8H527z"/>
			<polygon class="st0" points="455.5,311.7 416.1,351.1 416.1,272.2 			"/>
			<polygon class="st0" points="416.1,272.2 416.1,351.1 360.3,407 281.4,407 225.5,351.2 225.5,272.2 281.3,216.4 360.2,216.4 			
				"/>
			<polygon class="st0" points="416.1,216.4 416.1,272.2 360.2,216.4 			"/>
			<path class="st0" d="M416.1,105.6v110.8h-55.8l-39.5-39.5l78.4-78.4c4.5-4.5,9.5-8.6,14.9-12.2
				C415.4,92.7,416.1,99.1,416.1,105.6L416.1,105.6z"/>
			<polygon class="st0" points="360.3,407 320.8,446.4 281.4,407 			"/>
			<polygon class="st0" points="320.8,176.9 360.2,216.4 281.3,216.4 			"/>
			<polygon class="st0" points="225.5,272.2 225.5,351.2 186.1,311.7 			"/>
		</g>
		<g id="XMLID_2575_">
			<path class="st1" d="M499.4,76.4c-0.2,0-0.4-0.1-0.5-0.2"/>
			<path class="st1" d="M507.9,80c-1.3-0.6-2.7-1.2-4.1-1.8"/>
			<path class="st1" d="M526.9,92.2c-1.1-0.9-2.2-1.8-3.3-2.6c-1.2-0.9-2.5-1.8-3.7-2.6"/>
			<path class="st1" d="M539.6,104.7c-0.5-0.6-1-1.1-1.5-1.7c-0.8-1-1.7-1.9-2.6-2.9"/>
			<path class="st1" d="M547.5,115.6c-0.5-1-1.1-1.9-1.8-2.8"/>
			<path class="st1" d="M554.2,128.5c-1.1-2.7-2.5-5.4-3.9-8.1c-0.7-1.2-1.4-2.5-2.1-3.7"/>
			<path class="st1" d="M556.1,133.2c-0.5-1.3-1-2.6-1.5-3.8"/>
			<path class="st1" d="M561.3,155.6c-0.1-1.3-0.3-2.6-0.5-3.9"/>
			<path class="st1" d="M561.7,161c-0.1-1.4-0.2-2.7-0.3-4.1"/>
			<path class="st1" d="M561.9,165.8c0-1.6,0-3.2-0.1-4.8"/>
			<path class="st1" d="M561.4,466.5c0.1-1.2,0.2-2.4,0.3-3.6"/>
			<path class="st1" d="M559.1,480.4c0.3-1,0.5-1.9,0.7-2.9"/>
			<path class="st1" d="M557.6,485.8C557.6,485.7,557.6,485.7,557.6,485.8"/>
			<path class="st1" d="M556.1,490.2c0,0,0-0.1,0-0.1c0.1-0.1,0.1-0.3,0.2-0.4"/>
			<path class="st1" d="M552.5,498.8c0.7-1.3,1.2-2.7,1.8-4.1"/>
			<path class="st1" d="M540.3,517.8c0.9-1.1,1.8-2.2,2.6-3.3c0.9-1.2,1.8-2.4,2.6-3.7"/>
			<path class="st1" d="M514.6,539.7c1.5-0.9,3.1-1.8,4.5-2.8c1.7-1.1,3.3-2.2,4.9-3.5c1.3-1,2.6-2,3.8-3.1c0.5-0.4,1.1-0.9,1.6-1.4
				c1-0.8,1.9-1.7,2.9-2.6"/>
			<path class="st1" d="M499.3,547c1.3-0.5,2.6-1,3.8-1.5"/>
			<path class="st1" d="M476.9,552.2c1.3-0.1,2.6-0.3,3.9-0.5"/>
			<path class="st1" d="M471.5,552.6c1.4,0,2.7-0.2,4.1-0.3"/>
			<path class="st1" d="M466.7,552.7c1.6,0,3.2,0,4.7-0.1"/>
			<path class="st1" d="M79.8,166c0,13.5,2.8,26.2,7.9,37.9c2.2,5.1,4.8,9.9,7.8,14.5c3.5,5.4,7.6,10.3,12.2,14.9l78.4,78.4
				l39.5,39.5l55.8,55.8l39.5,39.5l78.4,78.4c4.5,4.5,9.5,8.6,14.9,12.2c4.5,3,9.4,5.6,14.4,7.8c0.3,0.1,0.6,0.3,0.9,0.4
				c11.4,4.8,23.9,7.5,37,7.5"/>
			<path class="st1" d="M175,70.6c-41,0.8-76.1,26.4-89.4,62.6c-0.5,1.5-1,2.9-1.5,4.4c-0.4,1.3-0.7,2.6-1.1,3.9"/>
			<polyline class="st1" points="561.9,457.3 561.9,411.5 561.9,400.3 561.9,223 561.9,211.8 561.9,166 			"/>
			<path class="st1" d="M560,476.1c0-0.2,0.1-0.4,0.1-0.7"/>
			<path class="st1" d="M466.7,552.7c1.6,0,3.2,0,4.7-0.1c0,0,0.1,0,0.1,0c1.4-0.1,2.7-0.2,4.1-0.3c0.4,0,0.9-0.1,1.3-0.1
				c1.3-0.1,2.6-0.3,3.9-0.5c6.4-1,12.6-2.6,18.5-4.7c1.3-0.5,2.6-1,3.8-1.5c4-1.6,7.8-3.6,11.5-5.7c1.5-0.9,3.1-1.8,4.5-2.8
				c1.7-1.1,3.3-2.2,4.9-3.5c1.3-1,2.6-2,3.8-3.1c0.5-0.4,1.1-0.9,1.6-1.4c1-0.8,1.9-1.7,2.9-2.6c2.9-2.7,5.5-5.5,8-8.6
				c0.9-1.1,1.8-2.2,2.6-3.3c0.9-1.2,1.8-2.5,2.6-3.7c2.6-3.8,4.9-7.8,6.9-12c0.6-1.3,1.2-2.7,1.8-4.1c0.7-1.5,1.2-3,1.8-4.5
				c0-0.2,0.1-0.4,0.2-0.5c0.5-1.3,0.9-2.6,1.3-3.9c0.3-1,0.6-2,0.8-3c0.1-0.2,0.1-0.4,0.1-0.5c0.1-0.4,0.2-0.7,0.3-1"/>
			<path class="st1" d="M165.9,552.3c1.2,0.1,2.4,0.2,3.6,0.3"/>
			<path class="st1" d="M152.1,550c1,0.3,1.9,0.5,2.9,0.7"/>
			<path class="st1" d="M146.7,548.5C146.7,548.5,146.7,548.5,146.7,548.5"/>
			<path class="st1" d="M142.2,547c0,0,0.1,0,0.1,0c0.1,0.1,0.3,0.1,0.4,0.2"/>
			<path class="st1" d="M133.7,543.3c1.3,0.6,2.7,1.2,4.1,1.8"/>
			<path class="st1" d="M120.8,535.8c1.6,1.1,3.2,2.2,4.8,3.2"/>
			<path class="st1" d="M114.7,531.2c0.7,0.6,1.4,1.1,2.1,1.6c1.1,0.9,2.2,1.7,3.3,2.5"/>
			<path class="st1" d="M103.2,520c1.2,1.4,2.4,2.7,3.7,4c0.3,0.3,0.6,0.6,0.8,0.8c0.1,0.2,0.3,0.3,0.5,0.5"/>
			<path class="st1" d="M92.6,505.2c1.9,3.4,4.1,6.6,6.5,9.8c1,1.4,2.1,2.7,3.2,4"/>
			<path class="st1" d="M85.5,490.2c0.5,1.3,1,2.6,1.5,3.8"/>
			<path class="st1" d="M80.3,467.8c0.1,1.3,0.3,2.6,0.5,3.9"/>
			<path class="st1" d="M79.9,462.4c0,1.4,0.2,2.7,0.3,4.1"/>
			<path class="st1" d="M79.8,457.6c0,1.6,0,3.2,0.1,4.7"/>
			<path class="st1" d="M466.5,70.6c-13.5,0-26.2,2.8-37.9,7.9c-5.1,2.2-9.9,4.8-14.5,7.8c-5.4,3.6-10.3,7.7-14.9,12.2l-78.4,78.4
				l-39.5,39.5l-55.8,55.8l-39.5,39.5l-78.4,78.4c-4.5,4.5-8.6,9.5-12.2,14.9c-3,4.5-5.6,9.4-7.8,14.4c-0.1,0.3-0.3,0.6-0.4,0.9
				c-4.8,11.4-7.5,23.9-7.5,37"/>
			<path class="st1" d="M475.7,71.1c-1.2-0.1-2.4-0.2-3.6-0.3"/>
			<path class="st1" d="M489.8,73.5c-1.1-0.3-2.2-0.5-3.3-0.7"/>
			<path class="st1" d="M561.9,165.8c-0.8-41.1-26.4-76.1-62.6-89.4c-1.5-0.5-2.9-1-4.4-1.5c-1.3-0.4-2.6-0.7-3.9-1.1"/>
			<path class="st1" d="M355.6,606.5c1.1-0.4,2.2-0.8,3.2-1.3c1.1-0.4,2.2-0.9,3.2-1.5"/>
			<path class="st1" d="M343.5,610.4c3-0.7,5.9-1.6,8.8-2.6"/>
			<path class="st1" d="M332.3,612.4c1.5-0.2,3.1-0.4,4.6-0.7c0.6,0,1.2-0.2,1.8-0.3"/>
			<path class="st1" d="M326.6,613c1.8-0.1,3.7-0.3,5.5-0.5"/>
			<path class="st1" d="M321.5,613.1c1.7,0,3.4-0.1,5.1-0.2"/>
			<path class="st1" d="M40.7,371.8c0.1,0.2,0.3,0.3,0.4,0.5"/>
			<path class="st1" d="M32,359.1c0.4,0.8,0.9,1.6,1.4,2.3"/>
			<path class="st1" d="M26.6,348c0.5,1.3,1.1,2.6,1.6,3.8c0.5,1,0.9,2,1.5,3"/>
			<path class="st1" d="M22.1,334.4c0.7,3,1.6,5.9,2.6,8.8"/>
			<path class="st1" d="M19.5,317.5c0.1,1.8,0.3,3.7,0.5,5.6c0.2,1.7,0.4,3.3,0.7,4.9"/>
			<path class="st1" d="M19.3,311.7c0,1.9,0,3.8,0.2,5.7"/>
			<path class="st1" d="M594.3,244.2c-9.5-9.5-20.6-16.6-32.4-21.2c-5.1-2-10.4-3.6-15.8-4.6c-6.3-1.3-12.7-2-19.1-2H416.1h-55.8
				h-78.9h-55.8H114.7c-6.4,0-12.9,0.7-19.2,2c-5.3,1.1-10.6,2.6-15.7,4.6c-0.3,0.1-0.7,0.2-1,0.4C67.4,228,56.6,235,47.3,244.2"/>
			<path class="st1" d="M597.5,247.6c-1-1.1-2-2.2-3.1-3.3"/>
			<path class="st1" d="M606.1,258.6c-0.7-1.1-1.5-2.2-2.3-3.3"/>
			<path class="st1" d="M609.6,264.3c-0.1-0.2-0.3-0.4-0.4-0.7"/>
			<path class="st1" d="M594.4,379C624,348.2,630,303,611.2,267.2"/>
			<path class="st1" d="M175.1,552.7h45.8h11.2h177.3h11.2h45.8c0,0,0.1,0,0.1,0s0,0,0.1,0c41.1-0.9,76.1-26.4,89.4-62.6
				c0.5-1.5,1-2.9,1.5-4.4c0.3-1,0.6-1.9,0.8-2.9c0-0.2,0.1-0.3,0.1-0.5c0.1-0.4,0.2-0.7,0.3-1c0-0.3,0.1-0.6,0.2-0.9
				c0.2-1,0.4-1.9,0.7-2.9c0.1-0.4,0.2-0.9,0.3-1.3c0-0.2,0.1-0.4,0.1-0.7c0.6-2.9,1-5.9,1.3-8.9c0.1-1.2,0.2-2.4,0.3-3.6
				c0.1-1.8,0.2-3.6,0.2-5.5c0,0,0-0.1,0-0.1c0-13.5-2.8-26.2-7.9-37.9c-2.2-5.1-4.8-9.9-7.8-14.5c-3.6-5.4-7.7-10.3-12.2-14.9
				l-78.4-78.4l-39.5-39.5l-55.8-55.8l-39.5-39.5l-78.4-78.4c-4.5-4.5-9.5-8.6-14.9-12.2c-4.5-3-9.4-5.7-14.4-7.9
				c-0.3-0.1-0.6-0.3-0.9-0.4c-11.4-4.8-23.9-7.5-37-7.5"/>
			<path class="st1" d="M156.3,550.9c0.2,0,0.4,0.1,0.7,0.1"/>
			<path class="st1" d="M79.8,457.6c0,1.6,0,3.2,0.1,4.7c0,0,0,0.1,0,0.1c0,1.4,0.2,2.7,0.3,4.1c0,0.4,0.1,0.9,0.1,1.3
				c0.1,1.3,0.3,2.6,0.5,3.9c1,6.4,2.6,12.6,4.7,18.5c0.5,1.3,1,2.6,1.5,3.8c1.6,3.8,3.4,7.6,5.5,11.1c1.9,3.4,4.1,6.6,6.5,9.8
				c1,1.4,2.1,2.7,3.2,4c0.3,0.4,0.6,0.7,0.9,1.1c1.2,1.4,2.4,2.7,3.7,4c0.3,0.3,0.6,0.6,0.8,0.8c0.2,0.2,0.3,0.4,0.5,0.5
				c2.1,2.1,4.3,4.1,6.6,5.9c0.7,0.6,1.4,1.1,2.1,1.6c1.1,0.9,2.2,1.7,3.3,2.5c0.2,0.1,0.4,0.3,0.7,0.4c1.6,1.1,3.2,2.2,4.8,3.2
				c2.6,1.6,5.3,3,8.1,4.4c1.3,0.6,2.7,1.2,4.1,1.8c1.5,0.7,3,1.2,4.5,1.8c0.2,0,0.4,0.1,0.5,0.2c1.3,0.5,2.6,0.9,3.9,1.3
				c1,0.3,2,0.6,3,0.8c0.2,0.1,0.4,0.1,0.5,0.1c0.4,0.1,0.7,0.2,1,0.3"/>
			<path class="st1" d="M80.2,156.8c-0.1,1.2-0.2,2.4-0.3,3.6"/>
			<path class="st1" d="M82.6,142.7c-0.3,1.1-0.5,2.2-0.7,3.3"/>
			<path class="st1" d="M85.5,133.1c0,0,0,0.1,0,0.1c-0.1,0.1-0.1,0.2-0.2,0.4"/>
			<path class="st1" d="M89.1,124.6c-0.6,1.3-1.2,2.7-1.8,4.1"/>
			<path class="st1" d="M96.7,111.6c-1.1,1.6-2.2,3.2-3.2,4.8"/>
			<path class="st1" d="M101.2,105.6c-0.6,0.7-1.1,1.4-1.6,2.1c-0.9,1.1-1.7,2.2-2.5,3.3"/>
			<path class="st1" d="M112.4,94.1c-1.4,1.2-2.7,2.4-4,3.7c-0.3,0.3-0.6,0.5-0.8,0.8c-1.1,1.1-2.1,2.2-3.2,3.3"/>
			<path class="st1" d="M122.3,86.5c-1.5,1-2.9,2-4.3,3"/>
			<path class="st1" d="M137.6,78.2c-1.3,0.5-2.6,1.1-3.9,1.8c-1.4,0.7-2.8,1.4-4.1,2.1c-0.7,0.4-1.4,0.7-2,1.1
				c-0.4,0.2-0.7,0.4-1.1,0.7c-1.1,0.7-2.3,1.4-3.4,2.2"/>
			<path class="st1" d="M142.3,76.4c-1.3,0.4-2.6,1-3.8,1.5"/>
			<path class="st1" d="M164.7,71.2c-1.3,0.1-2.6,0.3-3.9,0.5"/>
			<path class="st1" d="M170.1,70.8c-1.4,0-2.7,0.2-4.1,0.3"/>
			<line class="st1" x1="175" y1="70.6" x2="170.2" y2="70.8"/>
			<path class="st1" d="M79.8,457.3c0,0,0,0.1,0,0.1s0,0,0,0.1c0.9,41,26.4,76.1,62.6,89.4c1.5,0.5,2.9,1,4.4,1.5
				c1,0.3,1.9,0.6,2.9,0.8c0.2,0,0.3,0.1,0.5,0.1c0.4,0.1,0.7,0.2,1,0.3c0.3,0,0.6,0.1,0.9,0.2c1,0.2,1.9,0.4,2.9,0.7
				c0.4,0.1,0.9,0.2,1.3,0.3c0.2,0,0.4,0.1,0.7,0.1c2.9,0.6,5.9,1,8.9,1.3c1.2,0.1,2.4,0.2,3.6,0.3c1.8,0.1,3.6,0.2,5.5,0.2
				c0,0,0.1,0,0.1,0c13.5,0,26.2-2.8,37.9-7.9c5.1-2.2,9.9-4.8,14.5-7.8c5.4-3.5,10.3-7.6,14.9-12.2l78.4-78.4l39.5-39.5l55.8-55.8
				l39.5-39.5l78.4-78.4c4.5-4.5,8.6-9.5,12.2-14.9c3-4.5,5.7-9.4,7.9-14.4c0.1-0.3,0.3-0.6,0.4-0.9c4.8-11.4,7.5-23.9,7.5-37
				c0,0,0-0.1,0-0.1v0c0-1.6,0-3.2-0.1-4.8V161c0-1.4-0.2-2.7-0.3-4.1l-0.1-1.3c-0.1-1.3-0.3-2.6-0.5-3.9l-4.7-18.5
				c-0.4-1.3-1-2.6-1.5-3.8l-0.4-0.8c-1.1-2.8-2.4-5.5-3.9-8.1c-0.4-0.7-0.7-1.4-1.1-2c-0.3-0.5-0.6-1.1-1-1.6
				c-0.2-0.4-0.4-0.8-0.7-1.2c-0.5-1-1.1-1.9-1.8-2.8c-1.9-2.8-3.9-5.5-6.1-8.1c-0.5-0.6-1-1.1-1.5-1.7c-0.8-1-1.7-1.9-2.6-2.9
				c-2.7-2.8-5.5-5.5-8.6-8c-1.1-0.9-2.2-1.8-3.3-2.6c-1.2-0.9-2.4-1.8-3.7-2.6c-1.3-0.9-2.6-1.7-3.9-2.5c-2.6-1.6-5.3-3.1-8.1-4.4
				c-1.3-0.7-2.7-1.2-4.1-1.8c-1.5-0.7-3-1.2-4.5-1.8c0,0-0.1,0-0.1,0c-0.1-0.1-0.2-0.1-0.4-0.2c-1.3-0.4-2.6-0.9-4-1.3
				c0,0,0,0-0.1,0c-1.3-0.4-2.6-0.8-3.9-1.1c-0.4-0.1-0.7-0.2-1.1-0.3c-1.1-0.3-2.2-0.5-3.3-0.7c-3.6-0.8-7.2-1.3-10.9-1.7
				c-1.2-0.1-2.4-0.2-3.6-0.3c-1.8-0.1-3.6-0.2-5.5-0.2c0,0-0.1,0-0.1,0h0h-45.8h-11.2H232.1h-11.2h-45.8h0c0,0,0,0,0,0
				c0,0,0,0-0.1,0c-1.6,0-3.2,0-4.8,0.1c0,0-0.1,0-0.1,0c-1.4,0-2.7,0.2-4.1,0.3c-0.4,0-0.9,0.1-1.3,0.1c-1.3,0.1-2.6,0.3-3.9,0.5
				c-6.4,1-12.6,2.6-18.5,4.7c-1.3,0.5-2.6,1-3.8,1.5c-0.3,0.1-0.5,0.2-0.8,0.4c-1.3,0.6-2.6,1.1-3.9,1.8c-1.4,0.7-2.7,1.4-4.1,2.1
				c-1.1,0.6-2.1,1.2-3.2,1.8c-1.1,0.7-2.3,1.4-3.4,2.2c-0.2,0.1-0.4,0.3-0.7,0.4c-1.5,1-2.9,2-4.3,3c-1.9,1.5-3.8,3-5.6,4.5
				c-1.4,1.2-2.7,2.4-4,3.7c-0.3,0.3-0.6,0.6-0.8,0.8c-1.1,1.1-2.2,2.2-3.2,3.3c-1.1,1.2-2.2,2.5-3.2,3.8c-0.6,0.7-1.1,1.4-1.6,2.1
				c-0.9,1.1-1.7,2.2-2.5,3.3c-0.1,0.2-0.3,0.4-0.4,0.7c-1.1,1.6-2.2,3.2-3.2,4.8c-1.6,2.6-3,5.3-4.4,8.1c-0.6,1.3-1.2,2.7-1.8,4.1
				c-0.7,1.5-1.2,3-1.8,4.5c0,0.2-0.1,0.4-0.2,0.5c-0.5,1.3-0.9,2.7-1.3,4.1c-0.4,1.3-0.8,2.6-1.1,3.9c-0.1,0.4-0.2,0.7-0.3,1.1
				c-0.3,1.1-0.5,2.2-0.7,3.3c-0.8,3.5-1.3,7.2-1.7,10.9c-0.1,1.2-0.2,2.4-0.3,3.6c-0.1,1.8-0.2,3.6-0.2,5.5v0.1v0v45.8V223v177.3
				v11.2V457.3z"/>
			<path class="st1" d="M253.4,585.2C253.4,585.2,253.4,585.2,253.4,585.2"/>
			<polyline class="st1" points="47.3,379.1 79.8,411.5 87.6,419.4 213,544.8 220.9,552.7 253.4,585.1 			"/>
			<path class="st1" d="M44.1,375.7c1,1.1,2.1,2.2,3.1,3.3"/>
			<path class="st1" d="M35.1,364.2c0.1,0.2,0.2,0.4,0.4,0.6c0.7,1.1,1.5,2.2,2.2,3.3"/>
			<path class="st1" d="M47.2,244.4c-18.6,18.6-27.9,43-27.9,67.3c0,1.9,0,3.8,0.2,5.7c0,0,0,0,0,0c0.1,1.8,0.3,3.7,0.5,5.6
				c0.2,1.7,0.4,3.3,0.7,4.9c0.4,2.2,0.8,4.3,1.3,6.4c0.7,3,1.6,5.9,2.6,8.8c0.5,1.6,1.1,3.2,1.8,4.8c0.5,1.3,1.1,2.6,1.6,3.8
				c0.4,1,0.9,2,1.5,3c0.2,0.4,0.4,0.8,0.6,1.2c0,0,0,0.1,0.1,0.2"/>
			<path class="st1" d="M260.7,31.6c-0.2,0.1-0.3,0.3-0.5,0.4"/>
			<path class="st1" d="M268.2,26.1c-1.3,0.8-2.5,1.7-3.7,2.6"/>
			<path class="st1" d="M272.4,23.4c-0.3,0.2-0.6,0.4-0.9,0.6"/>
			<path class="st1" d="M298.1,12.9c-3,0.7-5.9,1.6-8.9,2.6c-1.5,0.5-2.9,1-4.3,1.6c-1.5,0.6-2.9,1.2-4.3,1.8
				c-1.4,0.7-2.8,1.3-4.2,2.1"/>
			<path class="st1" d="M314.8,10.4c-1.8,0.1-3.6,0.3-5.4,0.5c-1.6,0.2-3.2,0.4-4.8,0.7c-0.5,0.1-1.1,0.2-1.6,0.3"/>
			<path class="st1" d="M320.1,10.2c-1.7,0-3.3,0.1-5,0.2"/>
			<path class="st1" d="M388.3,585.1c9.5-9.6,16.6-20.6,21.2-32.4c2-5.1,3.6-10.3,4.6-15.7c1.3-6.3,2-12.7,2-19.2V407v-55.8v-78.9
				v-55.8V105.6v0c0-6.4-0.7-12.8-2-19.2c-1.1-5.3-2.6-10.6-4.6-15.7c-4.6-11.8-11.7-22.9-21.2-32.4"/>
			<path class="st1" d="M384.9,588.4c1.1-1,2.2-2,3.3-3.1"/>
			<path class="st1" d="M380.9,591.7c0.2-0.1,0.3-0.3,0.5-0.4"/>
			<path class="st1" d="M373.9,597c1.1-0.7,2.2-1.5,3.3-2.3"/>
			<path class="st1" d="M370.2,599.4c0.8-0.5,1.5-1,2.3-1.5"/>
			<path class="st1" d="M368.2,600.5c0.2-0.1,0.4-0.3,0.7-0.4"/>
			<path class="st1" d="M253.5,585.3c28.5,27.3,69.2,34.6,103.4,20.7c1.4-0.6,2.8-1.2,4.2-1.8c1.4-0.6,2.8-1.3,4.1-2"/>
			<path class="st1" d="M253.4,38.2l-32.4,32.4l-7.9,7.9L87.7,203.9l-7.9,7.9l-32.4,32.4c0,0,0,0-0.1,0.1l0,0
				c-29.6,30.8-35.6,75.8-17,111.6c0,0.1,0.1,0.1,0.1,0.2c0.5,1,1.1,1.9,1.6,2.9c0.5,0.8,0.9,1.6,1.4,2.3c0.6,0.9,1.1,1.8,1.8,2.8
				c0.1,0.2,0.3,0.4,0.4,0.6c0.7,1.1,1.5,2.2,2.2,3.3c1,1.3,1.9,2.6,3,3.8c0.1,0.2,0.3,0.3,0.4,0.5c1,1.1,1.9,2.3,3,3.4
				c1,1.1,2,2.2,3.1,3.3c0,0,0,0,0.1,0.1c9.6,9.5,20.6,16.6,32.4,21.2c5.1,2,10.3,3.6,15.7,4.6c6.3,1.3,12.7,2,19.2,2h110.9h55.8
				h78.9h55.8h110.8h0c6.4,0,12.8-0.7,19.2-2c5.3-1.1,10.6-2.6,15.7-4.6c11.8-4.6,22.9-11.7,32.4-21.2c0,0,0,0,0.1-0.1"/>
			<path class="st1" d="M256.8,35c-1.1,1-2.2,2.1-3.3,3.1"/>
			<path class="st1" d="M259.4,32.7c-0.6,0.5-1.2,1.1-1.8,1.6"/>
			<path class="st1" d="M271.1,24.3c-0.7,0.4-1.4,0.8-2,1.3"/>
			<path class="st1" d="M388.3,38.2C388.2,38.2,388.2,38.1,388.3,38.2L388.3,38.2c-18.9-18.9-43.6-28.2-68.1-28
				c-1.7,0-3.3,0.1-5,0.2c-0.1,0-0.3,0-0.4,0c-1.8,0.1-3.6,0.3-5.4,0.5c-1.6,0.2-3.2,0.4-4.8,0.7c-0.5,0.1-1.1,0.2-1.6,0.3
				c-1.7,0.3-3.3,0.7-4.9,1.1c-3,0.7-5.9,1.6-8.9,2.6c-1.5,0.5-2.9,1.1-4.3,1.6c-1.5,0.6-2.9,1.2-4.3,1.8c-1.4,0.7-2.8,1.3-4.2,2.1"
				/>
			<path class="st1" d="M599.8,250.3c-0.5-0.6-1.1-1.2-1.6-1.8"/>
			<path class="st1" d="M600.9,251.5c-0.1-0.2-0.3-0.3-0.4-0.5"/>
			<path class="st1" d="M608.5,262.3c-0.4-0.8-0.9-1.5-1.5-2.3"/>
			<path class="st1" d="M619.3,288c-0.7-2.6-1.5-5.3-2.4-7.9c-0.5-1.5-1-2.9-1.6-4.3c-0.6-1.5-1.2-2.9-1.8-4.3
				c-0.7-1.4-1.3-2.8-2.1-4.2"/>
			<path class="st1" d="M621.5,300.1c-0.1-1.5-0.4-2.9-0.6-4.4c-0.1-0.7-0.2-1.4-0.4-2.1"/>
			<path class="st1" d="M622.1,305.7c-0.1-1.7-0.2-3.5-0.5-5.2"/>
			<path class="st1" d="M622.3,311c0-1.7-0.1-3.3-0.2-5"/>
			<path class="st1" d="M388.2,38.1c-30.8-29.6-75.9-35.7-111.6-17c-1.4,0.7-2.7,1.5-4.1,2.3c-0.3,0.2-0.6,0.4-0.9,0.6
				c-0.2,0.1-0.3,0.2-0.4,0.3c-0.7,0.4-1.4,0.8-2,1.3c-0.3,0.2-0.5,0.3-0.8,0.5c-1.3,0.8-2.5,1.7-3.7,2.6c-1.3,0.9-2.6,1.9-3.8,3
				c-0.2,0.1-0.3,0.3-0.5,0.4c-0.3,0.2-0.5,0.4-0.8,0.7c-0.6,0.5-1.2,1.1-1.8,1.6c-0.3,0.2-0.5,0.4-0.8,0.7c-1.1,1-2.2,2-3.3,3.1
				c0,0,0,0-0.1,0.1c-9.5,9.5-16.6,20.6-21.2,32.4c-2,5.1-3.6,10.4-4.6,15.8c-1.3,6.3-2,12.7-2,19.1v110.9v55.8v78.9V407v110.8
				c0,6.4,0.7,12.9,2,19.2c1.1,5.3,2.6,10.6,4.6,15.7c0.1,0.3,0.2,0.7,0.4,1c4.7,11.4,11.6,22.2,20.9,31.4l0,0l0,0l0,0
				c18.8,18.6,43.1,27.9,67.4,27.9c0.2,0,0.4,0,0.6,0c1.7,0,3.4-0.1,5.1-0.2h0c1.8-0.1,3.7-0.3,5.5-0.5c0.1,0,0.1,0,0.2,0
				c1.5-0.2,3-0.4,4.6-0.7c0.6,0,1.1-0.2,1.8-0.3c1.6-0.3,3.2-0.6,4.8-1c3-0.7,5.9-1.6,8.8-2.6c1.1-0.4,2.2-0.8,3.3-1.2
				c0.4-0.2,0.9-0.4,1.4-0.6c0.6-0.2,1.2-0.5,1.8-0.7c0.8-0.4,1.6-0.7,2.4-1.1c0.3-0.1,0.5-0.2,0.8-0.4c1.1-0.5,2.1-1,3.2-1.5
				c0,0,0.1,0,0.2-0.1c1-0.5,1.9-1,2.9-1.6c0.2-0.1,0.4-0.2,0.7-0.4c0.4-0.2,0.8-0.5,1.3-0.7c0.8-0.4,1.5-0.9,2.3-1.5
				c0.5-0.3,1-0.6,1.4-0.9c1.1-0.7,2.2-1.5,3.3-2.3c1.3-0.9,2.6-1.9,3.8-3c0.2-0.1,0.3-0.3,0.5-0.4c1.1-1,2.3-1.9,3.4-3
				c1.1-1,2.2-2,3.3-3.1c0,0,0,0,0.1-0.1l32.4-32.4l7.9-7.9l125.4-125.4l7.9-7.9l32.4-32.4c0,0,0.1,0,0.1,0v0
				c18.8-18.8,28.1-43.5,27.9-68c0-1.7-0.1-3.3-0.2-5c0-0.1,0-0.3,0-0.4c-0.1-1.8-0.2-3.5-0.5-5.2c0-0.1,0-0.3,0-0.4
				c-0.1-1.5-0.4-2.9-0.6-4.4c-0.1-0.7-0.2-1.4-0.4-2.1c-0.4-1.9-0.8-3.7-1.3-5.6c-0.7-2.7-1.5-5.3-2.4-7.9
				c-0.5-1.5-1.1-2.9-1.6-4.3c-0.6-1.5-1.2-2.9-1.8-4.3c-0.7-1.4-1.3-2.8-2.1-4.2c0,0,0-0.1-0.1-0.2c-0.5-1-1-1.9-1.6-2.9
				c-0.1-0.2-0.2-0.4-0.4-0.7c-0.2-0.4-0.5-0.8-0.7-1.3c-0.4-0.7-0.9-1.5-1.5-2.3c-0.3-0.4-0.6-0.9-0.9-1.4
				c-0.7-1.1-1.5-2.2-2.3-3.3c-0.9-1.3-1.9-2.5-3-3.8c-0.1-0.1-0.3-0.3-0.4-0.5c-0.2-0.3-0.4-0.5-0.7-0.8c-0.5-0.6-1.1-1.3-1.6-1.8
				c-0.2-0.3-0.4-0.5-0.7-0.8c-1-1.1-2.1-2.2-3.1-3.3l0,0l0,0l-32.4-32.4l-7.9-7.9L428.6,78.6l-7.9-7.9L388.2,38.1
				C388.3,38.2,388.2,38.2,388.2,38.1z"/>
		</g>
	</g>
	<g id="XMLID_10508_" class="st2">
		<g id="XMLID_2565_">
			<path class="st0" d="M561.9,457.3c0,0,0,0.1,0,0.1c0,1.8,0,3.7-0.2,5.5c0,1.2-0.1,2.4-0.3,3.6c-0.3,3-0.7,6-1.3,8.9
				c0,0.2-0.1,0.4-0.1,0.7c-0.1,0.4-0.2,0.9-0.3,1.3c-0.2,1-0.4,1.9-0.7,2.9c-0.1,0.3-0.2,0.6-0.2,0.9c-0.1,0.4-0.2,0.7-0.3,1
				c0,0.2-0.1,0.3-0.1,0.5c-0.3,1-0.5,1.9-0.8,2.9c-0.5,1.5-1,3-1.5,4.4c-13.3,36.2-48.3,61.7-89.4,62.6c0,0,0,0-0.1,0s-0.1,0-0.1,0
				c-13.1,0-25.6-2.7-37-7.5c-0.3-0.1-0.6-0.3-0.9-0.4l125.4-125.4C559,431.1,561.9,443.9,561.9,457.3z"/>
			<path class="st0" d="M561.9,411.5v45.8c0-13.5-2.8-26.2-7.9-37.9L561.9,411.5z"/>
			<path class="st0" d="M553.9,419.5L428.6,544.8c-5.1-2.2-9.9-4.8-14.4-7.8c1.3-6.3,2-12.7,2-19.2V407h110.8h0
				c6.4,0,12.8-0.7,19.2-2C549.1,409.6,551.8,414.4,553.9,419.5z"/>
			<path class="st0" d="M534,390.1c4.5,4.5,8.6,9.5,12.2,14.9c-6.3,1.3-12.8,2-19.2,2h0H416.1v-55.8l39.5-39.5L534,390.1z"/>
			<path class="st0" d="M416.1,407v110.9c0,6.4-0.7,12.9-2,19.2c-5.4-3.6-10.4-7.7-14.9-12.2l-78.4-78.4l39.5-39.5H416.1z"/>
			<polygon class="st0" points="416.1,351.1 416.1,407 360.3,407 			"/>
		</g>
		<g id="XMLID_2566_">
		</g>
	</g>
	<g id="XMLID_10635_" class="st3">
		<g id="XMLID_2484_">
			<path class="st0" d="M466.5,552.7h-45.8l7.9-7.9c0.3,0.1,0.6,0.3,0.9,0.4C440.9,550.1,453.4,552.7,466.5,552.7z"/>
			<path class="st0" d="M428.6,544.9l-7.9,7.9h-11.2c2-5.1,3.6-10.3,4.6-15.7C418.7,540,423.5,542.7,428.6,544.9z"/>
			<path class="st0" d="M388.3,585.2c9.5-9.6,16.6-20.6,21.2-32.4h11.2L388.3,585.2z"/>
			<path class="st0" d="M414.1,537c-1.1,5.4-2.6,10.6-4.6,15.7H232.2c-2-5.1-3.6-10.4-4.6-15.7c5.4-3.5,10.3-7.6,14.9-12.2
				l78.4-78.4l78.4,78.4C403.8,529.4,408.8,533.4,414.1,537z"/>
			<path class="st0" d="M357,606c-34.3,13.9-74.9,6.6-103.4-20.7l0,0l0,0l0,0c-9.3-9.3-16.2-20-20.9-31.4c-0.1-0.3-0.3-0.7-0.4-1
				h177.3c-4.6,11.8-11.7,22.9-21.2,32.4c0,0,0,0-0.1,0.1c-1.1,1.1-2.2,2.1-3.3,3.1c-1.1,1.1-2.3,2-3.4,3c-0.2,0.1-0.3,0.3-0.5,0.4
				c-1.2,1-2.5,2-3.8,3c-1.1,0.8-2.2,1.5-3.3,2.3c-0.4,0.4-0.9,0.7-1.4,0.9c-0.7,0.5-1.5,1-2.3,1.5c-0.4,0.3-0.8,0.5-1.3,0.7
				c-0.2,0.1-0.4,0.3-0.7,0.4c-1,0.6-1.9,1.1-2.9,1.6c-1.4,0.7-2.8,1.4-4.1,2C359.8,604.8,358.4,605.4,357,606z"/>
			<path class="st0" d="M320.9,446.4l-78.4,78.4c-4.5,4.5-9.5,8.6-14.9,12.2c-1.3-6.3-2-12.8-2-19.2V407h55.8L320.9,446.4z"/>
			<polygon class="st0" points="281.4,407 225.6,407 225.6,351.2 			"/>
			<path class="st0" d="M253.4,585.2L253.4,585.2C253.5,585.2,253.4,585.2,253.4,585.2z"/>
			<path class="st0" d="M253.4,585.2L221,552.7h11.2c0.1,0.3,0.2,0.7,0.4,1C237.2,565.1,244.1,575.9,253.4,585.2z"/>
			<path class="st0" d="M232.2,552.7H221l-7.9-7.9c5.1-2.2,9.9-4.8,14.5-7.8C228.6,542.3,230.1,547.6,232.2,552.7z"/>
			<path class="st0" d="M225.6,517.8c0,6.4,0.7,12.9,2,19.2c-4.6,3-9.4,5.6-14.5,7.8L87.7,419.4c2.2-5.1,4.8-9.9,7.9-14.4
				c6.3,1.3,12.7,2,19.1,2h110.9V517.8z"/>
			<path class="st0" d="M225.6,351.2V407H114.7c-6.4,0-12.8-0.7-19.1-2c3.5-5.4,7.6-10.3,12.2-14.9l78.4-78.4L225.6,351.2z"/>
			<path class="st0" d="M221,552.7h-45.8c13.5,0,26.2-2.8,37.9-7.9L221,552.7z"/>
			<path class="st0" d="M213.1,544.8c-11.6,5.1-24.4,7.9-37.9,7.9c0,0-0.1,0-0.1,0c-1.8,0-3.7,0-5.5-0.2c-1.2,0-2.4-0.1-3.6-0.3
				c-3.7-0.4-7.4-0.9-10.9-1.7c-1.1-0.2-2.2-0.5-3.3-0.7c-0.4-0.1-0.8-0.2-1.1-0.3c-1.3-0.4-2.6-0.7-3.9-1.1c-1.5-0.5-3-1-4.4-1.5
				c-36.2-13.3-61.7-48.4-62.6-89.4c0,0,0,0,0-0.1s0-0.1,0-0.1c0-13.1,2.6-25.6,7.5-37c0.1-0.3,0.3-0.6,0.4-0.9L213.1,544.8z"/>
			<path class="st0" d="M107.7,233.3l78.4,78.4l-78.4,78.4c-4.5,4.5-8.6,9.5-12.2,14.9c-5.4-1.1-10.7-2.6-15.8-4.6V223
				c5.1-2,10.4-3.6,15.7-4.6C99.1,223.8,103.2,228.7,107.7,233.3z"/>
			<path class="st0" d="M151.8,549.9c1.1,0.3,2.2,0.5,3.3,0.7C154,550.4,152.9,550.2,151.8,549.9z"/>
			<path class="st0" d="M150.7,549.6c-1.3-0.3-2.6-0.7-3.9-1.1C148.1,548.9,149.4,549.2,150.7,549.6z"/>
			<path class="st0" d="M142.8,547.1c-0.1-0.1-0.3-0.1-0.5-0.2c0,0,0.1,0,0.1,0C142.5,547.1,142.6,547.1,142.8,547.1z"/>
			<path class="st0" d="M87.7,203.9c2.2,5.1,4.8,9.9,7.8,14.5c-5.3,1.1-10.6,2.6-15.7,4.6v-11.2L87.7,203.9z"/>
			<path class="st0" d="M95.6,405c-3,4.5-5.7,9.4-7.9,14.4l-7.9-7.9v-11.2C84.9,402.4,90.2,403.9,95.6,405z"/>
			<path class="st0" d="M87.7,419.4c-0.1,0.3-0.3,0.6-0.4,0.9c-4.8,11.4-7.5,23.9-7.5,37v-45.8L87.7,419.4z"/>
			<path class="st0" d="M79.8,457.6c0,1.6,0,3.2,0.1,4.7C79.8,460.7,79.8,459.2,79.8,457.6z"/>
			<path class="st0" d="M79.8,223v177.3c-11.8-4.6-22.9-11.7-32.4-21.2c0,0,0,0-0.1-0.1c-1.1-1.1-2.1-2.2-3.1-3.3
				c-1.1-1.1-2-2.3-3-3.4c-0.1-0.2-0.3-0.3-0.4-0.5c-1-1.2-2-2.5-3-3.8c-0.7-1.1-1.5-2.2-2.2-3.3c-0.1-0.2-0.3-0.4-0.4-0.6
				c-0.6-0.9-1.2-1.8-1.8-2.8c-0.5-0.7-1-1.5-1.4-2.3c-0.5-1-1.1-1.9-1.6-2.9c0-0.1-0.1-0.1-0.1-0.2c-18.6-35.8-12.6-80.8,17-111.6
				l0,0c0,0,0.1-0.1,0.1-0.1c9.3-9.2,20-16.2,31.4-20.9C79.1,223.2,79.5,223.1,79.8,223z"/>
			<path class="st0" d="M47.4,379.1c9.6,9.5,20.6,16.6,32.4,21.2v11.2L47.4,379.1z"/>
			<path class="st0" d="M47.4,244.2l32.4-32.4V223c-0.3,0.1-0.7,0.2-1,0.4C67.4,228,56.7,235,47.4,244.2z"/>
			<path class="st0" d="M44.2,375.7c1,1.1,2,2.2,3.1,3.3C46.2,378,45.2,376.9,44.2,375.7z"/>
			<path class="st0" d="M40.8,371.8c0.1,0.2,0.3,0.3,0.4,0.5C41,372.1,40.9,372,40.8,371.8z"/>
			<path class="st0" d="M35.6,364.8c0.7,1.1,1.5,2.2,2.2,3.3C37,366.9,36.3,365.9,35.6,364.8z"/>
			<path class="st0" d="M35.6,364.8c-0.2-0.2-0.3-0.4-0.4-0.6C35.3,364.4,35.4,364.6,35.6,364.8z"/>
			<path class="st0" d="M33.4,361.4c-0.5-0.7-0.9-1.5-1.4-2.3C32.5,359.9,32.9,360.7,33.4,361.4z"/>
			<path class="st0" d="M30.3,356c0,0.1,0.1,0.1,0.1,0.2C30.3,356.1,30.3,356,30.3,356z"/>
			<path class="st0" d="M29.7,354.7c-0.5-1-1-1.9-1.5-3C28.7,352.8,29.1,353.8,29.7,354.7z"/>
			<path class="st0" d="M26.6,348c0.5,1.3,1.1,2.6,1.6,3.8C27.7,350.6,27.1,349.3,26.6,348z"/>
		</g>
		<g id="XMLID_2485_">
		</g>
	</g>
	<g id="XMLID_10763_" class="st2">
		<g id="XMLID_2478_">
			<path class="st0" d="M242.4,98.5l78.4,78.4l-39.5,39.5h-55.8V105.5c0-6.4,0.7-12.9,2-19.2C232.9,89.9,237.9,94,242.4,98.5z"/>
			<polygon class="st0" points="281.3,216.4 225.5,272.2 225.5,216.4 			"/>
			<path class="st0" d="M227.5,86.3c-1.3,6.3-2,12.7-2,19.2v110.9H114.7c-6.4,0-12.9,0.7-19.2,2c-3-4.6-5.6-9.4-7.8-14.5L213.1,78.5
				C218.1,80.7,223,83.3,227.5,86.3z"/>
			<path class="st0" d="M225.5,216.4v55.8l-39.5,39.5l-78.4-78.4c-4.5-4.5-8.6-9.5-12.2-14.9c6.3-1.3,12.8-2,19.2-2H225.5z"/>
		</g>
		<g id="XMLID_2479_">
		</g>
	</g>
</g>
</svg>
