<?xml version="1.0" encoding="utf-8"?>
<!-- Generator: Adobe Illustrator 19.0.0, SVG Export Plug-In . SVG Version: 6.00 Build 0)  -->
<svg version="1.1" id="Layer_1" xmlns="http://www.w3.org/2000/svg" xmlns:xlink="http://www.w3.org/1999/xlink" x="0px" y="0px"
	 viewBox="0 0 30 30" style="enable-background:new 0 0 30 30;" xml:space="preserve">
<style type="text/css">
	.st0{fill:#FFFFFF;}
</style>
<g id="XMLID_10822_">
	<path id="XMLID_10823_" class="st0" d="M103.8,20.5H91.4c-0.4,0-0.9-0.1-1.3-0.2c-1.9-0.6-3.3-2.4-3.3-4.5c0-2.5,2-4.6,4.6-4.7
		c0.6-2.8,3-4.9,5.9-4.9c2.5,0,4.6,1.5,5.5,3.7c0.3,0,0.5-0.1,0.8-0.1c2.9,0,5.3,2.4,5.3,5.3c0,2.3-1.5,4.3-3.7,5
		C104.8,20.4,104.3,20.5,103.8,20.5L103.8,20.5z M91.5,13.1c-1.5,0-2.7,1.2-2.7,2.7c0,1.2,0.8,2.3,1.9,2.6c0.2,0.1,0.5,0.1,0.7,0.1
		h12.5c0.2,0,0.5,0,0.7-0.1l0.1,0c1.4-0.4,2.3-1.7,2.3-3.2c0-1.8-1.5-3.3-3.3-3.3c-0.4,0-0.8,0.1-1.1,0.2l-1,0.4l-0.3-1.1
		c-0.4-1.8-2.1-3.1-3.9-3.1c-2.2,0-4,1.8-4,4l0,1.2L92,13.2C91.8,13.2,91.7,13.1,91.5,13.1L91.5,13.1z"/>
</g>
<path id="XMLID_10818_" class="st0" d="M145,6.4c-0.2,0-0.4,0-0.6,0c-0.7-1.7-2.3-2.8-4.2-2.8c-2.2,0-4,1.6-4.5,3.7
	c-0.7,0-1.3,0.2-1.8,0.6c-1-0.6-2.1-1-3.3-1c-2.9,0-5.4,2.1-5.9,4.9c-2.5,0.1-4.6,2.1-4.6,4.7c0,2.1,1.4,3.9,3.3,4.5
	c0.4,0.1,0.8,0.2,1.3,0.2h12.5c0.5,0,0.9-0.1,1.4-0.3c2.2-0.7,3.7-2.7,3.7-5c0-0.5-0.1-1-0.2-1.4h3.1c0.4,0,0.7-0.1,1-0.2
	c1.7-0.5,2.8-2.1,2.8-3.8C149,8.2,147.2,6.4,145,6.4z M138,19L138,19c-0.3,0.1-0.5,0.2-0.8,0.2h-12.5c-0.2,0-0.4,0-0.7-0.1
	c-1.1-0.3-1.9-1.4-1.9-2.6c0-1.5,1.2-2.7,2.7-2.7c0.2,0,0.4,0,0.6,0.1l1.2,0.2l0-1.2c0-2.2,1.9-4,4-4c1.9,0,3.5,1.3,3.9,3.1l0.3,1.1
	l1-0.4c0.4-0.1,0.7-0.2,1.1-0.2c1.8,0,3.3,1.5,3.3,3.3C140.3,17.3,139.3,18.6,138,19z M145.7,12.9c-0.2,0.1-0.4,0.1-0.6,0.1h-3.7
	c-0.9-1.4-2.6-2.4-4.4-2.4c-0.3,0-0.5,0-0.8,0.1c-0.3-0.6-0.6-1.2-1-1.6c0.2-0.1,0.4-0.1,0.7-0.1c0.1,0,0.3,0,0.4,0l0.9,0.2l0-0.9
	c0-1.7,1.4-3,3.1-3c1.4,0,2.7,1,3,2.4l0.2,0.8l0.8-0.3c0.3-0.1,0.6-0.2,0.9-0.2c1.4,0,2.5,1.1,2.5,2.5
	C147.5,11.6,146.8,12.5,145.7,12.9z"/>
<g id="XMLID_10809_">
	<path id="XMLID_10815_" class="st0" d="M176.4,3.2c-0.3,0-0.5,0-0.8,0.1c-0.9-2.2-3.1-3.7-5.6-3.7c-2.9,0-5.4,2.1-5.9,4.9
		c-2.5,0.1-4.6,2.1-4.6,4.7c0,2.1,1.4,3.9,3.3,4.5c0.4,0.1,0.8,0.2,1.3,0.2h12.5c0.5,0,1-0.1,1.4-0.3c2.2-0.7,3.7-2.7,3.7-5
		C181.7,5.6,179.3,3.2,176.4,3.2z M177.4,11.7L177.4,11.7c-0.3,0.1-0.5,0.2-0.8,0.2h-12.5c-0.2,0-0.4,0-0.7-0.1
		c-1.1-0.3-1.9-1.4-1.9-2.6c0-1.5,1.2-2.7,2.7-2.7c0.2,0,0.4,0,0.6,0.1l1.2,0.2l0-1.2c0-2.2,1.9-4,4-4c1.9,0,3.5,1.3,3.9,3.1
		l0.3,1.1l1-0.4c0.4-0.1,0.7-0.2,1.1-0.2c1.8,0,3.3,1.5,3.3,3.3C179.7,10,178.8,11.2,177.4,11.7z"/>
	<path id="XMLID_10814_" class="st0" d="M166.2,15.1c-0.4-0.2-0.8-0.1-1,0.3l-1,1.7c-0.2,0.4-0.1,0.8,0.3,1c0.1,0.1,0.2,0.1,0.4,0.1
		c0.3,0,0.5-0.1,0.6-0.4l1-1.7C166.7,15.7,166.6,15.3,166.2,15.1z"/>
	<path id="XMLID_10813_" class="st0" d="M170.9,15.1c-0.4-0.2-0.8-0.1-1,0.3l-1,1.7c-0.2,0.4-0.1,0.8,0.3,1c0.1,0.1,0.2,0.1,0.4,0.1
		c0.3,0,0.5-0.1,0.6-0.4l1-1.7C171.4,15.7,171.2,15.3,170.9,15.1z"/>
	<path id="XMLID_10812_" class="st0" d="M175.6,15.1c-0.4-0.2-0.8-0.1-1,0.3l-1,1.7c-0.2,0.4-0.1,0.8,0.3,1c0.1,0.1,0.2,0.1,0.4,0.1
		c0.3,0,0.5-0.1,0.6-0.4l1-1.7C176.1,15.7,175.9,15.3,175.6,15.1z"/>
	<path id="XMLID_10811_" class="st0" d="M167.6,18.3c-0.4-0.2-0.8-0.1-1,0.3l-1,1.7c-0.2,0.4-0.1,0.8,0.3,1c0.1,0.1,0.2,0.1,0.4,0.1
		c0.3,0,0.5-0.1,0.6-0.4l1-1.7C168.1,19,168,18.5,167.6,18.3z"/>
	<path id="XMLID_10810_" class="st0" d="M172.3,18.3c-0.4-0.2-0.8-0.1-1,0.3l-1,1.7c-0.2,0.4-0.1,0.8,0.3,1c0.1,0.1,0.2,0.1,0.4,0.1
		c0.3,0,0.5-0.1,0.6-0.4l1-1.7C172.8,19,172.6,18.5,172.3,18.3z"/>
</g>
<g id="XMLID_10795_">
	<path id="XMLID_10808_" class="st0" d="M61.9,6.2C62,6.2,62,6.2,61.9,6.2c0.5-0.1,0.8-0.4,0.7-0.8l-0.3-2C62.4,3,62,2.7,61.6,2.7
		c-0.4,0.1-0.7,0.4-0.6,0.8l0.3,2C61.3,5.9,61.6,6.2,61.9,6.2z"/>
	<path id="XMLID_10807_" class="st0" d="M57.3,7.5c0.1,0.2,0.4,0.3,0.6,0.3c0.2,0,0.3,0,0.4-0.2c0.3-0.2,0.4-0.7,0.1-1L57.2,5
		c-0.2-0.3-0.7-0.4-1-0.1c-0.3,0.2-0.4,0.7-0.1,1L57.3,7.5z"/>
	<path id="XMLID_10806_" class="st0" d="M72.8,17.3L71,16.6c-0.4-0.2-0.8,0-1,0.4c-0.2,0.4,0,0.8,0.4,1l1.8,0.8
		c0.1,0,0.2,0.1,0.3,0.1c0.3,0,0.6-0.2,0.7-0.5C73.4,17.9,73.2,17.5,72.8,17.3z"/>
	<path id="XMLID_10805_" class="st0" d="M73.2,11.9l-2,0.3c-0.4,0.1-0.7,0.4-0.6,0.8c0.1,0.4,0.4,0.6,0.7,0.6c0,0,0.1,0,0.1,0l2-0.3
		c0.4-0.1,0.7-0.4,0.6-0.8C74,12.2,73.6,11.9,73.2,11.9z"/>
	<path id="XMLID_10804_" class="st0" d="M71.8,8.2c0.3-0.2,0.4-0.7,0.1-1c-0.2-0.3-0.7-0.4-1-0.1l-1.6,1.2c-0.3,0.2-0.4,0.7-0.1,1
		c0.1,0.2,0.4,0.3,0.6,0.3c0.2,0,0.3,0,0.5-0.2L71.8,8.2z"/>
	<path id="XMLID_10803_" class="st0" d="M66,6.8c0.1,0,0.2,0.1,0.3,0.1c0.3,0,0.6-0.2,0.7-0.5l0.8-1.8c0.2-0.4,0-0.8-0.4-1
		c-0.4-0.2-0.8,0-1,0.4l-0.8,1.8C65.5,6.2,65.6,6.6,66,6.8z"/>
	<path id="XMLID_10799_" class="st0" d="M68.9,13.1c-0.4-3-3-5.3-6-5.3c-0.3,0-0.5,0-0.8,0.1c-1.5,0.2-2.7,0.9-3.6,1.9
		c-0.7-0.2-1.4-0.4-2.1-0.4c-2.9,0-5.4,2.1-5.9,4.9c-2.5,0.1-4.6,2.1-4.6,4.7c0,2.1,1.4,3.9,3.3,4.5c0.4,0.1,0.8,0.2,1.3,0.2H63
		c0.5,0,0.9-0.1,1.4-0.3c2.2-0.7,3.7-2.7,3.7-5c0-0.4,0-0.8-0.1-1.1C68.7,16,69.1,14.6,68.9,13.1z M63.8,21.5L63.8,21.5
		c-0.3,0.1-0.5,0.2-0.8,0.2H50.5c-0.2,0-0.4,0-0.7-0.1c-1.1-0.3-1.9-1.4-1.9-2.6c0-1.5,1.2-2.7,2.7-2.7c0.2,0,0.4,0,0.6,0.1l1.2,0.2
		l0-1.2c0-2.2,1.9-4,4-4c1.9,0,3.5,1.3,3.9,3.1l0.3,1.1l1-0.4c0.4-0.1,0.7-0.2,1.1-0.2c1.8,0,3.3,1.5,3.3,3.3
		C66.1,19.8,65.2,21.1,63.8,21.5z M62.8,13c-0.3,0-0.5,0-0.8,0.1c-0.4-0.9-1-1.7-1.7-2.3c0.6-0.5,1.3-0.8,2.1-1c0.2,0,0.4,0,0.5,0
		c2,0,3.8,1.5,4,3.5c0.1,0.5,0,1.1-0.1,1.6C65.9,13.8,64.4,13,62.8,13z"/>
	<path id="XMLID_10798_" class="st0" d="M52.6,24.9c-0.4-0.2-0.8-0.1-1,0.3l-1,1.7c-0.2,0.4-0.1,0.8,0.3,1C51,28,51.1,28,51.2,28
		c0.3,0,0.5-0.1,0.6-0.4l1-1.7C53.1,25.6,52.9,25.1,52.6,24.9z"/>
	<path id="XMLID_10797_" class="st0" d="M57.3,24.9c-0.4-0.2-0.8-0.1-1,0.3l-1,1.7c-0.2,0.4-0.1,0.8,0.3,1c0.1,0.1,0.2,0.1,0.4,0.1
		c0.3,0,0.5-0.1,0.6-0.4l1-1.7C57.7,25.6,57.6,25.1,57.3,24.9z"/>
	<path id="XMLID_10796_" class="st0" d="M62,24.9c-0.4-0.2-0.8-0.1-1,0.3l-1,1.7c-0.2,0.4-0.1,0.8,0.3,1c0.1,0.1,0.2,0.1,0.4,0.1
		c0.3,0,0.5-0.1,0.6-0.4l1-1.7C62.4,25.6,62.3,25.1,62,24.9z"/>
</g>
<g id="XMLID_10784_">
	<path id="XMLID_10794_" class="st0" d="M5.3-19.6l-1.8-0.8c-0.4-0.2-0.8,0-1,0.4c-0.2,0.4,0,0.8,0.4,1l1.8,0.8
		c0.1,0,0.2,0.1,0.3,0.1c0.3,0,0.6-0.2,0.7-0.5C5.9-19,5.7-19.4,5.3-19.6z"/>
	<path id="XMLID_10793_" class="st0" d="M5.7-25l-2,0.3c-0.4,0.1-0.7,0.4-0.6,0.8c0,0.4,0.4,0.6,0.7,0.6c0,0,0.1,0,0.1,0l2-0.3
		c0.4-0.1,0.7-0.4,0.6-0.8C6.5-24.8,6.1-25.1,5.7-25z"/>
	<path id="XMLID_10792_" class="st0" d="M4.3-28.7c0.3-0.2,0.4-0.7,0.1-1c-0.3-0.3-0.7-0.4-1-0.1l-1.6,1.2c-0.3,0.2-0.4,0.7-0.1,1
		c0.1,0.2,0.4,0.3,0.6,0.3c0.2,0,0.3,0,0.4-0.2L4.3-28.7z"/>
	<path id="XMLID_10791_" class="st0" d="M-5.5-30.7C-5.5-30.7-5.5-30.7-5.5-30.7c0.5-0.1,0.8-0.4,0.7-0.8l-0.3-2
		c-0.1-0.4-0.4-0.7-0.8-0.6c-0.4,0.1-0.7,0.4-0.6,0.8l0.3,2C-6.2-31-5.9-30.7-5.5-30.7z"/>
	<path id="XMLID_10790_" class="st0" d="M-10.2-29.4c0.1,0.2,0.4,0.3,0.6,0.3c0.2,0,0.3-0.1,0.4-0.2c0.3-0.2,0.4-0.7,0.1-1l-1.2-1.6
		c-0.2-0.3-0.7-0.4-1-0.1c-0.3,0.2-0.4,0.7-0.1,1L-10.2-29.4z"/>
	<path id="XMLID_10789_" class="st0" d="M-1.5-30.2c0.1,0,0.2,0.1,0.3,0.1c0.3,0,0.6-0.2,0.7-0.5l0.8-1.8c0.2-0.4,0-0.8-0.4-1
		c-0.4-0.2-0.8,0-1,0.4l-0.8,1.8C-2-30.7-1.8-30.3-1.5-30.2z"/>
	<path id="XMLID_10785_" class="st0" d="M1.4-23.8c-0.4-3-3-5.3-6-5.3c-0.3,0-0.5,0-0.8,0c-1.5,0.2-2.7,0.9-3.6,1.9
		c-0.7-0.2-1.4-0.4-2.1-0.4c-2.9,0-5.4,2.1-5.9,4.9c-2.5,0.1-4.6,2.1-4.6,4.7c0,2,1.4,3.9,3.3,4.5c0.4,0.1,0.8,0.2,1.3,0.2h12.4
		c0.5,0,0.9-0.1,1.4-0.3c2.2-0.7,3.7-2.7,3.7-5c0-0.4,0-0.8-0.1-1.1C1.2-20.9,1.6-22.3,1.4-23.8z M-3.7-15.4L-3.7-15.4
		c-0.3,0.1-0.5,0.2-0.8,0.2h-12.4c-0.2,0-0.4,0-0.7-0.1c-1.1-0.3-1.9-1.4-1.9-2.6c0-1.5,1.2-2.7,2.7-2.7c0.2,0,0.4,0,0.6,0.1
		l1.2,0.2l0-1.2c0-2.2,1.9-4,4-4c1.9,0,3.5,1.3,3.9,3.1l0.3,1.1l1-0.4c0.4-0.1,0.7-0.2,1.1-0.2c1.8,0,3.3,1.5,3.3,3.3
		C-1.4-17.1-2.3-15.8-3.7-15.4z M-4.7-23.9c-0.3,0-0.5,0-0.8,0.1c-0.4-0.9-1-1.7-1.7-2.3c0.6-0.5,1.3-0.9,2.1-1c0.2,0,0.4,0,0.5,0
		c2,0,3.8,1.5,4,3.5c0.1,0.5,0,1.1-0.1,1.6C-1.6-23.1-3.1-23.9-4.7-23.9z"/>
</g>
<g id="XMLID_10755_">
	<g id="XMLID_10780_">
		<path id="XMLID_10781_" class="st0" d="M15,21.5c-3.3,0-6-2.7-6-6c0-3.3,2.7-6,6-6c3.3,0,6,2.7,6,6C21,18.8,18.3,21.5,15,21.5
			L15,21.5z M15,11.4c-2.2,0-4.1,1.8-4.1,4.1c0,2.2,1.8,4.1,4.1,4.1c2.2,0,4.1-1.8,4.1-4.1C19.1,13.2,17.2,11.4,15,11.4L15,11.4z"/>
	</g>
	<g id="XMLID_10778_">
		<path id="XMLID_10779_" class="st0" d="M15.1,7.7c-0.4,0-0.7-0.3-0.7-0.7V5c0-0.4,0.3-0.7,0.7-0.7c0.4,0,0.7,0.3,0.7,0.7v2
			C15.9,7.4,15.5,7.7,15.1,7.7L15.1,7.7z"/>
	</g>
	<g id="XMLID_10776_">
		<path id="XMLID_10777_" class="st0" d="M10.9,8.8c-0.3,0-0.5-0.1-0.6-0.4l-1-1.7C9,6.4,9.1,5.9,9.5,5.7c0.4-0.2,0.8-0.1,1,0.3
			l1,1.7c0.2,0.4,0.1,0.8-0.3,1C11.1,8.8,11,8.8,10.9,8.8L10.9,8.8z"/>
	</g>
	<g id="XMLID_10774_">
		<path id="XMLID_10775_" class="st0" d="M7.7,11.9c-0.1,0-0.3,0-0.4-0.1l-1.7-1c-0.4-0.2-0.5-0.7-0.3-1c0.2-0.4,0.7-0.5,1-0.3
			l1.7,1c0.4,0.2,0.5,0.7,0.3,1C8.2,11.7,8,11.9,7.7,11.9L7.7,11.9z"/>
	</g>
	<g id="XMLID_10772_">
		<path id="XMLID_10773_" class="st0" d="M6.5,16.1h-2c-0.4,0-0.7-0.3-0.7-0.7c0-0.4,0.3-0.7,0.7-0.7h2c0.4,0,0.7,0.3,0.7,0.7
			C7.2,15.8,6.9,16.1,6.5,16.1L6.5,16.1z"/>
	</g>
	<g id="XMLID_10770_">
		<path id="XMLID_10771_" class="st0" d="M5.9,21.4c-0.3,0-0.5-0.1-0.6-0.4c-0.2-0.4-0.1-0.8,0.3-1l1.7-1c0.4-0.2,0.8-0.1,1,0.3
			c0.2,0.4,0.1,0.8-0.3,1l-1.7,1C6.1,21.3,6,21.4,5.9,21.4L5.9,21.4z"/>
	</g>
	<g id="XMLID_10768_">
		<path id="XMLID_10769_" class="st0" d="M9.7,25.2c-0.1,0-0.3,0-0.4-0.1c-0.4-0.2-0.5-0.7-0.3-1l1-1.7c0.2-0.4,0.7-0.5,1-0.3
			c0.4,0.2,0.5,0.7,0.3,1l-1,1.7C10.2,25.1,9.9,25.2,9.7,25.2L9.7,25.2z"/>
	</g>
	<g id="XMLID_10766_">
		<path id="XMLID_10767_" class="st0" d="M14.9,26.7c-0.4,0-0.7-0.3-0.7-0.7v-2c0-0.4,0.3-0.7,0.7-0.7c0.4,0,0.7,0.3,0.7,0.7v2
			C15.6,26.4,15.3,26.7,14.9,26.7L14.9,26.7z"/>
	</g>
	<g id="XMLID_10764_">
		<path id="XMLID_10765_" class="st0" d="M20.1,25.4c-0.3,0-0.5-0.1-0.6-0.4l-1-1.7c-0.2-0.4-0.1-0.8,0.3-1c0.4-0.2,0.8-0.1,1,0.3
			l1,1.7c0.2,0.4,0.1,0.8-0.3,1C20.4,25.3,20.3,25.4,20.1,25.4L20.1,25.4z"/>
	</g>
	<g id="XMLID_10762_">
		<path id="XMLID_10763_" class="st0" d="M24,21.6c-0.1,0-0.3,0-0.4-0.1l-1.7-1c-0.4-0.2-0.5-0.7-0.3-1c0.2-0.4,0.7-0.5,1-0.3l1.7,1
			c0.4,0.2,0.5,0.7,0.3,1C24.5,21.4,24.3,21.6,24,21.6L24,21.6z"/>
	</g>
	<g id="XMLID_10760_">
		<path id="XMLID_10761_" class="st0" d="M25.5,16.4h-2c-0.4,0-0.7-0.3-0.7-0.7s0.3-0.7,0.7-0.7h2c0.4,0,0.7,0.3,0.7,0.7
			S25.9,16.4,25.5,16.4L25.5,16.4z"/>
	</g>
	<g id="XMLID_10758_">
		<path id="XMLID_10759_" class="st0" d="M22.4,12.1c-0.3,0-0.5-0.1-0.6-0.4c-0.2-0.4-0.1-0.8,0.3-1l1.7-1c0.4-0.2,0.8-0.1,1,0.3
			c0.2,0.4,0.1,0.8-0.3,1l-1.7,1C22.7,12.1,22.5,12.1,22.4,12.1L22.4,12.1z"/>
	</g>
	<g id="XMLID_10756_">
		<path id="XMLID_10757_" class="st0" d="M19.4,8.9c-0.1,0-0.3,0-0.4-0.1c-0.4-0.2-0.5-0.7-0.3-1l1-1.7c0.2-0.4,0.7-0.5,1-0.3
			c0.4,0.2,0.5,0.7,0.3,1l-1,1.7C19.9,8.8,19.6,8.9,19.4,8.9L19.4,8.9z"/>
	</g>
</g>
<g id="XMLID_1022_">
	<path id="XMLID_1024_" class="st0" d="M195.5,14.3h10.3c2,0,2.9-1.4,2.9-2.7c0-0.8-0.3-1.5-0.8-2.1c-0.6-0.6-1.5-1-2.6-1
		c-0.9,0-1.7,0.8-1.7,1.7c0,0.4,0.3,0.7,0.7,0.7c0.1,0,0.1,0,0.1-0.1c0-0.4,0.4-0.8,0.8-0.8s0.8,0.4,0.8,0.8c0,0.9-0.8,1.7-1.7,1.7
		c-1.3,0-2.3-1-2.3-2.3c0-1.8,1.5-3.3,3.3-3.3c1.9,0,3.1,0.8,3.7,1.4c0.8,0.8,1.3,2,1.3,3.2c0,1.1-0.4,2.3-1.2,3.1
		c0.3,0.1,0.6,0.2,0.9,0.3c0.9,0.4,1.5,1.1,1.9,1.9c0.3,0.9,0.3,1.8,0,2.7c-0.3,0.6-0.7,1.1-1.3,1.3c-0.3,0.1-0.6,0.2-0.9,0.2
		c-0.3,0-0.7-0.1-1-0.2c-0.4-0.2-0.8-0.5-0.9-1c-0.2-0.4-0.2-0.9,0-1.4c0.1-0.3,0.4-0.6,0.8-0.7c0.3-0.1,0.7-0.1,1.1,0
		c0.4,0.2,0.6,0.7,0.4,1.1c-0.1,0.3-0.4,0.5-0.7,0.5c0,0,0,0,0.1,0c0.2,0.1,0.4,0.1,0.6,0c0.2-0.1,0.4-0.2,0.4-0.4
		c0.2-0.5,0.2-1,0-1.4c-0.2-0.5-0.6-0.8-1-1.1c-0.7-0.3-1.8-0.5-3-0.5c0,0-0.1,0-0.1,0c-0.1,0-0.3,0-0.4,0h-10.3
		c-0.4,0-0.8-0.4-0.8-0.8S195,14.3,195.5,14.3z"/>
	<path id="XMLID_1023_" class="st0" d="M198.9,17h4.5c1.8,0,3.3,1.5,3.3,3.3c0,1.3-1,2.3-2.3,2.3c-0.9,0-1.7-0.8-1.7-1.7
		c0-0.4,0.4-0.8,0.8-0.8c0.4,0,0.8,0.4,0.8,0.8c0,0.1,0,0.1,0.1,0.1c0.4,0,0.7-0.3,0.7-0.7c0-0.9-0.8-1.7-1.7-1.7h-4.5
		c-0.4,0-0.8-0.4-0.8-0.8C198,17.3,198.4,17,198.9,17z"/>
</g>
<image style="overflow:visible;" width="200" height="16" id="XMLID_116_" xlink:href="data:image/png;base64,iVBORw0KGgoAAAANSUhEUgAAAMgAAAAQCAYAAABTNTDcAAAACXBIWXMAAAsSAAALEgHS3X78AAAA
GXRFWHRTb2Z0d2FyZQBBZG9iZSBJbWFnZVJlYWR5ccllPAAAAUVJREFUeNrsWMsOwzAIC1P//5e9
yyZFWwKEQaqutrRLVF42hXStEQRBEMQ/A69ftU0L2hD5eu/qEzXe4yKEySYb3KSRzvSNwrh30Hya
/K5twA1y7Re/ZINgYgBldWHQwFACwrCZPReJ4Tm3arRiaS9xFW9QhkYk/5lfi3ePX42TLG7KNX84
m+C9vqCcicN+ZDPzKwO/YjSqDJ6BEkezlYXJg0Leej6sOlb9Nqff3nfkGuPhJqJBueZHd5h1tVgh
EQkxqq9EWj2ZOYxqkqTrgxToYPGCYE/82lOpmsuCGP0EwWSqWCJrZyvNJ4bQ4rRbmZjRelZ5m+Un
wZxn+cPYcs2ow/Myf+YBJ8dRDbI1L/+oRsEHMDZPEuuue5V/jDLz38XL7lhfWhyFgeTExt5RD/Pf
z8vVNSAIgiAIgiAIgiAIIoqnAAMANFjSp2GjV8AAAAAASUVORK5CYII=" transform="matrix(1 0 0 1 -71 39)">
</image>
<g id="XMLID_1101_">
	<path id="XMLID_2_" d="M-68.1,45.4c-0.2-0.5-0.5-0.9-0.9-0.9c-0.3,0-0.5,0.2-0.5,0.6c0,0.4,0.3,0.6,0.7,0.7
		c0.7,0.3,1.1,0.6,1.1,1.2c0,0.8-0.7,1.2-1.5,1.2c-0.5,0-0.9-0.2-1-0.3c-0.1-0.1-0.1-0.7-0.2-1.1l0.2,0c0.2,0.6,0.6,1.1,1.1,1.1
		c0.3,0,0.6-0.2,0.6-0.6c0-0.4-0.2-0.5-0.7-0.7c-0.5-0.2-1.1-0.5-1.1-1.2c0-0.6,0.5-1.1,1.3-1.1c0.4,0,0.6,0.1,0.8,0.2
		c0.1,0.2,0.2,0.7,0.2,0.9L-68.1,45.4z"/>
	<path id="XMLID_4_" d="M-62.8,47.9c-0.2,0-0.4,0.1-0.7,0.1c-0.2,0.1-0.5,0.1-0.7,0.2l-0.1,0v-0.6c-0.2,0.1-0.4,0.3-0.6,0.4
		c-0.3,0.1-0.4,0.2-0.7,0.2c-0.6,0-1.1-0.4-1.1-1.3v-1.6c0-0.5-0.1-0.5-0.3-0.6l-0.2-0.1v-0.2c0.2,0,0.4,0,0.7-0.1
		c0.2,0,0.5-0.1,0.7-0.1c0,0.3,0,0.7,0,1.2v1.2c0,0.7,0.4,0.9,0.8,0.9c0.3,0,0.6-0.1,0.9-0.4v-2c0-0.5-0.1-0.5-0.4-0.6l-0.3-0.1
		v-0.2c0.2,0,0.6,0,0.8-0.1c0.3,0,0.5-0.1,0.6-0.1v2.8c0,0.4,0.1,0.5,0.4,0.5l0.2,0V47.9z"/>
	<path id="XMLID_6_" d="M-60,48.1v-0.2c0.5-0.1,0.6-0.1,0.6-0.7v-1.4c0-0.6-0.2-1-0.8-1c-0.3,0-0.7,0.2-0.9,0.4v2
		c0,0.6,0,0.6,0.6,0.7v0.2h-1.9v-0.2c0.6-0.1,0.6-0.1,0.6-0.7v-1.7c0-0.6-0.1-0.6-0.5-0.7v-0.2c0.4-0.1,0.9-0.2,1.3-0.3v0.7
		c0.2-0.1,0.4-0.3,0.6-0.4c0.2-0.2,0.5-0.3,0.7-0.3c0.7,0,1.1,0.5,1.1,1.3v1.6c0,0.6,0.1,0.6,0.6,0.7v0.2H-60z"/>
	<path id="XMLID_8_" d="M-55.1,48.1v-0.2c0.5-0.1,0.6-0.1,0.6-0.7v-1.4c0-0.6-0.2-1-0.8-1c-0.3,0-0.7,0.2-0.9,0.4v2
		c0,0.6,0,0.6,0.6,0.7v0.2h-1.9v-0.2c0.6-0.1,0.6-0.1,0.6-0.7v-1.7c0-0.6-0.1-0.6-0.5-0.7v-0.2c0.4-0.1,0.9-0.2,1.3-0.3v0.7
		c0.2-0.1,0.4-0.3,0.6-0.4c0.2-0.2,0.5-0.3,0.7-0.3c0.7,0,1.1,0.5,1.1,1.3v1.6c0,0.6,0.1,0.6,0.6,0.7v0.2H-55.1z"/>
	<path id="XMLID_10_" d="M-48.9,44.6c-0.5,0.1-0.5,0.1-0.8,0.6c-0.2,0.4-0.5,1.2-1.1,2.5c-0.6,1.4-0.8,1.9-0.9,2.3
		c0,0.2-0.2,0.2-0.3,0.2c-0.3,0-0.5-0.2-0.5-0.4c0-0.1,0.1-0.2,0.2-0.3c0.3-0.2,0.5-0.4,0.7-0.8c0.2-0.3,0.2-0.5,0.3-0.6
		c0.1-0.1,0-0.2,0-0.4c-0.4-1-0.8-2.1-1-2.6c-0.2-0.4-0.3-0.6-0.8-0.6v-0.2h1.8l0,0.2c-0.4,0.1-0.5,0.1-0.3,0.5l0.8,2.1
		c0.2-0.5,0.6-1.6,0.8-2.1c0.1-0.3,0-0.4-0.4-0.5v-0.2h1.6V44.6z"/>
	<path id="XMLID_12_" d="M-48.2,46.9c0.3,0,0.8,0.4,0.8,1c0,0.7-0.6,1.1-1.2,1.2l-0.1-0.3c0.4-0.2,0.7-0.4,0.7-0.7
		c0-0.3-0.2-0.5-0.6-0.6c0,0-0.1-0.1-0.1-0.2C-48.7,47.1-48.4,46.9-48.2,46.9L-48.2,46.9z"/>
	<path id="XMLID_14_" d="M-42.4,44.4c0.2-0.1,0.3-0.1,0.5-0.1c1,0,1.6,0.8,1.6,1.6c0,1.3-1,2.1-2.2,2.3c-0.3,0-0.5-0.1-0.6-0.1v1.1
		c0,0.6,0.1,0.7,0.7,0.7v0.2h-2.1v-0.2c0.6-0.1,0.6-0.1,0.6-0.7v-3.9c0-0.5,0-0.6-0.6-0.6v-0.2c0.4-0.1,0.9-0.2,1.3-0.4v0.7
		L-42.4,44.4z M-43.1,47.4c0.2,0.2,0.5,0.3,0.8,0.3c0.7,0,1.2-0.7,1.2-1.5c0-0.9-0.6-1.4-1.2-1.4c-0.3,0-0.6,0.2-0.8,0.4V47.4z"/>
	<path id="XMLID_17_" d="M-37,48.2c-0.2,0-0.4-0.1-0.4-0.2c-0.1-0.1-0.2-0.2-0.2-0.4c-0.4,0.2-0.8,0.5-1,0.5c-0.7,0-1.1-0.5-1.1-1.1
		c0-0.4,0.2-0.7,0.7-0.8c0.6-0.2,1.2-0.4,1.3-0.6v-0.2c0-0.6-0.3-0.9-0.7-0.9c-0.2,0-0.3,0.1-0.4,0.2c-0.1,0.1-0.2,0.3-0.3,0.6
		c-0.1,0.2-0.1,0.2-0.3,0.2c-0.2,0-0.4-0.2-0.4-0.4c0-0.1,0.1-0.2,0.3-0.4c0.3-0.2,0.8-0.5,1.3-0.6c0.3,0,0.5,0.1,0.7,0.2
		c0.3,0.3,0.4,0.6,0.4,1.1v1.5c0,0.4,0.2,0.5,0.3,0.5c0.1,0,0.2,0,0.3-0.1l0.1,0.2L-37,48.2z M-37.7,46c-0.2,0.1-0.5,0.3-0.7,0.3
		c-0.3,0.1-0.5,0.3-0.5,0.6c0,0.5,0.3,0.7,0.6,0.7c0.2,0,0.5-0.1,0.6-0.3V46z"/>
	<path id="XMLID_20_" d="M-34.5,45.2c0.3-0.5,0.6-0.9,1-0.9c0.3,0,0.5,0.2,0.5,0.4c0,0.2-0.1,0.4-0.3,0.5c-0.1,0-0.2,0-0.2,0
		c-0.1-0.1-0.2-0.2-0.4-0.2c-0.2,0-0.5,0.3-0.7,0.7v1.5c0,0.6,0,0.6,0.7,0.7v0.2h-2.1v-0.2c0.5-0.1,0.6-0.1,0.6-0.7v-1.8
		c0-0.5,0-0.6-0.5-0.7v-0.2c0.4-0.1,0.8-0.2,1.3-0.4L-34.5,45.2L-34.5,45.2z"/>
	<path id="XMLID_22_" d="M-30.8,48.1c-0.2,0.1-0.3,0.1-0.4,0.1c-0.6,0-0.9-0.3-0.9-1v-2.5h-0.6l0-0.1l0.2-0.3h0.4v-0.6l0.6-0.6
		l0.1,0v1.2h1c0.1,0.1,0.1,0.3-0.1,0.4h-0.9v2.2c0,0.7,0.3,0.8,0.5,0.8c0.2,0,0.4-0.1,0.5-0.1l0.1,0.2L-30.8,48.1z"/>
	<path id="XMLID_24_" d="M-30,48.1v-0.2c0.5-0.1,0.6-0.1,0.6-0.7v-4c0-0.6-0.1-0.6-0.6-0.7v-0.2c0.5-0.1,1-0.2,1.3-0.3v5.2
		c0,0.6,0.1,0.6,0.6,0.7v0.2H-30z"/>
	<path id="XMLID_26_" d="M-23.7,44.6c-0.5,0.1-0.5,0.1-0.8,0.6c-0.2,0.4-0.5,1.2-1.1,2.5c-0.6,1.4-0.8,1.9-0.9,2.3
		c0,0.2-0.2,0.2-0.3,0.2c-0.3,0-0.5-0.2-0.5-0.4c0-0.1,0.1-0.2,0.2-0.3c0.3-0.2,0.5-0.4,0.7-0.8c0.2-0.3,0.2-0.5,0.3-0.6
		c0.1-0.1,0-0.2,0-0.4c-0.4-1-0.8-2.1-1-2.6c-0.2-0.4-0.3-0.6-0.8-0.6v-0.2h1.8l0,0.2c-0.4,0.1-0.5,0.1-0.3,0.5l0.8,2.1
		c0.2-0.5,0.6-1.6,0.8-2.1c0.1-0.3,0-0.4-0.4-0.5v-0.2h1.6V44.6z"/>
	<path id="XMLID_28_" d="M-21.4,46.4h-2l0.1-0.5h2.1L-21.4,46.4z"/>
	<path id="XMLID_30_" d="M-17.1,47.3c-0.4,0.5-1,0.9-1.5,0.9c-1.1,0-1.8-0.9-1.8-1.8c0-0.7,0.3-1.2,0.9-1.7c0.5-0.4,1-0.5,1.3-0.5h0
		c0.4,0,0.6,0.1,0.8,0.2c0.1,0.1,0.1,0.2,0.1,0.3c0,0.2-0.2,0.4-0.3,0.4c-0.1,0-0.1,0-0.2-0.1c-0.3-0.3-0.6-0.4-0.9-0.4
		c-0.5,0-1,0.4-1,1.3c0,1.2,0.9,1.6,1.3,1.6c0.4,0,0.7-0.1,1-0.5L-17.1,47.3z"/>
	<path id="XMLID_32_" d="M-16.9,48.1v-0.2c0.5-0.1,0.6-0.1,0.6-0.7v-4c0-0.6-0.1-0.6-0.6-0.7v-0.2c0.5-0.1,1-0.2,1.3-0.3v5.2
		c0,0.6,0.1,0.6,0.6,0.7v0.2H-16.9z"/>
	<path id="XMLID_34_" d="M-12.5,44.2c1.1,0,1.9,0.9,1.9,1.9c0,1.4-1.1,2-1.9,2c-1.2,0-2-0.9-2-1.9C-14.5,44.9-13.3,44.2-12.5,44.2
		L-12.5,44.2z M-12.6,44.5c-0.5,0-1,0.5-1,1.5c0,1.1,0.5,1.9,1.2,1.9c0.5,0,1-0.3,1-1.5C-11.4,45.3-11.9,44.5-12.6,44.5L-12.6,44.5z
		"/>
	<path id="XMLID_37_" d="M-5.7,47.9c-0.2,0-0.4,0.1-0.7,0.1c-0.2,0.1-0.5,0.1-0.7,0.2l-0.1,0v-0.6c-0.2,0.1-0.4,0.3-0.6,0.4
		c-0.3,0.1-0.4,0.2-0.7,0.2c-0.6,0-1.1-0.4-1.1-1.3v-1.6c0-0.5-0.1-0.5-0.3-0.6l-0.2-0.1v-0.2c0.2,0,0.4,0,0.7-0.1
		c0.2,0,0.5-0.1,0.7-0.1c0,0.3,0,0.7,0,1.2v1.2c0,0.7,0.4,0.9,0.8,0.9c0.3,0,0.6-0.1,0.9-0.4v-2c0-0.5-0.1-0.5-0.4-0.6l-0.3-0.1
		v-0.2c0.2,0,0.6,0,0.8-0.1c0.3,0,0.5-0.1,0.6-0.1v2.8c0,0.4,0.1,0.5,0.4,0.5l0.2,0V47.9z"/>
	<path id="XMLID_39_" d="M-1,47.9c-0.2,0-0.9,0.1-1.4,0.3v-0.6l-0.5,0.3c-0.3,0.2-0.6,0.2-0.7,0.2c-0.7,0-1.7-0.6-1.7-1.8
		c0-1.2,1.1-2.1,2.3-2.1c0.1,0,0.4,0,0.6,0.1v-1.2c0-0.6-0.1-0.6-0.7-0.6v-0.2c0.5-0.1,1.1-0.2,1.4-0.3v5.1c0,0.5,0.1,0.5,0.4,0.5
		l0.2,0V47.9z M-2.4,45c-0.2-0.3-0.6-0.4-0.9-0.4c-0.4,0-1.1,0.3-1.1,1.6c0,1,0.7,1.5,1.2,1.5c0.3,0,0.6-0.1,0.8-0.3V45z"/>
	<path id="XMLID_42_" d="M3.3,44.6c-0.5,0.1-0.5,0.1-0.8,0.6c-0.2,0.4-0.5,1.2-1.1,2.5c-0.6,1.4-0.8,1.9-0.9,2.3
		c0,0.2-0.2,0.2-0.3,0.2c-0.3,0-0.5-0.2-0.5-0.4c0-0.1,0.1-0.2,0.2-0.3c0.3-0.2,0.5-0.4,0.7-0.8c0.2-0.3,0.2-0.5,0.3-0.6
		c0.1-0.1,0-0.2,0-0.4c-0.4-1-0.8-2.1-1-2.6c-0.2-0.4-0.3-0.6-0.8-0.6v-0.2H1l0,0.2c-0.4,0.1-0.5,0.1-0.3,0.5l0.8,2.1
		c0.2-0.5,0.6-1.6,0.8-2.1c0.1-0.3,0-0.4-0.4-0.5v-0.2h1.6V44.6z"/>
	<path id="XMLID_44_" d="M4,46.9c0.3,0,0.8,0.4,0.8,1c0,0.7-0.6,1.1-1.2,1.2l-0.1-0.3c0.4-0.2,0.7-0.4,0.7-0.7
		c0-0.3-0.2-0.5-0.6-0.6c0,0-0.1-0.1-0.1-0.2C3.5,47.1,3.8,46.9,4,46.9L4,46.9z"/>
	<path id="XMLID_46_" d="M10.1,45.4c-0.2-0.5-0.5-0.9-0.9-0.9c-0.3,0-0.5,0.2-0.5,0.6c0,0.4,0.3,0.6,0.7,0.7
		c0.7,0.3,1.1,0.6,1.1,1.2c0,0.8-0.7,1.2-1.5,1.2c-0.5,0-0.9-0.2-1-0.3c-0.1-0.1-0.1-0.7-0.2-1.1l0.2,0c0.2,0.6,0.6,1.1,1.1,1.1
		c0.3,0,0.6-0.2,0.6-0.6c0-0.4-0.2-0.5-0.7-0.7C8.6,46.3,8,46.1,8,45.4c0-0.6,0.5-1.1,1.3-1.1c0.4,0,0.6,0.1,0.8,0.2
		c0.1,0.2,0.2,0.7,0.2,0.9L10.1,45.4z"/>
	<path id="XMLID_48_" d="M15.3,47.9c-0.2,0-0.4,0.1-0.7,0.1c-0.2,0.1-0.5,0.1-0.7,0.2l-0.1,0v-0.6c-0.2,0.1-0.4,0.3-0.6,0.4
		c-0.3,0.1-0.4,0.2-0.7,0.2c-0.6,0-1.1-0.4-1.1-1.3v-1.6c0-0.5-0.1-0.5-0.3-0.6L11,44.6v-0.2c0.2,0,0.4,0,0.7-0.1
		c0.2,0,0.5-0.1,0.7-0.1c0,0.3,0,0.7,0,1.2v1.2c0,0.7,0.4,0.9,0.8,0.9c0.3,0,0.6-0.1,0.9-0.4v-2c0-0.5-0.1-0.5-0.4-0.6l-0.3-0.1
		v-0.2c0.2,0,0.6,0,0.8-0.1c0.3,0,0.5-0.1,0.6-0.1v2.8c0,0.4,0.1,0.5,0.4,0.5l0.2,0V47.9z"/>
	<path id="XMLID_50_" d="M18.2,48.1v-0.2c0.5-0.1,0.6-0.1,0.6-0.7v-1.4c0-0.6-0.2-1-0.8-1c-0.3,0-0.7,0.2-0.9,0.4v2
		c0,0.6,0,0.6,0.6,0.7v0.2h-1.9v-0.2c0.6-0.1,0.6-0.1,0.6-0.7v-1.7c0-0.6-0.1-0.6-0.5-0.7v-0.2c0.4-0.1,0.9-0.2,1.3-0.3v0.7
		c0.2-0.1,0.4-0.3,0.6-0.4c0.2-0.2,0.5-0.3,0.7-0.3c0.7,0,1.1,0.5,1.1,1.3v1.6c0,0.6,0.1,0.6,0.6,0.7v0.2H18.2z"/>
	<path id="XMLID_52_" d="M23,48.1v-0.2c0.5-0.1,0.6-0.1,0.6-0.7v-1.4c0-0.6-0.2-1-0.8-1c-0.3,0-0.7,0.2-0.9,0.4v2
		c0,0.6,0,0.6,0.6,0.7v0.2h-1.9v-0.2c0.6-0.1,0.6-0.1,0.6-0.7v-1.7c0-0.6-0.1-0.6-0.5-0.7v-0.2c0.4-0.1,0.9-0.2,1.3-0.3v0.7
		c0.2-0.1,0.4-0.3,0.6-0.4c0.2-0.2,0.5-0.3,0.7-0.3c0.7,0,1.1,0.5,1.1,1.3v1.6c0,0.6,0.1,0.6,0.6,0.7v0.2H23z"/>
	<path id="XMLID_54_" d="M29.3,44.6c-0.5,0.1-0.5,0.1-0.8,0.6c-0.2,0.4-0.5,1.2-1.1,2.5c-0.6,1.4-0.8,1.9-0.9,2.3
		c0,0.2-0.2,0.2-0.3,0.2c-0.3,0-0.5-0.2-0.5-0.4c0-0.1,0.1-0.2,0.2-0.3c0.3-0.2,0.5-0.4,0.7-0.8c0.2-0.3,0.2-0.5,0.3-0.6
		c0.1-0.1,0-0.2,0-0.4c-0.4-1-0.8-2.1-1-2.6c-0.2-0.4-0.3-0.6-0.8-0.6v-0.2h1.8l0,0.2c-0.4,0.1-0.5,0.1-0.3,0.5l0.8,2.1
		c0.2-0.5,0.6-1.6,0.8-2.1c0.1-0.3,0-0.4-0.4-0.5v-0.2h1.6V44.6z"/>
	<path id="XMLID_56_" d="M31.6,46.4h-2l0.1-0.5h2.1L31.6,46.4z"/>
	<path id="XMLID_58_" d="M33.9,45.2c0.3-0.5,0.6-0.9,1-0.9c0.3,0,0.5,0.2,0.5,0.4c0,0.2-0.1,0.4-0.3,0.5c-0.1,0-0.2,0-0.2,0
		c-0.1-0.1-0.2-0.2-0.4-0.2c-0.2,0-0.5,0.3-0.7,0.7v1.5c0,0.6,0,0.6,0.7,0.7v0.2h-2.1v-0.2c0.5-0.1,0.6-0.1,0.6-0.7v-1.8
		c0-0.5,0-0.6-0.5-0.7v-0.2c0.4-0.1,0.8-0.2,1.3-0.4L33.9,45.2L33.9,45.2z"/>
	<path id="XMLID_60_" d="M38.6,48.2c-0.2,0-0.4-0.1-0.4-0.2C38,47.9,38,47.8,38,47.7c-0.4,0.2-0.8,0.5-1,0.5c-0.7,0-1.1-0.5-1.1-1.1
		c0-0.4,0.2-0.7,0.7-0.8c0.6-0.2,1.2-0.4,1.3-0.6v-0.2c0-0.6-0.3-0.9-0.7-0.9c-0.2,0-0.3,0.1-0.4,0.2c-0.1,0.1-0.2,0.3-0.3,0.6
		c-0.1,0.2-0.1,0.2-0.3,0.2c-0.2,0-0.4-0.2-0.4-0.4c0-0.1,0.1-0.2,0.3-0.4c0.3-0.2,0.8-0.5,1.3-0.6c0.3,0,0.5,0.1,0.7,0.2
		c0.3,0.3,0.4,0.6,0.4,1.1v1.5c0,0.4,0.2,0.5,0.3,0.5c0.1,0,0.2,0,0.3-0.1l0.1,0.2L38.6,48.2z M37.9,46c-0.2,0.1-0.5,0.3-0.7,0.3
		c-0.3,0.1-0.5,0.3-0.5,0.6c0,0.5,0.3,0.7,0.6,0.7c0.2,0,0.5-0.1,0.6-0.3V46z"/>
	<path id="XMLID_63_" d="M39.7,48.1v-0.2c0.5-0.1,0.6-0.1,0.6-0.7v-1.7c0-0.5,0-0.6-0.5-0.7v-0.2c0.5-0.1,0.9-0.2,1.3-0.3v2.9
		c0,0.6,0.1,0.6,0.6,0.7v0.2H39.7z M40.2,43.1c0-0.3,0.2-0.5,0.5-0.5s0.5,0.2,0.5,0.5c0,0.2-0.2,0.5-0.5,0.5
		C40.4,43.5,40.2,43.3,40.2,43.1z"/>
	<path id="XMLID_66_" d="M44.6,48.1v-0.2c0.5-0.1,0.6-0.1,0.6-0.7v-1.4c0-0.6-0.2-1-0.8-1c-0.3,0-0.7,0.2-0.9,0.4v2
		c0,0.6,0,0.6,0.6,0.7v0.2h-1.9v-0.2c0.6-0.1,0.6-0.1,0.6-0.7v-1.7c0-0.6-0.1-0.6-0.5-0.7v-0.2c0.4-0.1,0.9-0.2,1.3-0.3v0.7
		c0.2-0.1,0.4-0.3,0.6-0.4c0.2-0.2,0.5-0.3,0.7-0.3c0.7,0,1.1,0.5,1.1,1.3v1.6c0,0.6,0.1,0.6,0.6,0.7v0.2H44.6z"/>
	<path id="XMLID_68_" d="M50.8,44.6c-0.5,0.1-0.5,0.1-0.8,0.6c-0.2,0.4-0.5,1.2-1.1,2.5c-0.6,1.4-0.8,1.9-0.9,2.3
		c0,0.2-0.2,0.2-0.3,0.2c-0.3,0-0.5-0.2-0.5-0.4c0-0.1,0.1-0.2,0.2-0.3c0.3-0.2,0.5-0.4,0.7-0.8c0.2-0.3,0.2-0.5,0.3-0.6
		c0.1-0.1,0-0.2,0-0.4c-0.4-1-0.8-2.1-1-2.6c-0.2-0.4-0.3-0.6-0.8-0.6v-0.2h1.8l0,0.2c-0.4,0.1-0.5,0.1-0.3,0.5l0.8,2.1
		c0.2-0.5,0.6-1.6,0.8-2.1c0.1-0.3,0-0.4-0.4-0.5v-0.2h1.6V44.6z"/>
	<path id="XMLID_70_" d="M51.5,46.9c0.3,0,0.8,0.4,0.8,1c0,0.7-0.6,1.1-1.2,1.2L51,48.9c0.4-0.2,0.7-0.4,0.7-0.7
		c0-0.3-0.2-0.5-0.6-0.6c0,0-0.1-0.1-0.1-0.2C51.1,47.1,51.3,46.9,51.5,46.9L51.5,46.9z"/>
	<path id="XMLID_72_" d="M56.7,45.2c0.3-0.5,0.6-0.9,1-0.9c0.3,0,0.5,0.2,0.5,0.4c0,0.2-0.1,0.4-0.3,0.5c-0.1,0-0.2,0-0.2,0
		c-0.1-0.1-0.2-0.2-0.4-0.2c-0.2,0-0.5,0.3-0.7,0.7v1.5c0,0.6,0,0.6,0.7,0.7v0.2h-2.1v-0.2c0.5-0.1,0.6-0.1,0.6-0.7v-1.8
		c0-0.5,0-0.6-0.5-0.7v-0.2c0.4-0.1,0.8-0.2,1.3-0.4L56.7,45.2L56.7,45.2z"/>
	<path id="XMLID_74_" d="M61.4,48.2c-0.2,0-0.4-0.1-0.4-0.2c-0.1-0.1-0.2-0.2-0.2-0.4c-0.4,0.2-0.8,0.5-1,0.5
		c-0.7,0-1.1-0.5-1.1-1.1c0-0.4,0.2-0.7,0.7-0.8c0.6-0.2,1.2-0.4,1.3-0.6v-0.2c0-0.6-0.3-0.9-0.7-0.9c-0.2,0-0.3,0.1-0.4,0.2
		c-0.1,0.1-0.2,0.3-0.3,0.6c-0.1,0.2-0.1,0.2-0.3,0.2c-0.2,0-0.4-0.2-0.4-0.4c0-0.1,0.1-0.2,0.3-0.4c0.3-0.2,0.8-0.5,1.3-0.6
		c0.3,0,0.5,0.1,0.7,0.2c0.3,0.3,0.4,0.6,0.4,1.1v1.5c0,0.4,0.2,0.5,0.3,0.5c0.1,0,0.2,0,0.3-0.1l0.1,0.2L61.4,48.2z M60.7,46
		c-0.2,0.1-0.5,0.3-0.7,0.3c-0.3,0.1-0.5,0.3-0.5,0.6c0,0.5,0.3,0.7,0.6,0.7c0.2,0,0.5-0.1,0.6-0.3V46z"/>
	<path id="XMLID_77_" d="M62.5,48.1v-0.2c0.5-0.1,0.6-0.1,0.6-0.7v-1.7c0-0.5,0-0.6-0.5-0.7v-0.2c0.5-0.1,0.9-0.2,1.3-0.3v2.9
		c0,0.6,0.1,0.6,0.6,0.7v0.2H62.5z M62.9,43.1c0-0.3,0.2-0.5,0.5-0.5s0.5,0.2,0.5,0.5c0,0.2-0.2,0.5-0.5,0.5
		C63.2,43.5,62.9,43.3,62.9,43.1z"/>
	<path id="XMLID_80_" d="M67.4,48.1v-0.2c0.5-0.1,0.6-0.1,0.6-0.7v-1.4c0-0.6-0.2-1-0.8-1c-0.3,0-0.7,0.2-0.9,0.4v2
		c0,0.6,0,0.6,0.6,0.7v0.2h-1.9v-0.2c0.6-0.1,0.6-0.1,0.6-0.7v-1.7c0-0.6-0.1-0.6-0.5-0.7v-0.2c0.4-0.1,0.9-0.2,1.3-0.3v0.7
		c0.2-0.1,0.4-0.3,0.6-0.4c0.2-0.2,0.5-0.3,0.7-0.3c0.7,0,1.1,0.5,1.1,1.3v1.6c0,0.6,0.1,0.6,0.6,0.7v0.2H67.4z"/>
	<path id="XMLID_82_" d="M73.6,44.6c-0.5,0.1-0.5,0.1-0.8,0.6c-0.2,0.4-0.5,1.2-1.1,2.5c-0.6,1.4-0.8,1.9-0.9,2.3
		c0,0.2-0.2,0.2-0.3,0.2c-0.3,0-0.5-0.2-0.5-0.4c0-0.1,0.1-0.2,0.2-0.3c0.3-0.2,0.5-0.4,0.7-0.8c0.2-0.3,0.2-0.5,0.3-0.6
		c0.1-0.1,0-0.2,0-0.4c-0.4-1-0.8-2.1-1-2.6c-0.2-0.4-0.3-0.6-0.8-0.6v-0.2h1.8l0,0.2c-0.4,0.1-0.5,0.1-0.3,0.5l0.8,2.1
		c0.2-0.5,0.6-1.6,0.8-2.1c0.1-0.3,0-0.4-0.4-0.5v-0.2h1.6V44.6z"/>
	<path id="XMLID_84_" d="M74.3,46.9c0.3,0,0.8,0.4,0.8,1c0,0.7-0.6,1.1-1.2,1.2l-0.1-0.3c0.4-0.2,0.7-0.4,0.7-0.7
		c0-0.3-0.2-0.5-0.6-0.6c0,0-0.1-0.1-0.1-0.2C73.8,47.1,74,46.9,74.3,46.9L74.3,46.9z"/>
	<path id="XMLID_86_" d="M83.9,44.6c-0.4,0.1-0.5,0.2-0.7,0.6c-0.3,0.7-0.7,1.8-1.1,3h-0.3c-0.4-0.9-0.7-1.8-1.1-2.6
		c-0.3,0.9-0.7,1.7-1,2.6h-0.3c-0.3-1-0.7-2-1-3c-0.2-0.4-0.2-0.5-0.6-0.6v-0.2h1.9v0.2c-0.5,0.1-0.6,0.1-0.4,0.5
		c0.2,0.6,0.4,1.3,0.6,1.9h0c0.3-0.8,0.7-1.7,1-2.6h0.2c0.3,0.9,0.7,1.8,1,2.7h0c0.2-0.5,0.4-1.3,0.6-1.9c0.1-0.4,0.1-0.5-0.5-0.6
		v-0.2h1.6V44.6z"/>
	<path id="XMLID_88_" d="M84.1,48.1v-0.2c0.5-0.1,0.6-0.1,0.6-0.7v-1.7c0-0.5,0-0.6-0.5-0.7v-0.2c0.5-0.1,0.9-0.2,1.3-0.3v2.9
		c0,0.6,0.1,0.6,0.6,0.7v0.2H84.1z M84.5,43.1c0-0.3,0.2-0.5,0.5-0.5s0.5,0.2,0.5,0.5c0,0.2-0.2,0.5-0.5,0.5
		C84.8,43.5,84.5,43.3,84.5,43.1z"/>
	<path id="XMLID_91_" d="M89,48.1v-0.2c0.5-0.1,0.6-0.1,0.6-0.7v-1.4c0-0.6-0.2-1-0.8-1c-0.3,0-0.7,0.2-0.9,0.4v2
		c0,0.6,0,0.6,0.6,0.7v0.2h-1.9v-0.2c0.6-0.1,0.6-0.1,0.6-0.7v-1.7c0-0.6-0.1-0.6-0.5-0.7v-0.2c0.4-0.1,0.9-0.2,1.3-0.3v0.7
		c0.2-0.1,0.4-0.3,0.6-0.4c0.2-0.2,0.5-0.3,0.7-0.3c0.7,0,1.1,0.5,1.1,1.3v1.6c0,0.6,0.1,0.6,0.6,0.7v0.2H89z"/>
	<path id="XMLID_93_" d="M95.6,47.9c-0.2,0-0.9,0.1-1.4,0.3v-0.6l-0.5,0.3c-0.3,0.2-0.6,0.2-0.7,0.2c-0.7,0-1.7-0.6-1.7-1.8
		c0-1.2,1.1-2.1,2.3-2.1c0.1,0,0.4,0,0.6,0.1v-1.2c0-0.6-0.1-0.6-0.7-0.6v-0.2c0.5-0.1,1.1-0.2,1.4-0.3v5.1c0,0.5,0.1,0.5,0.4,0.5
		l0.2,0V47.9z M94.2,45c-0.2-0.3-0.6-0.4-0.9-0.4c-0.4,0-1.1,0.3-1.1,1.6c0,1,0.7,1.5,1.2,1.5c0.3,0,0.6-0.1,0.8-0.3V45z"/>
	<path id="XMLID_96_" d="M99.9,44.6c-0.5,0.1-0.5,0.1-0.8,0.6c-0.2,0.4-0.5,1.2-1.1,2.5c-0.6,1.4-0.8,1.9-0.9,2.3
		c0,0.2-0.2,0.2-0.3,0.2c-0.3,0-0.5-0.2-0.5-0.4c0-0.1,0.1-0.2,0.2-0.3c0.3-0.2,0.5-0.4,0.7-0.8c0.2-0.3,0.2-0.5,0.3-0.6
		c0.1-0.1,0-0.2,0-0.4c-0.4-1-0.8-2.1-1-2.6c-0.2-0.4-0.3-0.6-0.8-0.6v-0.2h1.8l0,0.2c-0.4,0.1-0.5,0.1-0.3,0.5l0.8,2.1
		c0.2-0.5,0.6-1.6,0.8-2.1c0.1-0.3,0-0.4-0.4-0.5v-0.2h1.6V44.6z"/>
	<path id="XMLID_98_" d="M100.6,46.9c0.3,0,0.8,0.4,0.8,1c0,0.7-0.6,1.1-1.2,1.2l-0.1-0.3c0.4-0.2,0.7-0.4,0.7-0.7
		c0-0.3-0.2-0.5-0.6-0.6c0,0-0.1-0.1-0.1-0.2C100.1,47.1,100.3,46.9,100.6,46.9L100.6,46.9z"/>
	<path id="XMLID_100_" d="M107.7,47.3c-0.4,0.5-1,0.9-1.5,0.9c-1.1,0-1.8-0.9-1.8-1.8c0-0.7,0.3-1.2,0.9-1.7c0.5-0.4,1-0.5,1.3-0.5
		h0c0.4,0,0.6,0.1,0.8,0.2c0.1,0.1,0.1,0.2,0.1,0.3c0,0.2-0.2,0.4-0.3,0.4c-0.1,0-0.1,0-0.2-0.1c-0.3-0.3-0.6-0.4-0.9-0.4
		c-0.5,0-1,0.4-1,1.3c0,1.2,0.9,1.6,1.3,1.6c0.4,0,0.7-0.1,1-0.5L107.7,47.3z"/>
	<path id="XMLID_102_" d="M107.9,48.1v-0.2c0.5-0.1,0.6-0.1,0.6-0.7v-4c0-0.6-0.1-0.6-0.6-0.7v-0.2c0.5-0.1,1-0.2,1.3-0.3v5.2
		c0,0.6,0.1,0.6,0.6,0.7v0.2H107.9z"/>
	<path id="XMLID_104_" d="M112.3,44.2c1.1,0,1.9,0.9,1.9,1.9c0,1.4-1.1,2-1.9,2c-1.2,0-2-0.9-2-1.9
		C110.4,44.9,111.5,44.2,112.3,44.2L112.3,44.2z M112.2,44.5c-0.5,0-1,0.5-1,1.5c0,1.1,0.5,1.9,1.2,1.9c0.5,0,1-0.3,1-1.5
		C113.4,45.3,113,44.5,112.2,44.5L112.2,44.5z"/>
	<path id="XMLID_107_" d="M119.2,47.9c-0.2,0-0.4,0.1-0.7,0.1c-0.2,0.1-0.5,0.1-0.7,0.2l-0.1,0v-0.6c-0.2,0.1-0.4,0.3-0.6,0.4
		c-0.3,0.1-0.4,0.2-0.7,0.2c-0.6,0-1.1-0.4-1.1-1.3v-1.6c0-0.5-0.1-0.5-0.3-0.6l-0.2-0.1v-0.2c0.2,0,0.4,0,0.7-0.1
		c0.2,0,0.5-0.1,0.7-0.1c0,0.3,0,0.7,0,1.2v1.2c0,0.7,0.4,0.9,0.8,0.9c0.3,0,0.6-0.1,0.9-0.4v-2c0-0.5-0.1-0.5-0.4-0.6l-0.3-0.1
		v-0.2c0.2,0,0.6,0,0.8-0.1c0.3,0,0.5-0.1,0.6-0.1v2.8c0,0.4,0.1,0.5,0.4,0.5l0.2,0V47.9z"/>
	<path id="XMLID_109_" d="M123.9,47.9c-0.2,0-0.9,0.1-1.4,0.3v-0.6l-0.5,0.3c-0.3,0.2-0.6,0.2-0.7,0.2c-0.7,0-1.7-0.6-1.7-1.8
		c0-1.2,1.1-2.1,2.3-2.1c0.1,0,0.4,0,0.6,0.1v-1.2c0-0.6-0.1-0.6-0.7-0.6v-0.2c0.5-0.1,1.1-0.2,1.4-0.3v5.1c0,0.5,0.1,0.5,0.4,0.5
		l0.2,0V47.9z M122.4,45c-0.2-0.3-0.6-0.4-0.9-0.4c-0.4,0-1.1,0.3-1.1,1.6c0,1,0.7,1.5,1.2,1.5c0.3,0,0.6-0.1,0.8-0.3V45z"/>
	<path id="XMLID_112_" d="M128.2,44.6c-0.5,0.1-0.5,0.1-0.8,0.6c-0.2,0.4-0.5,1.2-1.1,2.5c-0.6,1.4-0.8,1.9-0.9,2.3
		c0,0.2-0.2,0.2-0.3,0.2c-0.3,0-0.5-0.2-0.5-0.4c0-0.1,0.1-0.2,0.2-0.3c0.3-0.2,0.5-0.4,0.7-0.8c0.2-0.3,0.2-0.5,0.3-0.6
		c0.1-0.1,0-0.2,0-0.4c-0.4-1-0.8-2.1-1-2.6c-0.2-0.4-0.3-0.6-0.8-0.6v-0.2h1.8l0,0.2c-0.4,0.1-0.5,0.1-0.3,0.5l0.8,2.1
		c0.2-0.5,0.6-1.6,0.8-2.1c0.1-0.3,0-0.4-0.4-0.5v-0.2h1.6V44.6z"/>
</g>
</svg>
