<?xml version="1.0" encoding="utf-8"?>
<!-- Generator: Adobe Illustrator 19.2.1, SVG Export Plug-In . SVG Version: 6.00 Build 0)  -->
<svg version="1.1" id="Layer_1" xmlns="http://www.w3.org/2000/svg" xmlns:xlink="http://www.w3.org/1999/xlink" x="0px" y="0px"
	 viewBox="0 0 45 43" style="enable-background:new 0 0 45 43;" xml:space="preserve">
<style type="text/css">
	.st0{fill:none;stroke:#FFFFFF;stroke-width:1.44;stroke-linecap:round;stroke-linejoin:round;stroke-miterlimit:22.9256;}
</style>
<path class="st0" d="M27.5,10.4V8c0-0.4-0.1-0.7-0.4-0.9c-0.2-0.2-0.6-0.4-0.9-0.4h-6.3c-0.4,0-0.7,0.1-0.9,0.4l0,0
	c-0.2,0.2-0.4,0.6-0.4,0.9v2.4 M34,36.3V10.9h3.9c1.2,0,2.1,1,2.1,2.1v22.3c0,1.2-1,2.1-2.1,2.1H34v-9.5 M34,37.5H12.1 M11.8,10.9
	h22.3 M8.1,10.9h3.9v26.6H8.1c-1.2,0-2.1-1-2.1-2.1V13.1C6,11.9,7,10.9,8.1,10.9L8.1,10.9z"/>
</svg>
