{
    "cordova-plugin-whitelist": {
        "source": {
            "type": "registry",
            "id": "cordova-plugin-whitelist@~1.2.2"
        },
        "is_top_level": true,
        "variables": {}
    },
    "cordova-plugin-statusbar": {
        "source": {
            "type": "registry",
            "id": "cordova-plugin-statusbar@~2.1.3"
        },
        "is_top_level": true,
        "variables": {}
    },
    "cordova-plugin-console": {
        "source": {
            "type": "registry",
            "id": "cordova-plugin-console@~1.0.3"
        },
        "is_top_level": true,
        "variables": {}
    },
    "cordova-plugin-device": {
        "source": {
            "type": "registry",
            "id": "cordova-plugin-device@~1.1.2"
        },
        "is_top_level": true,
        "variables": {}
    },
    "ionic-plugin-keyboard": {
        "source": {
            "type": "registry",
            "id": "ionic-plugin-keyboard@~2.2.1"
        },
        "is_top_level": true,
        "variables": {}
    },
    "cordova-plugin-splashscreen": {
        "source": {
            "type": "registry",
            "id": "cordova-plugin-splashscreen@~3.2.2"
        },
        "is_top_level": true,
        "variables": {}
    },
    "cordova-plugin-crop": {
        "source": {
            "type": "registry",
            "id": "cordova-plugin-crop@~0.1.0"
        },
        "is_top_level": true,
        "variables": {}
    },
    "cordova-plugin-network-information": {
        "source": {
            "type": "registry",
            "id": "cordova-plugin-network-information@~1.2.1"
        },
        "is_top_level": true,
        "variables": {}
    },
    "cordova.plugins.diagnostic": {
        "source": {
            "type": "registry",
            "id": "cordova.plugins.diagnostic@~3.1.7"
        },
        "is_top_level": true,
        "variables": {}
    }
}