<?xml version="1.0" encoding="utf-8"?>
<!-- Generator: Adobe Illustrator 19.2.1, SVG Export Plug-In . SVG Version: 6.00 Build 0)  -->
<svg version="1.1" id="Layer_1" xmlns="http://www.w3.org/2000/svg" xmlns:xlink="http://www.w3.org/1999/xlink" x="0px" y="0px"
	 viewBox="0 0 44 42" style="enable-background:new 0 0 44 42;" xml:space="preserve">
<style type="text/css">
	.st0{fill:none;stroke:#FFFFFF;stroke-width:1.44;stroke-miterlimit:22.9256;}
	.st1{fill:none;stroke:#FFFFFF;stroke-width:1.44;stroke-linecap:round;stroke-linejoin:round;stroke-miterlimit:22.9256;}
</style>
<path class="st0" d="M39.2,14.1l-0.5,3.6c-0.1,0.6-0.6,1-1.2,1h0l0,0c0,0-0.1,0-0.1,0l-6.1-0.9c-0.6-0.1-1.1-0.7-1-1.3
	c0.5-3.4,1.5-3.9-2.9-4.7c-2.2-0.4-4.6-0.5-5-0.5h0h0h0h0h0h0h0c-0.4,0-2.9,0.1-5,0.5c-4.4,0.8-3.4,1.4-2.9,4.7
	c0.1,0.6-0.4,1.2-1,1.3l-6.1,0.9c0,0-0.1,0-0.1,0l0,0h0c-0.6,0-1.1-0.4-1.2-1l-0.5-3.6c0-0.2,0-0.3,0-0.5c0.1-4,8.5-6.5,17-6.8
	c8.5,0.3,16.9,2.8,17,6.8C39.2,13.7,39.2,13.9,39.2,14.1L39.2,14.1z M22.2,18.5c3.4,0,6.2,2.8,6.2,6.2c0,3.4-2.8,6.2-6.2,6.2
	c-3.4,0-6.2-2.8-6.2-6.2C16,21.2,18.8,18.5,22.2,18.5L22.2,18.5z"/>
<path class="st1" d="M33.1,20.7c1.1,3.3,2.4,7.5,2.4,8.5v2.6c0,2-1.5,3.7-3.2,3.7H12.1c-1.8,0-3.2-1.7-3.2-3.7v-2.6
	c0-1,1.4-5.2,2.6-8.5"/>
</svg>
