<?xml version="1.0" encoding="utf-8"?>
<!-- Generator: Adobe Illustrator 19.2.1, SVG Export Plug-In . SVG Version: 6.00 Build 0)  -->
<svg version="1.1" id="Isolation_Mode" xmlns="http://www.w3.org/2000/svg" xmlns:xlink="http://www.w3.org/1999/xlink" x="0px"
	 y="0px" viewBox="0 0 237 69.5" style="enable-background:new 0 0 237 69.5;" xml:space="preserve">
<style type="text/css">
	.st0{fill:#FFFFFF;}
</style>
<g id="XMLID_10725_">
	<g id="XMLID_10726_">
		<path id="XMLID_10737_" class="st0" d="M7.9,44.9l15.8-31.2c0.8-1.6,2.5-2.6,4.4-2.6c2,0,3.7,1.2,4.6,2.9l15.8,31.4
			c1.5,3.3-0.8,7.1-4.6,7.1h-5.3v-0.1V41.7c0-1.6-1.3-2.8-2.8-2.8l0,0c-1.6,0-2.8,1.3-2.8,2.8v8.4c0,1.3-1,2.3-2.3,2.3h-5.1
			c-1.3,0-2.3-1.1-2.3-2.3v-8.4c0-1.6-1.3-2.8-2.8-2.8c-1.6,0-2.8,1.3-2.8,2.8v10.8h-5.2C8.4,52.5,6.1,48.4,7.9,44.9 M31,32
			c0-1.6-1.3-2.8-2.8-2.8c-1.6,0-2.8,1.3-2.8,2.8c0,1.6,1.3,2.8,2.8,2.8S31,33.5,31,32z"/>
		<g id="XMLID_10734_">
			<path id="XMLID_10736_" class="st0" d="M130.4,11.7l-18,9.3l-18-9.3C91,9.9,87,12.4,87,16.2v31.2c0,2.7,2.2,5,4.9,5.1h10.9
				c0.6,0,1.2-0.5,1.3-1.1c0.7-4.4,3.7-7,8.4-7c4.7,0,7.7,2.6,8.4,7c0.1,0.6,0.6,1.1,1.3,1.1h10.9c2.7-0.1,4.9-2.3,4.9-5.1V16.2
				C137.8,12.4,133.8,9.9,130.4,11.7z"/>
			<circle id="XMLID_10735_" class="st0" cx="112.4" cy="52.5" r="2.8"/>
		</g>
		<g id="XMLID_10731_">
			<path id="XMLID_10733_" class="st0" d="M182.1,44.9l-15.8-31.2c-1.9-3.5-6.9-3.5-8.9,0l-15.8,31.2c-1.9,3.4,0.5,7.6,4.4,7.6h18.4
				c0.8,0,1.4-0.7,1.4-1.4c0-0.5-0.3-1.2-1.2-2.1c-1.3-1.3-2.8-2-4.8-2c-1.3,0-2.7,0.5-4,1.2c-1.2,0.8-2.8,0.4-3.7-0.8
				s-0.7-3,0.5-3.8c2.1-1.7,4.7-2.5,7.5-2.5c2.1,0,4,0.4,5.7,1.2c3.5,1.7,5.7,4.7,6.6,9.1c0.1,0.7,0.7,1.2,1.4,1.2l0,0h3.7
				C181.6,52.5,184,48.3,182.1,44.9z"/>
			<circle id="XMLID_10732_" class="st0" cx="160.6" cy="61" r="2.8"/>
		</g>
		<g id="XMLID_10728_">
			<path id="XMLID_10730_" class="st0" d="M66,29.1H53.8l0,0l0,0c-2.7,0-4.8,2.1-5,4.7l0,0c0,0.5-0.1,0.9-0.1,1.4
				c0,9.5,7.7,17.3,17.3,17.3l0,0l0,0C66,52.2,66,29.1,66,29.1L66,29.1L66,29.1z"/>
			<path id="XMLID_10729_" class="st0" d="M71.9,51.5c6.8-2.5,11.4-9,11.4-16.3v-19c0-2.8-2.3-5.1-5.1-5.1h-7.1
				c-2.8,0-5.1,2.3-5.1,5.1v8.5h2.8c1.6,0,2.8,1.3,2.8,2.8v22.3C71.7,50.5,71.7,51,71.9,51.5z"/>
		</g>
		<path id="XMLID_10727_" class="st0" d="M224.2,11.1h-7c-2.8,0-5,2.3-5,5.1v6.5l-18-10.9c-0.8-0.4-1.6-0.7-2.6-0.7
			c-2.8,0-5,2.2-5,5v31.3c0,2.8,2.3,5.1,5.1,5.1h3.4c0.7,0,1.5-0.6,1.4-1.6c-0.3-3.1,0.7-5.5,2.3-7.3c1.6-1.7,3.7-2.6,6.2-2.6
			c2.2,0,4.1,0.7,5.5,2.3c0.3,0.3,1.1,1.4,0.6,2.9c-0.6,1.6-1.9,1.9-2.6,1.9c-0.7,0-1.3-0.2-1.8-0.7c-0.6-0.5-1-0.8-1.8-0.8
			c-0.7,0-1.3,0.3-1.7,0.9c-0.4,0.6-0.6,1.4-0.6,2.3c0,1.5,0.5,2.8,1.7,2.8c0.1,0,19.8,0,19.8,0c2.8,0,5.1-2.3,5.1-5.1V16.2
			C229.3,13.4,227,11.1,224.2,11.1z"/>
	</g>
</g>
</svg>
